pkt#,size,#dec,#op,#rung,#2gram,#3gram,#4gram,#5gram,#6gram,#7gram,#8gram,#9gram,#10gram,#11gram,#12gram,#13gram,#14gram,#15gram,#16gram,#17gram,#18gram,#19gram,#20gram,L2gram,L3gram,L4gram,L5gram,L6gram,L7gram,L8gram,L9gram,L10gram,L11gram,L12gram,L13gram,L14gram,L15gram,L16gram,L17gram,L18gram,L19gram,L20gram,entropy,class
10376,82,0,0,0,80,79,78,77,75,74,0,0,0,0,0,0,0,0,0,0,0,0,0,80,79,78,77,75,74,0,0,0,0,0,0,0,0,0,0,0,0,0,0.19,0
10378,158,0,10,1,146,131,119,111,107,104,0,0,0,0,0,0,0,0,0,0,0,0,0,82,80,79,78,77,76,0,0,0,0,0,0,0,0,0,0,0,0,0,1.26,0
10380,160,6,10,1,143,115,101,90,83,78,1,0,0,0,0,0,0,0,0,0,0,0,0,82,81,80,77,76,75,1,0,0,0,0,0,0,0,0,0,0,0,0,1.80,0
10382,240,6,17,0,208,150,124,106,90,79,1,0,0,0,0,0,0,0,0,0,0,0,0,83,80,79,77,76,74,1,0,0,0,0,0,0,0,0,0,0,0,0,2.53,0
10384,240,6,8,1,217,161,136,119,95,78,1,0,0,0,0,0,0,0,0,0,0,0,0,93,79,78,77,76,74,1,0,0,0,0,0,0,0,0,0,0,0,0,2.39,0
10386,234,16,15,0,213,165,140,120,93,80,0,0,0,0,0,0,0,0,0,0,0,0,0,84,83,81,80,79,78,0,0,0,0,0,0,0,0,0,0,0,0,0,2.11,0
10388,144,0,1,0,133,123,116,114,113,110,0,0,0,0,0,0,0,0,0,0,0,0,0,117,116,115,114,113,110,0,0,0,0,0,0,0,0,0,0,0,0,0,1.17,0
10390,160,0,0,0,159,158,157,156,155,154,0,0,0,0,0,0,0,0,0,0,0,0,0,159,158,157,156,155,154,0,0,0,0,0,0,0,0,0,0,0,0,0,0.00,1
10392,160,0,2,0,159,156,154,152,151,150,0,0,0,0,0,0,0,0,0,0,0,0,0,159,154,153,152,151,150,0,0,0,0,0,0,0,0,0,0,0,0,0,0.11,1
10394,160,0,1,1,159,157,155,153,151,149,0,0,0,0,0,0,0,0,0,0,0,0,0,159,153,152,151,150,149,0,0,0,0,0,0,0,0,0,0,0,0,0,0.16,1
10397,160,6,1,1,159,158,157,154,151,149,1,0,0,0,0,0,0,0,0,0,0,0,0,159,158,157,149,148,147,1,0,0,0,0,0,0,0,0,0,0,0,0,0.22,1
10399,160,8,2,1,159,157,155,153,150,148,3,2,1,0,0,0,0,0,0,0,0,0,0,159,149,148,147,145,144,3,2,1,0,0,0,0,0,0,0,0,0,0,0.33,1
10401,160,10,3,1,159,157,155,153,151,149,5,4,3,2,1,0,0,0,0,0,0,0,0,159,147,146,145,144,143,5,4,3,2,1,0,0,0,0,0,0,0,0,0.37,1
10403,160,10,2,1,159,158,157,154,151,149,7,6,5,4,3,2,1,0,0,0,0,0,0,159,158,157,143,142,141,7,6,5,4,3,2,1,0,0,0,0,0,0,0.42,1
10405,160,10,3,1,159,157,155,152,150,148,9,8,7,6,5,4,3,2,1,0,0,0,0,159,143,142,140,139,138,9,8,7,6,5,4,3,2,1,0,0,0,0,0.53,1
10407,160,10,3,1,159,158,156,154,152,150,13,12,11,10,9,8,7,6,5,4,3,2,1,159,158,139,138,137,136,13,12,11,10,9,8,7,6,5,4,3,2,1,0.64,1
10409,160,10,3,1,159,158,156,154,152,150,13,12,11,10,9,8,7,6,5,4,3,2,1,159,158,139,138,137,136,13,12,11,10,9,8,7,6,5,4,3,2,1,0.64,1
10411,160,10,4,1,159,158,157,156,155,154,20,17,15,14,13,12,11,10,9,8,7,6,5,159,158,157,156,155,154,17,16,15,14,13,12,11,10,9,8,7,6,5,0.75,1
10413,160,10,4,1,159,158,157,156,155,154,20,17,15,14,13,12,11,10,9,8,7,6,5,159,158,157,156,155,154,17,16,15,14,13,12,11,10,9,8,7,6,5,0.75,1
10415,160,10,5,1,159,158,157,156,153,151,21,19,17,16,15,14,13,12,11,10,9,8,7,159,158,157,156,130,129,21,18,17,16,15,14,13,12,11,10,9,8,7,0.80,1
10417,160,26,5,1,159,157,155,153,150,148,21,20,19,18,17,16,15,14,13,12,11,10,9,159,131,130,129,127,126,21,20,19,18,17,16,15,14,13,12,11,10,9,0.90,1
10419,160,28,4,1,159,158,156,153,151,149,23,22,21,20,19,18,17,16,15,14,13,12,11,159,158,129,127,126,125,23,22,21,20,19,18,17,16,15,14,13,12,11,0.94,1
10421,160,30,5,1,159,157,155,153,151,149,25,24,23,22,21,20,19,18,17,16,15,14,13,159,127,126,125,124,123,25,24,23,22,21,20,19,18,17,16,15,14,13,0.99,1
10423,160,30,5,1,159,158,157,154,151,149,27,26,25,24,23,22,21,20,19,18,17,16,15,159,158,157,123,122,121,27,26,25,24,23,22,21,20,19,18,17,16,15,1.03,1
10425,160,30,6,1,159,157,155,152,150,148,29,28,27,26,25,24,23,22,21,20,19,18,17,159,123,122,120,119,118,29,28,27,26,25,24,23,22,21,20,19,18,17,1.11,1
10427,160,30,6,1,159,158,156,154,152,150,33,32,31,30,29,28,27,26,25,24,23,22,21,159,158,119,118,117,116,33,32,31,30,29,28,27,26,25,24,23,22,21,1.19,1
10429,160,30,6,1,159,158,156,154,152,150,33,32,31,30,29,28,27,26,25,24,23,22,21,159,158,119,118,117,116,33,32,31,30,29,28,27,26,25,24,23,22,21,1.19,1
10431,160,30,7,1,159,158,157,156,155,154,40,37,35,34,33,32,31,30,29,28,27,26,25,159,158,157,156,155,154,37,36,35,34,33,32,31,30,29,28,27,26,25,1.27,1
10433,160,30,7,1,159,158,157,156,155,154,40,37,35,34,33,32,31,30,29,28,27,26,25,159,158,157,156,155,154,37,36,35,34,33,32,31,30,29,28,27,26,25,1.27,1
10435,160,30,7,1,159,158,157,156,153,151,41,39,37,36,35,34,33,32,31,30,29,28,27,159,158,157,156,110,109,41,38,37,36,35,34,33,32,31,30,29,28,27,1.33,1
10437,160,46,9,1,159,157,155,153,151,149,41,40,39,38,37,36,35,34,33,32,31,30,29,159,111,110,109,108,107,41,40,39,38,37,36,35,34,33,32,31,30,29,1.36,1
10439,160,46,8,1,159,158,157,154,151,149,43,42,41,40,39,38,37,36,35,34,33,32,31,159,158,157,107,106,105,43,42,41,40,39,38,37,36,35,34,33,32,31,1.40,1
10441,160,46,9,1,159,157,155,152,150,148,45,44,43,42,41,40,39,38,37,36,35,34,33,159,107,106,104,103,102,45,44,43,42,41,40,39,38,37,36,35,34,33,1.47,1
10443,160,46,9,1,159,158,156,154,152,150,49,48,47,46,45,44,43,42,41,40,39,38,37,159,158,103,102,101,100,49,48,47,46,45,44,43,42,41,40,39,38,37,1.56,1
10445,160,46,9,1,159,158,156,154,152,150,49,48,47,46,45,44,43,42,41,40,39,38,37,159,158,103,102,101,100,49,48,47,46,45,44,43,42,41,40,39,38,37,1.56,1
10447,160,46,10,1,159,158,157,156,155,154,56,53,51,50,49,48,47,46,45,44,43,42,41,159,158,157,156,155,154,53,52,51,50,49,48,47,46,45,44,43,42,41,1.63,1
10449,160,46,10,1,159,158,157,156,155,154,56,53,51,50,49,48,47,46,45,44,43,42,41,159,158,157,156,155,154,53,52,51,50,49,48,47,46,45,44,43,42,41,1.63,1
10451,160,46,11,1,159,158,156,153,151,149,55,54,53,52,51,50,49,48,47,46,45,44,43,159,158,97,95,94,93,55,54,53,52,51,50,49,48,47,46,45,44,43,1.68,1
10453,160,62,12,1,159,158,157,154,151,149,57,56,55,54,53,52,51,50,49,48,47,46,45,159,158,157,93,92,91,57,56,55,54,53,52,51,50,49,48,47,46,45,1.73,1
10455,160,64,13,1,159,158,156,154,151,149,59,58,57,56,55,54,53,52,51,50,49,48,47,159,158,93,92,90,89,59,58,57,56,55,54,53,52,51,50,49,48,47,1.78,1
10457,160,66,14,1,159,158,157,155,153,151,63,61,59,58,57,56,55,54,53,52,51,50,49,159,158,157,89,88,87,63,60,59,58,57,56,55,54,53,52,51,50,49,1.84,1
10459,160,66,15,1,159,157,155,153,150,148,63,62,61,60,59,58,57,56,55,54,53,52,51,159,89,88,87,85,84,63,62,61,60,59,58,57,56,55,54,53,52,51,1.94,1
10461,160,66,14,1,159,158,157,156,155,152,69,68,67,66,65,63,61,59,57,56,55,54,53,159,158,157,156,155,82,69,68,67,66,65,60,59,58,57,56,55,54,53,2.04,1
10463,160,66,15,1,159,158,157,156,154,151,69,68,67,66,65,64,63,62,61,60,59,58,57,159,158,157,156,82,81,69,68,67,66,65,64,63,62,61,60,59,58,57,2.10,1
10465,160,66,15,1,159,158,157,156,154,151,69,68,67,66,65,64,63,62,61,60,59,58,57,159,158,157,156,82,81,69,68,67,66,65,64,63,62,61,60,59,58,57,2.10,1
10467,160,66,15,1,159,156,154,152,150,148,71,70,69,68,67,66,65,64,63,62,61,60,59,159,80,79,78,77,76,71,70,69,68,67,66,65,64,63,62,61,60,59,2.20,1
10469,160,74,16,2,159,157,155,153,151,149,73,72,71,70,69,68,67,66,65,64,63,62,61,159,79,78,77,76,75,73,72,71,70,69,68,67,66,65,64,63,62,61,2.24,1
10471,240,80,16,2,239,238,236,232,229,227,73,72,71,70,69,68,67,66,65,64,63,62,61,239,238,159,155,154,153,73,72,71,70,69,68,67,66,65,64,63,62,61,1.65,1
10473,238,76,17,0,237,235,232,229,225,222,71,70,69,68,67,66,65,64,63,62,61,60,59,237,155,154,153,151,150,71,70,69,68,67,66,65,64,63,62,61,60,59,1.72,1
10475,236,78,18,0,235,233,230,227,223,219,69,68,67,66,65,64,63,62,61,60,59,58,57,235,153,152,151,150,149,69,68,67,66,65,64,63,62,61,60,59,58,57,1.69,1
10477,234,78,16,0,233,232,230,226,221,217,68,66,65,64,63,62,61,60,59,58,57,56,55,233,232,159,149,148,147,67,66,65,64,63,62,61,60,59,58,57,56,55,1.69,1
10479,232,76,17,0,231,229,226,222,218,214,68,66,64,62,61,60,59,58,57,56,55,54,53,231,149,148,146,145,144,65,64,63,62,61,60,59,58,57,56,55,54,53,1.72,1
10481,230,74,17,0,229,228,225,222,218,214,70,68,66,64,62,60,58,56,55,54,53,52,51,229,228,145,144,143,142,63,62,61,60,59,58,57,56,55,54,53,52,51,1.74,1
10483,228,62,16,0,227,226,223,220,216,212,68,66,64,62,60,58,56,54,53,52,51,50,49,227,226,145,144,143,142,61,60,59,58,57,56,55,54,53,52,51,50,49,1.72,1
10485,226,62,17,0,225,224,222,220,217,214,73,69,66,64,62,60,58,56,54,52,50,48,47,225,224,159,158,155,154,59,58,57,56,55,54,53,52,51,50,49,48,47,1.76,1
10487,224,62,17,0,223,222,220,218,215,212,71,67,64,62,60,58,56,54,52,50,48,46,45,223,222,159,158,155,154,57,56,55,54,53,52,51,50,49,48,47,46,45,1.72,1
10489,222,62,17,0,221,220,218,215,211,207,70,67,64,62,60,58,56,54,52,50,48,46,44,221,220,159,137,136,135,55,54,53,52,51,50,49,48,47,46,45,44,43,1.71,1
10491,220,78,17,0,219,217,214,211,206,202,68,66,64,62,60,58,56,54,52,50,48,46,44,219,137,136,135,133,132,53,52,51,50,49,48,47,46,45,44,43,42,41,1.78,1
10493,218,80,15,0,217,216,213,209,205,201,68,66,64,62,60,58,56,54,52,50,48,46,44,217,216,135,133,132,131,51,50,49,48,47,46,45,44,43,42,41,40,39,1.77,1
10495,216,78,16,0,215,213,210,207,203,199,68,66,64,62,60,58,56,54,52,50,48,46,44,215,133,132,131,130,129,49,48,47,46,45,44,43,42,41,40,39,38,37,1.81,1
10497,214,78,16,0,213,212,210,206,201,197,68,66,64,62,60,58,56,54,52,50,48,46,44,213,212,159,129,128,127,47,46,45,44,43,42,41,40,39,38,37,36,35,1.81,1
10499,212,76,17,0,211,209,206,202,198,194,68,66,64,62,60,58,56,54,52,50,48,46,44,211,129,128,126,125,124,45,44,43,42,41,40,39,38,37,36,35,34,33,1.81,1
10501,210,74,17,0,209,208,205,202,198,194,70,68,66,64,62,60,58,56,54,52,50,48,46,209,208,125,124,123,122,43,42,41,40,39,38,37,36,35,34,33,32,31,1.86,1
10503,208,58,16,0,207,206,203,200,196,192,68,66,64,62,60,58,56,54,52,50,48,46,44,207,206,125,124,123,122,41,40,39,38,37,36,35,34,33,32,31,30,29,1.84,1
10505,206,58,17,0,205,204,202,200,197,194,73,69,66,64,62,60,58,56,54,52,50,48,46,205,204,159,158,155,154,39,38,37,36,35,34,33,32,31,30,29,28,27,1.88,1
10507,204,58,17,0,203,202,200,198,195,192,71,67,64,62,60,58,56,54,52,50,48,46,44,203,202,159,158,155,154,37,36,35,34,33,32,31,30,29,28,27,26,25,1.85,1
10509,202,58,17,0,201,200,197,193,189,185,68,66,64,62,60,58,56,54,52,50,48,46,44,201,200,119,117,116,115,35,34,33,32,31,30,29,28,27,26,25,24,23,1.85,1
10511,200,74,17,0,199,197,194,191,187,183,68,66,64,62,60,58,56,54,52,50,48,46,44,199,117,116,115,114,113,35,34,33,32,31,30,29,28,27,26,25,24,23,1.90,1
10513,198,74,16,0,197,196,194,190,185,181,68,66,64,62,60,58,56,54,52,50,48,46,44,197,196,159,113,112,111,37,36,35,34,33,32,31,30,29,28,27,26,25,1.89,1
10515,196,74,17,1,195,193,190,186,182,178,68,66,64,62,60,58,56,54,52,50,48,46,44,195,113,112,110,109,108,39,38,37,36,35,34,33,32,31,30,29,28,27,1.96,1
10517,194,74,17,1,193,192,189,186,182,178,70,68,66,64,62,60,58,56,54,52,50,48,46,193,192,109,108,107,106,43,42,41,40,39,38,37,36,35,34,33,32,31,1.99,1
10519,192,62,16,1,191,190,187,184,180,176,68,66,64,62,60,58,56,54,52,50,48,46,44,191,190,109,108,107,106,43,42,41,40,39,38,37,36,35,34,33,32,31,1.98,1
10521,190,62,17,1,189,188,186,184,181,178,73,69,66,64,62,60,58,56,54,52,50,48,46,189,188,159,158,155,154,47,46,45,44,43,42,41,40,39,38,37,36,35,2.02,1
10523,188,62,17,1,187,186,184,182,179,176,71,67,64,62,60,58,56,54,52,50,48,46,44,187,186,159,158,155,154,47,46,45,44,43,42,41,40,39,38,37,36,35,1.98,1
10525,186,62,17,1,185,184,181,177,173,169,68,66,64,62,60,58,56,54,52,50,48,46,44,185,184,103,101,100,99,49,48,47,46,45,44,43,42,41,40,39,38,37,1.97,1
10527,184,78,18,1,183,182,180,176,171,167,68,66,64,62,60,58,56,54,52,50,48,46,44,183,182,159,99,98,97,51,50,49,48,47,46,45,44,43,42,41,40,39,2.02,1
10529,182,80,18,1,181,180,177,174,169,165,68,66,64,62,60,58,56,54,52,50,48,46,44,181,180,99,98,96,95,53,52,51,50,49,48,47,46,45,44,43,42,41,2.01,1
10531,180,78,19,1,179,178,176,173,169,165,70,67,64,62,60,58,56,54,52,50,48,46,44,179,178,159,95,94,93,57,54,53,52,51,50,49,48,47,46,45,44,43,2.07,1
10533,178,78,19,1,177,175,172,169,164,160,68,66,64,62,60,58,56,54,52,50,48,46,45,177,95,94,93,91,90,57,56,55,54,53,52,51,50,49,48,47,46,45,2.12,1
10535,176,76,17,1,175,174,172,170,167,162,72,70,68,66,64,61,58,55,52,50,49,48,47,175,174,159,158,155,88,63,62,61,60,59,54,53,52,51,50,49,48,47,2.18,1
10537,174,74,18,1,173,172,170,168,163,159,70,68,66,64,62,60,58,56,55,54,53,52,51,173,172,159,158,88,87,63,62,61,60,59,58,57,56,55,54,53,52,51,2.21,1
10539,172,66,16,1,171,170,168,166,161,157,68,66,64,62,60,58,57,56,55,54,53,52,51,171,170,159,158,88,87,63,62,61,60,59,58,57,56,55,54,53,52,51,2.20,1
10541,170,66,17,1,169,167,164,161,157,152,68,66,64,62,61,60,59,58,57,56,55,54,53,169,87,86,85,84,82,65,64,63,62,61,60,59,58,57,56,55,54,53,2.24,1
10543,168,74,17,2,167,166,163,159,155,151,68,66,65,64,63,62,61,60,59,58,57,56,55,167,166,85,83,82,81,67,66,65,64,63,62,61,60,59,58,57,56,55,2.22,1
10545,166,80,17,2,165,164,162,159,153,149,69,68,67,66,65,64,63,62,61,60,59,58,57,165,164,159,81,80,79,69,68,67,66,65,64,63,62,61,60,59,58,57,2.24,1
10547,164,74,18,0,163,161,158,155,151,148,71,70,69,68,67,66,65,64,63,62,61,60,59,163,81,80,79,77,76,71,70,69,68,67,66,65,64,63,62,61,60,59,2.34,1
10549,162,74,17,0,161,160,159,158,156,152,77,75,72,70,69,68,67,66,65,64,63,62,61,161,160,159,158,155,78,77,74,71,70,69,68,67,66,65,64,63,62,61,2.34,1
10551,186,74,17,0,185,184,183,182,180,177,77,74,71,70,69,68,67,66,65,64,63,62,61,185,184,183,182,100,99,77,72,71,70,69,68,67,66,65,64,63,62,61,2.10,1
10553,184,80,18,0,183,182,181,178,173,171,73,71,69,68,67,66,65,64,63,62,61,60,59,183,182,181,99,98,97,73,70,69,68,67,66,65,64,63,62,61,60,59,2.11,1
10555,182,78,19,0,181,179,177,174,169,166,71,69,67,66,65,64,63,62,61,60,59,58,57,181,99,98,97,95,94,71,68,67,66,65,64,63,62,61,60,59,58,57,2.11,1
10557,180,70,17,0,179,178,177,175,172,168,74,69,65,64,63,62,61,60,59,58,57,56,55,179,178,177,103,101,92,69,66,65,64,63,62,61,60,59,58,57,56,55,2.14,1
10559,178,70,18,0,177,176,175,173,168,165,72,68,64,62,61,60,59,58,57,56,55,54,53,177,176,175,103,92,91,67,64,63,62,61,60,59,58,57,56,55,54,53,2.17,1
10561,176,78,19,0,175,174,173,170,166,162,70,67,64,62,60,58,57,56,55,54,53,52,51,175,174,173,91,90,89,65,62,61,60,59,58,57,56,55,54,53,52,51,2.16,1
10563,174,78,19,0,173,171,169,166,161,158,70,67,64,62,60,58,56,54,53,52,51,50,49,173,91,90,89,87,86,63,60,59,58,57,56,55,54,53,52,51,50,49,2.17,1
10565,172,74,18,0,171,170,169,167,164,160,74,70,66,63,60,58,56,54,52,50,49,48,47,171,170,169,103,101,84,61,58,57,56,55,54,53,52,51,50,49,48,47,2.25,1
10567,170,74,17,0,169,168,167,165,161,158,73,70,67,65,63,61,59,57,55,53,51,49,47,169,168,167,103,84,83,59,56,55,54,53,52,51,50,49,48,47,46,45,2.25,1
10569,168,72,17,0,167,166,165,163,159,156,71,68,65,63,61,59,57,55,53,51,49,47,45,167,166,165,103,84,83,57,54,53,52,51,50,49,48,47,46,45,44,43,2.27,1
10571,166,70,18,0,165,164,163,160,155,150,70,67,64,62,60,58,56,54,52,50,48,46,44,165,164,163,80,79,78,55,52,51,50,49,48,47,46,45,44,43,42,41,2.29,1
10573,164,76,17,0,163,162,160,156,152,149,70,67,64,62,60,58,56,54,52,50,48,46,44,163,162,81,79,78,77,53,50,49,48,47,46,45,44,43,42,41,40,39,2.26,1
10575,162,80,18,0,161,159,157,154,150,147,70,67,64,62,60,58,56,54,52,50,48,46,44,161,80,79,77,76,75,51,48,47,46,45,44,43,42,41,40,39,38,37,2.30,1
10577,160,12,11,0,153,136,124,115,108,103,0,0,0,0,0,0,0,0,0,0,0,0,0,103,102,101,100,99,98,0,0,0,0,0,0,0,0,0,0,0,0,0,1.08,0
10579,170,12,11,0,163,146,134,125,118,113,0,0,0,0,0,0,0,0,0,0,0,0,0,113,112,111,110,109,108,0,0,0,0,0,0,0,0,0,0,0,0,0,1.03,0
10581,160,0,6,0,154,142,133,125,121,118,0,0,0,0,0,0,0,0,0,0,0,0,0,124,123,121,119,118,117,0,0,0,0,0,0,0,0,0,0,0,0,0,0.91,0
10583,240,0,9,0,232,214,203,192,182,177,0,0,0,0,0,0,0,0,0,0,0,0,0,103,99,98,97,94,93,0,0,0,0,0,0,0,0,0,0,0,0,0,0.92,0
10585,240,0,7,0,231,214,207,199,185,179,0,0,0,0,0,0,0,0,0,0,0,0,0,90,89,88,87,85,84,0,0,0,0,0,0,0,0,0,0,0,0,0,0.73,0
10587,186,0,5,0,179,167,161,155,145,138,0,0,0,0,0,0,0,0,0,0,0,0,0,116,82,81,80,79,76,0,0,0,0,0,0,0,0,0,0,0,0,0,0.63,0
10589,160,12,11,0,153,136,124,115,108,103,0,0,0,0,0,0,0,0,0,0,0,0,0,103,102,101,100,99,98,0,0,0,0,0,0,0,0,0,0,0,0,0,1.08,0
10591,170,12,11,0,163,146,134,125,118,113,0,0,0,0,0,0,0,0,0,0,0,0,0,113,112,111,110,109,108,0,0,0,0,0,0,0,0,0,0,0,0,0,1.03,0
10593,160,6,12,0,154,137,125,118,110,108,0,0,0,0,0,0,0,0,0,0,0,0,0,114,113,112,111,109,108,0,0,0,0,0,0,0,0,0,0,0,0,0,1.06,0
10595,182,6,13,0,175,156,143,135,125,122,0,0,0,0,0,0,0,0,0,0,0,0,0,80,78,77,76,75,74,0,0,0,0,0,0,0,0,0,0,0,0,0,1.05,0
10597,92,2,1,0,91,87,83,77,75,74,0,0,0,0,0,0,0,0,0,0,0,0,0,91,78,77,76,75,74,0,0,0,0,0,0,0,0,0,0,0,0,0,0.41,0
10599,108,6,2,0,107,106,102,93,80,76,0,0,0,0,0,0,0,0,0,0,0,0,0,107,106,80,79,77,76,0,0,0,0,0,0,0,0,0,0,0,0,0,0.45,0
10601,114,0,1,0,112,109,106,103,99,97,0,0,0,0,0,0,0,0,0,0,0,0,0,112,79,78,77,76,75,0,0,0,0,0,0,0,0,0,0,0,0,0,0.27,0
10603,82,0,0,0,81,80,79,78,77,76,0,0,0,0,0,0,0,0,0,0,0,0,0,81,80,79,78,77,76,0,0,0,0,0,0,0,0,0,0,0,0,0,0.00,0
10605,92,0,0,0,91,90,89,88,87,86,0,0,0,0,0,0,0,0,0,0,0,0,0,91,90,89,88,87,86,0,0,0,0,0,0,0,0,0,0,0,0,0,0.00,0
10607,96,0,0,0,95,94,93,92,91,90,0,0,0,0,0,0,0,0,0,0,0,0,0,95,94,93,92,91,90,0,0,0,0,0,0,0,0,0,0,0,0,0,0.00,0
10609,160,0,1,1,158,152,149,145,139,136,0,0,0,0,0,0,0,0,0,0,0,0,0,156,132,131,130,129,128,0,0,0,0,0,0,0,0,0,0,0,0,0,0.28,0
10611,212,0,4,1,205,196,190,182,170,166,0,0,0,0,0,0,0,0,0,0,0,0,0,117,88,87,85,83,82,0,0,0,0,0,0,0,0,0,0,0,0,0,0.56,0
10613,82,0,1,0,81,80,78,76,75,74,0,0,0,0,0,0,0,0,0,0,0,0,0,81,80,77,76,75,74,0,0,0,0,0,0,0,0,0,0,0,0,0,0.10,0
10615,86,0,0,0,85,84,83,82,81,80,0,0,0,0,0,0,0,0,0,0,0,0,0,85,84,83,82,81,80,0,0,0,0,0,0,0,0,0,0,0,0,0,0.00,0
10617,86,0,0,0,85,84,83,82,81,80,0,0,0,0,0,0,0,0,0,0,0,0,0,85,84,83,82,81,80,0,0,0,0,0,0,0,0,0,0,0,0,0,0.00,0
10619,86,0,0,0,85,84,83,82,81,80,0,0,0,0,0,0,0,0,0,0,0,0,0,85,84,83,82,81,80,0,0,0,0,0,0,0,0,0,0,0,0,0,0.00,0
10621,82,0,0,0,81,80,79,78,77,76,0,0,0,0,0,0,0,0,0,0,0,0,0,81,80,79,78,77,76,0,0,0,0,0,0,0,0,0,0,0,0,0,0.00,0
10623,84,0,0,0,83,82,81,80,79,78,0,0,0,0,0,0,0,0,0,0,0,0,0,83,82,81,80,79,78,0,0,0,0,0,0,0,0,0,0,0,0,0,0.00,0
10625,104,0,0,0,103,90,83,76,75,74,0,0,0,0,0,0,0,0,0,0,0,0,0,103,78,77,76,75,74,0,0,0,0,0,0,0,0,0,0,0,0,0,0.52,0
10627,112,0,0,0,111,94,85,76,75,74,0,0,0,0,0,0,0,0,0,0,0,0,0,111,78,77,76,75,74,0,0,0,0,0,0,0,0,0,0,0,0,0,0.59,0
10629,160,0,0,0,149,136,126,109,95,89,0,0,0,0,0,0,0,0,0,0,0,0,0,97,92,79,78,76,75,0,0,0,0,0,0,0,0,0,0,0,0,0,0.85,0
10631,240,0,0,0,219,192,173,140,114,103,0,0,0,0,0,0,0,0,0,0,0,0,0,105,78,77,76,75,74,0,0,0,0,0,0,0,0,0,0,0,0,0,1.04,0
10633,216,0,0,0,195,170,154,127,109,101,0,0,0,0,0,0,0,0,0,0,0,0,0,89,84,83,82,81,80,0,0,0,0,0,0,0,0,0,0,0,0,0,1.05,0
10635,160,0,0,0,159,152,149,144,139,136,0,0,0,0,0,0,0,0,0,0,0,0,0,159,96,95,94,93,92,0,0,0,0,0,0,0,0,0,0,0,0,0,0.23,0
10637,170,0,0,0,169,162,159,154,149,146,0,0,0,0,0,0,0,0,0,0,0,0,0,169,106,105,104,103,102,0,0,0,0,0,0,0,0,0,0,0,0,0,0.22,0
10639,140,0,0,0,139,132,129,124,119,116,0,0,0,0,0,0,0,0,0,0,0,0,0,139,96,95,94,93,92,0,0,0,0,0,0,0,0,0,0,0,0,0,0.26,0
10641,88,0,0,0,87,86,85,84,83,82,0,0,0,0,0,0,0,0,0,0,0,0,0,87,86,85,84,83,82,0,0,0,0,0,0,0,0,0,0,0,0,0,0.00,0
10643,144,0,6,1,136,128,119,108,84,76,0,0,0,0,0,0,0,0,0,0,0,0,0,81,80,79,78,76,75,0,0,0,0,0,0,0,0,0,0,0,0,0,0.72,0
10645,112,0,2,0,109,106,103,99,94,90,0,0,0,0,0,0,0,0,0,0,0,0,0,92,91,83,82,78,77,0,0,0,0,0,0,0,0,0,0,0,0,0,0.28,0
10669,160,12,11,0,153,136,124,115,108,103,0,0,0,0,0,0,0,0,0,0,0,0,0,103,102,101,100,99,98,0,0,0,0,0,0,0,0,0,0,0,0,0,1.08,0
10671,170,12,11,0,163,146,134,125,118,113,0,0,0,0,0,0,0,0,0,0,0,0,0,113,112,111,110,109,108,0,0,0,0,0,0,0,0,0,0,0,0,0,1.03,0
10673,160,12,11,0,153,136,124,115,108,103,0,0,0,0,0,0,0,0,0,0,0,0,0,103,102,101,100,99,98,0,0,0,0,0,0,0,0,0,0,0,0,0,1.08,0
10675,170,12,11,0,163,146,134,125,118,113,0,0,0,0,0,0,0,0,0,0,0,0,0,113,112,111,110,109,108,0,0,0,0,0,0,0,0,0,0,0,0,0,1.03,0
10677,160,6,13,0,153,134,121,113,103,100,0,0,0,0,0,0,0,0,0,0,0,0,0,58,56,55,54,53,52,0,0,0,0,0,0,0,0,0,0,0,0,0,1.16,0
10679,182,6,13,0,175,156,143,135,125,122,0,0,0,0,0,0,0,0,0,0,0,0,0,80,78,77,76,75,74,0,0,0,0,0,0,0,0,0,0,0,0,0,1.05,0
10681,160,0,9,0,152,134,123,112,102,97,0,0,0,0,0,0,0,0,0,0,0,0,0,99,91,89,87,84,83,0,0,0,0,0,0,0,0,0,0,0,0,0,1.28,0
10683,240,0,13,0,226,198,183,168,151,143,0,0,0,0,0,0,0,0,0,0,0,0,0,99,91,89,87,84,83,0,0,0,0,0,0,0,0,0,0,0,0,0,1.33,0
10685,240,0,8,0,231,213,205,196,180,171,0,0,0,0,0,0,0,0,0,0,0,0,0,90,56,55,54,53,50,0,0,0,0,0,0,0,0,0,0,0,0,0,0.81,0
10689,186,0,5,0,179,167,161,155,145,138,0,0,0,0,0,0,0,0,0,0,0,0,0,116,82,81,80,79,76,0,0,0,0,0,0,0,0,0,0,0,0,0,0.63,0
