pkt#,size,#dec,#op,#rung,#2gram,#3gram,#4gram,#5gram,#6gram,#7gram,#8gram,#9gram,#10gram,#11gram,#12gram,#13gram,#14gram,#15gram,#16gram,#17gram,#18gram,#19gram,#20gram,L2gram,L3gram,L4gram,L5gram,L6gram,L7gram,L8gram,L9gram,L10gram,L11gram,L12gram,L13gram,L14gram,L15gram,L16gram,L17gram,L18gram,L19gram,L20gram,entropy,class
60,82,0,0,0,80,79,78,77,75,74,0,0,0,0,0,0,0,0,0,0,0,0,0,80,79,78,77,75,74,0,0,0,0,0,0,0,0,0,0,0,0,0,0.19,0
62,158,0,10,1,146,131,119,112,107,104,0,0,0,0,0,0,0,0,0,0,0,0,0,82,80,79,78,77,76,0,0,0,0,0,0,0,0,0,0,0,0,0,1.24,0
64,160,16,16,1,142,111,97,88,82,78,1,0,0,0,0,0,0,0,0,0,0,0,0,83,80,79,77,76,75,1,0,0,0,0,0,0,0,0,0,0,0,0,1.88,0
66,240,16,24,0,204,147,121,104,89,79,1,0,0,0,0,0,0,0,0,0,0,0,0,83,81,80,79,78,74,1,0,0,0,0,0,0,0,0,0,0,0,0,2.61,0
68,240,6,9,0,213,163,138,119,95,79,2,0,0,0,0,0,0,0,0,0,0,0,0,83,80,79,78,77,74,1,0,0,0,0,0,0,0,0,0,0,0,0,2.48,0
70,240,16,15,0,218,170,142,120,91,77,1,0,0,0,0,0,0,0,0,0,0,0,0,80,79,77,76,75,74,1,0,0,0,0,0,0,0,0,0,0,0,0,2.19,0
72,164,16,14,0,150,125,109,97,82,78,0,0,0,0,0,0,0,0,0,0,0,0,0,84,83,81,80,79,78,0,0,0,0,0,0,0,0,0,0,0,0,0,1.56,0
74,144,0,2,0,133,123,116,114,113,111,0,0,0,0,0,0,0,0,0,0,0,0,0,117,116,115,114,113,110,0,0,0,0,0,0,0,0,0,0,0,0,0,1.14,0
76,136,0,0,0,135,134,133,132,131,130,0,0,0,0,0,0,0,0,0,0,0,0,0,135,134,133,132,131,130,0,0,0,0,0,0,0,0,0,0,0,0,0,0.00,1
78,136,0,1,0,135,132,130,128,127,126,0,0,0,0,0,0,0,0,0,0,0,0,0,135,130,129,128,127,126,0,0,0,0,0,0,0,0,0,0,0,0,0,0.13,1
80,136,0,0,1,135,134,132,129,127,125,0,0,0,0,0,0,0,0,0,0,0,0,0,135,134,129,127,126,125,0,0,0,0,0,0,0,0,0,0,0,0,0,0.19,1
82,136,6,1,1,135,134,133,131,128,125,1,0,0,0,0,0,0,0,0,0,0,0,0,135,134,133,125,124,123,1,0,0,0,0,0,0,0,0,0,0,0,0,0.25,1
84,136,6,2,1,135,133,131,129,126,124,3,2,1,0,0,0,0,0,0,0,0,0,0,135,125,124,123,121,120,3,2,1,0,0,0,0,0,0,0,0,0,0,0.37,1
86,136,6,1,1,135,134,133,131,129,126,5,4,3,2,1,0,0,0,0,0,0,0,0,135,134,133,123,122,118,5,4,3,2,1,0,0,0,0,0,0,0,0,0.50,1
88,136,6,2,1,135,134,133,131,128,125,7,6,5,4,3,2,1,0,0,0,0,0,0,135,134,133,121,118,117,7,6,5,4,3,2,1,0,0,0,0,0,0,0.56,1
90,136,14,2,1,135,133,131,129,126,124,9,8,7,6,5,4,3,2,1,0,0,0,0,135,119,118,117,115,114,9,8,7,6,5,4,3,2,1,0,0,0,0,0.69,1
92,136,14,3,1,135,134,132,130,127,125,11,10,9,8,7,6,5,4,3,2,1,0,0,135,134,117,116,114,113,11,10,9,8,7,6,5,4,3,2,1,0,0,0.73,1
94,136,14,3,1,135,133,131,129,126,124,13,12,11,10,9,8,7,6,5,4,3,2,1,135,115,114,113,111,110,13,12,11,10,9,8,7,6,5,4,3,2,1,0.84,1
96,136,14,2,1,135,134,133,132,131,129,19,18,17,16,15,14,13,12,11,10,9,8,7,135,134,133,132,131,108,19,18,17,16,15,14,13,12,11,10,9,8,7,0.93,1
98,136,14,2,1,135,134,133,132,131,129,19,18,17,16,15,14,13,12,11,10,9,8,7,135,134,133,132,131,108,19,18,17,16,15,14,13,12,11,10,9,8,7,0.93,1
100,136,14,2,1,135,134,133,132,131,129,19,18,17,16,15,14,13,12,11,10,9,8,7,135,134,133,132,131,108,19,18,17,16,15,14,13,12,11,10,9,8,7,0.93,1
102,136,14,3,1,134,132,130,128,126,124,21,20,19,18,17,16,15,14,13,12,11,10,9,107,106,105,104,103,102,21,20,19,18,17,16,15,14,13,12,11,10,9,1.06,1
104,136,24,2,2,135,134,132,129,127,125,23,22,21,20,19,18,17,16,15,14,13,12,11,135,134,105,103,102,101,23,22,21,20,19,18,17,16,15,14,13,12,11,1.10,1
106,136,30,4,2,135,134,133,131,128,125,25,24,23,22,21,20,19,18,17,16,15,14,13,135,134,133,101,100,99,25,24,23,22,21,20,19,18,17,16,15,14,13,1.16,1
108,136,30,5,2,135,133,131,129,126,124,27,26,25,24,23,22,21,20,19,18,17,16,15,135,101,100,99,97,96,27,26,25,24,23,22,21,20,19,18,17,16,15,1.25,1
111,136,30,4,2,135,134,133,131,129,126,29,28,27,26,25,24,23,22,21,20,19,18,17,135,134,133,99,98,94,29,28,27,26,25,24,23,22,21,20,19,18,17,1.33,1
114,136,30,5,2,135,134,133,131,128,125,31,30,29,28,27,26,25,24,23,22,21,20,19,135,134,133,97,94,93,31,30,29,28,27,26,25,24,23,22,21,20,19,1.37,1
116,136,38,6,2,135,134,132,130,128,125,33,32,31,30,29,28,27,26,25,24,23,22,21,135,134,95,94,93,91,33,32,31,30,29,28,27,26,25,24,23,22,21,1.43,1
118,136,38,7,2,135,134,133,131,127,125,35,34,33,32,31,30,29,28,27,26,25,24,23,135,134,133,93,90,89,35,34,33,32,31,30,29,28,27,26,25,24,23,1.47,1
120,136,38,7,2,135,134,133,132,131,130,43,41,38,36,35,34,33,32,31,30,29,28,27,135,134,133,132,131,130,43,38,37,36,35,34,33,32,31,30,29,28,27,1.59,1
122,136,38,7,2,135,134,133,132,131,130,43,41,38,36,35,34,33,32,31,30,29,28,27,135,134,133,132,131,130,43,38,37,36,35,34,33,32,31,30,29,28,27,1.59,1
124,136,38,8,2,135,134,133,132,130,128,44,43,42,41,40,39,38,37,36,35,34,33,32,135,134,133,132,84,83,44,43,42,41,40,39,38,37,36,35,34,33,32,1.65,1
126,136,38,8,2,135,134,133,132,130,128,44,43,42,41,40,39,38,37,36,35,34,33,32,135,134,133,132,84,83,44,43,42,41,40,39,38,37,36,35,34,33,32,1.65,1
128,136,38,9,2,135,134,133,131,128,124,45,44,43,42,41,40,39,38,37,36,35,34,33,135,134,133,80,79,78,45,44,43,42,41,40,39,38,37,36,35,34,33,1.71,1
130,136,48,8,3,135,134,132,129,127,125,47,46,45,44,43,42,41,40,39,38,37,36,35,135,134,81,79,78,77,47,46,45,44,43,42,41,40,39,38,37,36,35,1.77,1
132,136,54,9,3,135,133,131,129,127,125,49,48,47,46,45,44,43,42,41,40,39,38,37,135,79,78,77,76,75,49,48,47,46,45,44,43,42,41,40,39,38,37,1.83,1
134,88,0,0,0,87,86,85,84,83,82,0,0,0,0,0,0,0,0,0,0,0,0,0,87,86,85,84,83,82,0,0,0,0,0,0,0,0,0,0,0,0,0,0.00,0
136,88,0,1,0,87,86,85,83,80,78,0,0,0,0,0,0,0,0,0,0,0,0,0,87,86,85,80,79,78,0,0,0,0,0,0,0,0,0,0,0,0,0,0.09,1
138,88,0,0,1,87,86,84,81,79,77,0,0,0,0,0,0,0,0,0,0,0,0,0,87,86,81,79,78,77,0,0,0,0,0,0,0,0,0,0,0,0,0,0.18,1
140,88,6,1,1,87,85,83,81,79,77,1,0,0,0,0,0,0,0,0,0,0,0,0,87,79,78,77,76,75,1,0,0,0,0,0,0,0,0,0,0,0,0,0.27,1
142,160,12,11,0,153,136,124,115,108,103,0,0,0,0,0,0,0,0,0,0,0,0,0,103,102,101,100,99,98,0,0,0,0,0,0,0,0,0,0,0,0,0,1.08,0
144,170,12,11,0,163,146,134,125,118,113,0,0,0,0,0,0,0,0,0,0,0,0,0,113,112,111,110,109,108,0,0,0,0,0,0,0,0,0,0,0,0,0,1.03,0
146,160,0,6,0,154,142,133,125,121,118,0,0,0,0,0,0,0,0,0,0,0,0,0,124,123,121,119,118,117,0,0,0,0,0,0,0,0,0,0,0,0,0,0.91,0
148,240,0,9,0,232,214,203,192,182,177,0,0,0,0,0,0,0,0,0,0,0,0,0,103,99,98,97,94,93,0,0,0,0,0,0,0,0,0,0,0,0,0,0.92,0
150,240,0,7,0,231,214,207,199,185,179,0,0,0,0,0,0,0,0,0,0,0,0,0,90,89,88,87,85,84,0,0,0,0,0,0,0,0,0,0,0,0,0,0.73,0
152,186,0,5,0,179,167,161,155,145,138,0,0,0,0,0,0,0,0,0,0,0,0,0,116,82,81,80,79,76,0,0,0,0,0,0,0,0,0,0,0,0,0,0.63,0
154,160,12,11,0,153,136,124,115,108,103,0,0,0,0,0,0,0,0,0,0,0,0,0,103,102,101,100,99,98,0,0,0,0,0,0,0,0,0,0,0,0,0,1.08,0
156,170,12,11,0,163,146,134,125,118,113,0,0,0,0,0,0,0,0,0,0,0,0,0,113,112,111,110,109,108,0,0,0,0,0,0,0,0,0,0,0,0,0,1.03,0
158,160,6,12,0,154,137,125,118,110,108,0,0,0,0,0,0,0,0,0,0,0,0,0,114,113,112,111,109,108,0,0,0,0,0,0,0,0,0,0,0,0,0,1.06,0
160,182,6,13,0,175,156,143,135,125,122,0,0,0,0,0,0,0,0,0,0,0,0,0,80,78,77,76,75,74,0,0,0,0,0,0,0,0,0,0,0,0,0,1.05,0
162,92,2,1,0,91,87,83,77,75,74,0,0,0,0,0,0,0,0,0,0,0,0,0,91,78,77,76,75,74,0,0,0,0,0,0,0,0,0,0,0,0,0,0.41,0
164,108,6,2,0,107,106,102,93,80,76,0,0,0,0,0,0,0,0,0,0,0,0,0,107,106,80,79,77,76,0,0,0,0,0,0,0,0,0,0,0,0,0,0.45,0
166,114,0,1,0,112,109,106,103,99,97,0,0,0,0,0,0,0,0,0,0,0,0,0,112,79,78,77,76,75,0,0,0,0,0,0,0,0,0,0,0,0,0,0.27,0
168,82,0,0,0,81,80,79,78,77,76,0,0,0,0,0,0,0,0,0,0,0,0,0,81,80,79,78,77,76,0,0,0,0,0,0,0,0,0,0,0,0,0,0.00,0
170,92,0,0,0,91,90,89,88,87,86,0,0,0,0,0,0,0,0,0,0,0,0,0,91,90,89,88,87,86,0,0,0,0,0,0,0,0,0,0,0,0,0,0.00,0
172,96,0,0,0,95,94,93,92,91,90,0,0,0,0,0,0,0,0,0,0,0,0,0,95,94,93,92,91,90,0,0,0,0,0,0,0,0,0,0,0,0,0,0.00,0
174,160,0,1,1,158,152,149,145,139,136,0,0,0,0,0,0,0,0,0,0,0,0,0,156,132,131,130,129,128,0,0,0,0,0,0,0,0,0,0,0,0,0,0.28,0
176,212,0,4,1,205,196,190,182,170,166,0,0,0,0,0,0,0,0,0,0,0,0,0,117,88,87,85,83,82,0,0,0,0,0,0,0,0,0,0,0,0,0,0.56,0
178,82,0,0,0,81,80,79,78,77,76,0,0,0,0,0,0,0,0,0,0,0,0,0,81,80,79,78,77,76,0,0,0,0,0,0,0,0,0,0,0,0,0,0.00,0
180,86,0,2,0,85,81,80,79,77,76,0,0,0,0,0,0,0,0,0,0,0,0,0,85,81,80,79,77,76,0,0,0,0,0,0,0,0,0,0,0,0,0,0.25,0
182,86,0,0,0,85,84,83,82,81,80,0,0,0,0,0,0,0,0,0,0,0,0,0,85,84,83,82,81,80,0,0,0,0,0,0,0,0,0,0,0,0,0,0.00,0
184,86,0,0,0,85,84,83,82,81,80,0,0,0,0,0,0,0,0,0,0,0,0,0,85,84,83,82,81,80,0,0,0,0,0,0,0,0,0,0,0,0,0,0.00,0
186,82,0,0,0,81,80,79,78,77,76,0,0,0,0,0,0,0,0,0,0,0,0,0,81,80,79,78,77,76,0,0,0,0,0,0,0,0,0,0,0,0,0,0.00,0
188,84,0,0,0,83,82,81,80,79,78,0,0,0,0,0,0,0,0,0,0,0,0,0,83,82,81,80,79,78,0,0,0,0,0,0,0,0,0,0,0,0,0,0.00,0
190,104,0,0,0,103,90,83,76,75,74,0,0,0,0,0,0,0,0,0,0,0,0,0,103,78,77,76,75,74,0,0,0,0,0,0,0,0,0,0,0,0,0,0.52,0
192,112,0,0,0,111,94,85,76,75,74,0,0,0,0,0,0,0,0,0,0,0,0,0,111,78,77,76,75,74,0,0,0,0,0,0,0,0,0,0,0,0,0,0.59,0
194,160,0,0,0,149,136,126,109,95,89,0,0,0,0,0,0,0,0,0,0,0,0,0,97,92,79,78,76,75,0,0,0,0,0,0,0,0,0,0,0,0,0,0.85,0
196,240,0,0,0,219,192,173,140,114,103,0,0,0,0,0,0,0,0,0,0,0,0,0,105,78,77,76,75,74,0,0,0,0,0,0,0,0,0,0,0,0,0,1.04,0
198,216,0,0,0,195,170,154,127,109,101,0,0,0,0,0,0,0,0,0,0,0,0,0,89,84,83,82,81,80,0,0,0,0,0,0,0,0,0,0,0,0,0,1.05,0
200,160,0,0,0,159,152,149,144,139,136,0,0,0,0,0,0,0,0,0,0,0,0,0,159,96,95,94,93,92,0,0,0,0,0,0,0,0,0,0,0,0,0,0.23,0
202,170,0,0,0,169,162,159,154,149,146,0,0,0,0,0,0,0,0,0,0,0,0,0,169,106,105,104,103,102,0,0,0,0,0,0,0,0,0,0,0,0,0,0.22,0
204,140,0,0,0,139,132,129,124,119,116,0,0,0,0,0,0,0,0,0,0,0,0,0,139,96,95,94,93,92,0,0,0,0,0,0,0,0,0,0,0,0,0,0.26,0
206,88,0,0,0,87,86,85,84,83,82,0,0,0,0,0,0,0,0,0,0,0,0,0,87,86,85,84,83,82,0,0,0,0,0,0,0,0,0,0,0,0,0,0.00,0
208,144,0,6,1,136,128,119,108,84,76,0,0,0,0,0,0,0,0,0,0,0,0,0,81,80,79,78,76,75,0,0,0,0,0,0,0,0,0,0,0,0,0,0.72,0
210,112,0,2,0,109,106,103,99,94,90,0,0,0,0,0,0,0,0,0,0,0,0,0,92,91,83,82,78,77,0,0,0,0,0,0,0,0,0,0,0,0,0,0.28,0
234,160,12,11,0,153,136,124,115,108,103,0,0,0,0,0,0,0,0,0,0,0,0,0,103,102,101,100,99,98,0,0,0,0,0,0,0,0,0,0,0,0,0,1.08,0
238,170,12,11,0,163,146,134,125,118,113,0,0,0,0,0,0,0,0,0,0,0,0,0,113,112,111,110,109,108,0,0,0,0,0,0,0,0,0,0,0,0,0,1.03,0
240,160,12,11,0,153,136,124,115,108,103,0,0,0,0,0,0,0,0,0,0,0,0,0,103,102,101,100,99,98,0,0,0,0,0,0,0,0,0,0,0,0,0,1.08,0
242,170,12,11,0,163,146,134,125,118,113,0,0,0,0,0,0,0,0,0,0,0,0,0,113,112,111,110,109,108,0,0,0,0,0,0,0,0,0,0,0,0,0,1.03,0
244,160,6,13,0,153,134,121,113,103,100,0,0,0,0,0,0,0,0,0,0,0,0,0,58,56,55,54,53,52,0,0,0,0,0,0,0,0,0,0,0,0,0,1.16,0
246,182,6,13,0,175,156,143,135,125,122,0,0,0,0,0,0,0,0,0,0,0,0,0,80,78,77,76,75,74,0,0,0,0,0,0,0,0,0,0,0,0,0,1.05,0
248,160,0,9,0,152,134,123,112,102,97,0,0,0,0,0,0,0,0,0,0,0,0,0,99,91,89,87,84,83,0,0,0,0,0,0,0,0,0,0,0,0,0,1.28,0
250,240,0,13,0,226,198,183,168,151,143,0,0,0,0,0,0,0,0,0,0,0,0,0,99,91,89,87,84,83,0,0,0,0,0,0,0,0,0,0,0,0,0,1.33,0
252,240,0,8,0,231,213,205,196,180,171,0,0,0,0,0,0,0,0,0,0,0,0,0,90,56,55,54,53,50,0,0,0,0,0,0,0,0,0,0,0,0,0,0.81,0
254,186,0,5,0,179,167,161,155,145,138,0,0,0,0,0,0,0,0,0,0,0,0,0,116,82,81,80,79,76,0,0,0,0,0,0,0,0,0,0,0,0,0,0.63,0
