pkt#,size,#dec,#op,#rung,#2gram,#3gram,#4gram,#5gram,#6gram,#7gram,#8gram,#9gram,#10gram,#11gram,#12gram,#13gram,#14gram,#15gram,#16gram,#17gram,#18gram,#19gram,#20gram,L2gram,L3gram,L4gram,L5gram,L6gram,L7gram,L8gram,L9gram,L10gram,L11gram,L12gram,L13gram,L14gram,L15gram,L16gram,L17gram,L18gram,L19gram,L20gram,entropy,class
3114,82,0,1,0,80,79,78,77,75,74,0,0,0,0,0,0,0,0,0,0,0,0,0,80,79,78,77,75,74,0,0,0,0,0,0,0,0,0,0,0,0,0,0.19,0
3116,158,6,10,1,146,131,119,112,107,104,0,0,0,0,0,0,0,0,0,0,0,0,0,82,80,79,78,77,76,0,0,0,0,0,0,0,0,0,0,0,0,0,1.23,0
3118,160,6,9,1,142,115,98,90,85,80,1,0,0,0,0,0,0,0,0,0,0,0,0,80,79,78,77,76,74,1,0,0,0,0,0,0,0,0,0,0,0,0,1.88,0
3120,240,6,23,0,199,131,98,90,84,80,1,0,0,0,0,0,0,0,0,0,0,0,0,80,79,78,77,75,74,1,0,0,0,0,0,0,0,0,0,0,0,0,2.51,0
3122,240,6,24,0,196,124,96,89,78,74,0,0,0,0,0,0,0,0,0,0,0,0,0,80,79,78,77,75,74,0,0,0,0,0,0,0,0,0,0,0,0,0,2.50,0
3124,240,6,21,0,204,146,121,106,87,77,1,0,0,0,0,0,0,0,0,0,0,0,0,83,80,79,78,77,76,1,0,0,0,0,0,0,0,0,0,0,0,0,2.68,0
3126,240,6,25,0,212,160,135,116,91,77,0,0,0,0,0,0,0,0,0,0,0,0,0,80,79,77,76,75,74,0,0,0,0,0,0,0,0,0,0,0,0,0,2.50,0
3128,204,16,21,1,183,146,125,108,86,79,0,0,0,0,0,0,0,0,0,0,0,0,0,84,83,81,80,79,78,0,0,0,0,0,0,0,0,0,0,0,0,0,1.98,0
3130,144,6,3,0,130,121,114,113,112,110,0,0,0,0,0,0,0,0,0,0,0,0,0,116,115,114,113,112,110,0,0,0,0,0,0,0,0,0,0,0,0,0,1.20,0
3132,160,0,0,0,159,158,157,156,155,154,0,0,0,0,0,0,0,0,0,0,0,0,0,159,158,157,156,155,154,0,0,0,0,0,0,0,0,0,0,0,0,0,0.00,1
3134,160,0,0,0,158,156,154,152,151,150,0,0,0,0,0,0,0,0,0,0,0,0,0,155,154,153,152,151,150,0,0,0,0,0,0,0,0,0,0,0,0,0,0.11,1
3136,160,0,1,1,159,157,155,153,151,149,0,0,0,0,0,0,0,0,0,0,0,0,0,159,153,152,151,150,149,0,0,0,0,0,0,0,0,0,0,0,0,0,0.16,1
3138,160,6,2,1,159,158,157,155,151,149,1,0,0,0,0,0,0,0,0,0,0,0,0,159,158,157,149,148,147,1,0,0,0,0,0,0,0,0,0,0,0,0,0.22,1
3140,160,6,3,1,159,157,155,153,150,148,3,2,1,0,0,0,0,0,0,0,0,0,0,159,149,148,147,145,144,3,2,1,0,0,0,0,0,0,0,0,0,0,0.33,1
3142,160,6,3,1,159,157,155,153,151,148,5,4,3,2,1,0,0,0,0,0,0,0,0,159,147,146,145,144,142,5,4,3,2,1,0,0,0,0,0,0,0,0,0.44,1
3144,160,6,2,1,159,158,156,154,151,149,7,6,5,4,3,2,1,0,0,0,0,0,0,159,158,145,144,142,141,7,6,5,4,3,2,1,0,0,0,0,0,0,0.49,1
3146,160,14,2,1,159,158,157,154,151,149,9,8,7,6,5,4,3,2,1,0,0,0,0,159,158,157,141,140,139,9,8,7,6,5,4,3,2,1,0,0,0,0,0.54,1
3148,160,16,3,1,159,157,155,153,150,148,11,10,9,8,7,6,5,4,3,2,1,0,0,159,141,140,139,137,136,11,10,9,8,7,6,5,4,3,2,1,0,0,0.64,1
3150,160,18,3,1,159,157,155,153,151,149,13,12,11,10,9,8,7,6,5,4,3,2,1,159,139,138,137,136,135,13,12,11,10,9,8,7,6,5,4,3,2,1,0.69,1
3152,160,18,3,1,159,158,157,154,151,149,15,14,13,12,11,10,9,8,7,6,5,4,3,159,158,157,135,134,133,15,14,13,12,11,10,9,8,7,6,5,4,3,0.75,1
3154,160,18,4,1,159,158,157,156,155,154,23,21,19,18,17,16,15,13,11,10,9,8,7,159,158,157,156,155,154,23,20,19,18,17,16,15,12,11,10,9,8,7,0.86,1
3156,160,18,4,1,159,158,157,156,155,154,23,21,19,18,17,16,15,13,11,10,9,8,7,159,158,157,156,155,154,23,20,19,18,17,16,15,12,11,10,9,8,7,0.86,1
3158,160,18,4,1,159,158,157,156,154,152,24,22,20,18,17,16,15,14,13,12,11,10,9,159,158,157,156,128,127,24,20,19,18,17,16,15,14,13,12,11,10,9,0.91,1
3160,160,18,4,1,159,157,155,153,150,148,23,22,21,20,19,18,17,16,15,14,13,12,11,159,129,128,127,125,124,23,22,21,20,19,18,17,16,15,14,13,12,11,1.02,1
3162,160,18,5,1,159,158,157,155,153,150,27,26,25,24,23,22,21,20,19,18,17,16,15,159,158,157,125,124,122,27,26,25,24,23,22,21,20,19,18,17,16,15,1.12,1
3164,160,18,5,1,159,158,157,155,153,150,27,26,25,24,23,22,21,20,19,18,17,16,15,159,158,157,125,124,122,27,26,25,24,23,22,21,20,19,18,17,16,15,1.12,1
3166,160,34,6,1,159,157,155,153,150,148,29,28,27,26,25,24,23,22,21,20,19,18,17,159,123,122,121,119,118,29,28,27,26,25,24,23,22,21,20,19,18,17,1.21,1
3168,160,36,5,1,159,158,156,153,151,149,31,30,29,28,27,26,25,24,23,22,21,20,19,159,158,121,119,118,117,31,30,29,28,27,26,25,24,23,22,21,20,19,1.26,1
3170,160,38,6,1,159,157,155,153,151,149,33,32,31,30,29,28,27,26,25,24,23,22,21,159,119,118,117,116,115,33,32,31,30,29,28,27,26,25,24,23,22,21,1.30,1
3172,160,38,6,1,159,158,157,154,151,149,35,34,33,32,31,30,29,28,27,26,25,24,23,159,158,157,115,114,113,35,34,33,32,31,30,29,28,27,26,25,24,23,1.33,1
3174,160,38,7,1,159,158,157,156,155,154,43,41,39,38,37,36,35,34,33,31,29,28,27,159,158,157,156,155,154,43,40,39,38,37,36,35,34,33,30,29,28,27,1.41,1
3176,160,38,7,1,159,158,157,156,155,154,43,41,39,38,37,36,35,34,33,31,29,28,27,159,158,157,156,155,154,43,40,39,38,37,36,35,34,33,30,29,28,27,1.41,1
3178,160,38,8,1,159,158,157,155,153,151,43,41,39,38,37,36,35,34,33,32,31,30,29,159,158,157,109,108,107,43,40,39,38,37,36,35,34,33,32,31,30,29,1.45,1
3180,160,38,7,1,159,157,155,153,151,149,43,42,41,40,39,38,37,36,35,34,33,32,31,159,109,108,107,106,105,43,42,41,40,39,38,37,36,35,34,33,32,31,1.51,1
3182,160,38,8,1,159,158,157,156,155,153,50,48,47,46,45,44,43,42,41,40,39,37,35,159,158,157,156,155,103,49,48,47,46,45,44,43,42,41,40,39,36,35,1.61,1
3184,160,38,8,1,159,158,157,156,155,153,50,48,47,46,45,44,43,42,41,40,39,37,35,159,158,157,156,155,103,49,48,47,46,45,44,43,42,41,40,39,36,35,1.61,1
3186,160,54,9,1,159,157,155,153,150,148,49,48,47,46,45,44,43,42,41,40,39,38,37,159,103,102,101,99,98,49,48,47,46,45,44,43,42,41,40,39,38,37,1.69,1
3188,160,56,9,1,159,158,157,156,154,152,54,53,51,50,49,48,47,46,45,44,43,42,41,159,158,157,156,98,97,54,53,51,50,49,48,47,46,45,44,43,42,41,1.74,1
3190,160,56,9,1,159,158,157,156,154,152,54,53,51,50,49,48,47,46,45,44,43,42,41,159,158,157,156,98,97,54,53,51,50,49,48,47,46,45,44,43,42,41,1.74,1
3192,160,56,9,1,158,156,154,152,150,148,55,54,53,52,51,50,49,48,47,46,45,44,43,97,96,95,94,93,92,55,54,53,52,51,50,49,48,47,46,45,44,43,1.84,1
3194,160,58,10,2,159,157,155,153,151,149,57,56,55,54,53,52,51,50,49,48,47,46,45,159,95,94,93,92,91,57,56,55,54,53,52,51,50,49,48,47,46,45,1.90,1
3196,160,64,10,2,159,158,157,154,151,149,59,58,57,56,55,54,53,52,51,50,49,48,47,159,158,157,91,90,89,59,58,57,56,55,54,53,52,51,50,49,48,47,1.93,1
3198,160,66,11,2,159,157,155,153,150,148,61,60,59,58,57,56,55,54,53,52,51,50,49,159,91,90,89,87,86,61,60,59,58,57,56,55,54,53,52,51,50,49,2.00,1
3200,160,68,12,2,159,158,157,155,153,151,65,63,61,60,59,58,57,56,55,54,53,52,51,159,158,157,87,86,85,65,62,61,60,59,58,57,56,55,54,53,52,51,2.04,1
3202,160,68,13,2,159,157,155,153,150,148,65,64,63,62,61,60,59,58,57,56,55,54,53,159,87,86,85,83,82,65,64,63,62,61,60,59,58,57,56,55,54,53,2.14,1
3204,160,68,13,2,159,158,157,155,153,151,69,66,65,64,63,62,61,60,59,58,57,56,55,159,158,157,85,84,83,67,66,65,64,63,62,61,60,59,58,57,56,55,2.23,1
3206,160,68,13,2,159,158,156,154,151,149,69,68,67,66,65,64,63,62,61,60,59,58,57,159,158,83,82,80,79,69,68,67,66,65,64,63,62,61,60,59,58,57,2.28,1
3208,160,76,13,2,159,157,155,153,150,148,71,70,69,68,67,66,65,64,63,62,61,60,59,159,81,80,79,77,76,71,70,69,68,67,66,65,64,63,62,61,60,59,2.34,1
3210,160,78,12,2,159,158,156,153,151,149,73,72,71,70,69,68,67,66,65,64,63,62,61,159,158,79,77,76,75,73,72,71,70,69,68,67,66,65,64,63,62,61,2.37,1
3212,240,80,14,2,239,238,237,235,233,231,77,75,71,70,69,68,67,66,65,64,63,62,61,239,238,237,155,154,153,77,72,71,70,69,68,67,66,65,64,63,62,61,1.75,1
3214,238,74,15,0,237,235,233,231,228,226,75,73,71,69,67,66,65,64,63,62,61,60,59,237,155,154,153,151,150,75,70,69,68,67,66,65,64,63,62,61,60,59,1.81,1
3216,236,74,15,0,235,234,232,230,227,223,74,71,69,67,65,64,63,62,61,60,59,58,57,235,234,153,152,151,149,73,68,67,66,65,64,63,62,61,60,59,58,57,1.82,1
3218,234,74,15,0,233,232,230,228,224,221,72,69,67,65,63,62,61,60,59,58,57,56,55,233,232,151,150,148,147,71,66,65,64,63,62,61,60,59,58,57,56,55,1.82,1
3220,232,74,13,0,231,230,229,226,222,219,72,69,66,63,61,60,59,58,57,56,55,54,53,231,230,229,147,146,145,69,64,63,62,61,60,59,58,57,56,55,54,53,1.84,1
3222,230,76,14,0,229,228,226,224,220,217,72,69,66,63,60,58,57,56,55,54,53,52,51,229,228,147,146,144,143,67,62,61,60,59,58,57,56,55,54,53,52,51,1.83,1
3224,228,78,15,0,227,225,223,221,218,215,72,69,66,63,60,58,56,54,53,52,51,50,49,227,145,144,143,142,141,65,60,59,58,57,56,55,54,53,52,51,50,49,1.81,1
3226,226,78,15,0,225,224,222,219,216,213,72,69,66,63,60,58,56,54,52,50,49,48,47,225,224,143,141,140,139,63,58,57,56,55,54,53,52,51,50,49,48,47,1.82,1
3228,224,76,14,0,223,222,220,217,213,210,72,69,66,63,60,58,56,54,52,50,48,46,45,223,222,140,139,137,136,61,56,55,54,53,52,51,50,49,48,47,46,45,1.87,1
3230,222,74,15,0,221,220,219,217,214,210,74,71,68,65,62,60,58,56,54,52,50,48,46,221,220,219,137,136,134,59,54,53,52,51,50,49,48,47,46,45,44,43,1.90,1
3232,220,60,14,0,219,218,217,215,212,208,72,69,66,63,60,58,56,54,52,50,48,46,44,219,218,217,137,136,134,57,52,51,50,49,48,47,46,45,44,43,42,41,1.89,1
3234,218,60,15,0,217,216,215,214,212,210,78,73,68,65,62,60,58,56,54,52,50,48,46,217,216,215,214,155,154,55,50,49,48,47,46,45,44,43,42,41,40,39,1.93,1
3236,216,60,14,0,215,214,213,212,210,208,76,71,66,63,60,58,56,54,52,50,48,46,44,215,214,213,212,155,154,53,48,47,46,45,44,43,42,41,40,39,38,37,1.89,1
3238,214,60,14,1,213,211,209,207,204,201,72,69,66,63,60,58,56,54,52,50,48,46,44,213,131,130,129,128,127,51,46,45,44,43,42,41,40,39,38,37,36,35,1.94,1
3240,212,60,15,1,211,209,207,205,201,198,72,69,66,63,60,58,56,54,52,50,48,46,44,211,129,128,127,125,124,49,44,43,42,41,40,39,38,37,36,35,34,33,2.00,1
3242,210,60,15,1,209,208,207,205,202,199,75,71,68,65,62,60,58,56,54,52,50,48,46,209,208,207,125,124,123,47,42,41,40,39,38,37,36,35,34,33,32,31,2.01,1
3244,208,60,14,1,207,206,205,203,200,197,73,69,66,63,60,58,56,54,52,50,48,46,44,207,206,205,125,124,123,45,40,39,38,37,36,35,34,33,32,31,30,29,1.95,1
3246,206,58,14,1,205,203,201,199,196,193,72,69,66,63,60,58,56,54,52,50,48,46,44,205,123,122,121,120,119,43,38,37,36,35,34,33,32,31,30,29,28,27,2.00,1
3248,204,56,15,1,203,202,201,200,198,195,77,73,70,67,64,62,60,58,56,54,52,50,48,203,202,201,200,155,117,41,36,35,34,33,32,31,30,29,28,27,26,25,2.01,1
3250,202,54,15,1,201,200,199,198,196,193,75,71,68,65,62,60,58,56,54,52,50,48,46,201,200,199,198,155,117,39,34,33,32,31,30,29,28,27,26,25,24,23,1.99,1
3252,200,38,14,1,199,198,197,196,194,191,73,69,66,63,60,58,56,54,52,50,48,46,44,199,198,197,196,155,117,37,34,33,32,31,30,29,28,27,26,25,24,23,1.97,1
3254,198,38,14,1,197,194,192,190,187,184,72,69,66,63,60,58,56,54,52,50,48,46,44,197,114,113,112,111,110,37,36,35,34,33,32,31,30,29,28,27,26,25,2.03,1
3256,196,66,14,1,195,193,191,189,186,183,72,69,66,63,60,58,56,54,52,50,48,46,44,195,113,112,111,110,109,39,38,37,36,35,34,33,32,31,30,29,28,27,2.02,1
3258,194,72,14,2,193,192,191,188,184,181,72,69,66,63,60,58,56,54,52,50,48,46,44,193,192,191,109,108,107,41,40,39,38,37,36,35,34,33,32,31,30,29,2.07,1
3260,192,74,15,2,191,189,187,185,181,178,72,69,66,63,60,58,56,54,52,50,48,46,44,191,109,108,107,105,104,43,42,41,40,39,38,37,36,35,34,33,32,31,2.10,1
3262,190,76,15,2,189,187,185,183,180,177,72,69,66,63,60,58,56,54,52,50,48,46,44,189,107,106,105,104,103,45,44,43,42,41,40,39,38,37,36,35,34,33,2.13,1
3264,188,76,14,2,187,186,185,182,178,175,72,69,66,63,60,58,56,54,52,50,48,46,44,187,186,185,103,102,101,47,46,45,44,43,42,41,40,39,38,37,36,35,2.13,1
3266,186,76,14,2,185,183,181,179,175,172,72,69,66,63,60,58,56,54,52,50,48,46,44,185,103,102,101,99,98,49,48,47,46,45,44,43,42,41,40,39,38,37,2.23,1
3268,184,74,15,2,183,182,181,179,176,172,74,71,68,65,62,60,58,56,54,52,50,48,46,183,182,181,99,98,96,53,52,51,50,49,48,47,46,45,44,43,42,41,2.27,1
3270,182,72,14,2,181,180,179,177,174,170,72,69,66,63,60,58,56,54,52,50,48,46,44,181,180,179,99,98,96,53,52,51,50,49,48,47,46,45,44,43,42,41,2.25,1
3272,180,66,15,0,179,178,177,176,174,172,78,73,68,65,62,60,58,56,54,52,50,48,46,179,178,177,176,155,154,61,56,55,54,53,52,51,50,49,48,47,46,45,2.34,1
3274,178,66,15,0,177,176,175,174,172,170,76,71,66,63,60,58,56,54,52,50,48,46,45,177,176,175,174,155,154,61,56,55,54,53,52,51,50,49,48,47,46,45,2.27,1
3276,176,66,15,0,175,174,172,170,166,163,72,69,66,63,60,58,56,54,52,50,49,48,47,175,174,93,92,90,89,59,58,57,56,55,54,53,52,51,50,49,48,47,2.27,1
3278,174,80,15,0,173,171,169,167,163,160,72,69,66,63,60,58,56,54,53,52,51,50,49,173,91,90,89,87,86,61,60,59,58,57,56,55,54,53,52,51,50,49,2.32,1
3280,172,80,14,0,171,170,168,165,162,159,72,69,66,63,60,58,57,56,55,54,53,52,51,171,170,89,87,86,85,63,62,61,60,59,58,57,56,55,54,53,52,51,2.31,1
3282,170,74,13,0,169,167,165,163,160,157,72,69,66,63,61,60,59,58,57,56,55,54,53,169,87,86,85,84,83,65,64,63,62,61,60,59,58,57,56,55,54,53,2.33,1
3284,168,74,13,0,167,166,165,162,158,155,72,69,67,65,63,62,61,60,59,58,57,56,55,167,166,165,83,82,81,67,66,65,64,63,62,61,60,59,58,57,56,55,2.31,1
3286,166,74,13,0,165,163,161,159,155,152,72,70,68,66,65,64,63,62,61,60,59,58,57,165,83,82,81,79,78,69,68,67,66,65,64,63,62,61,60,59,58,57,2.32,1
3288,164,74,14,0,163,162,161,159,156,152,74,72,71,70,69,68,67,66,65,64,63,62,61,163,162,161,80,78,76,73,72,71,70,69,68,67,66,65,64,63,62,61,2.38,1
3290,162,72,14,0,161,160,159,157,154,150,73,72,71,70,69,68,67,66,65,64,63,62,61,161,160,159,79,78,76,73,72,71,70,69,68,67,66,65,64,63,62,61,2.33,1
3292,240,70,15,0,239,238,237,236,235,234,81,78,75,74,72,70,68,66,65,64,63,62,61,239,238,237,236,235,234,81,76,75,74,69,68,67,66,65,64,63,62,61,1.73,1
3294,238,62,13,0,237,236,235,234,233,232,79,76,73,72,70,68,66,64,63,62,61,60,59,237,236,235,234,233,232,79,74,73,72,67,66,65,64,63,62,61,60,59,1.71,1
3296,236,62,14,0,235,234,233,232,229,227,76,73,71,70,68,66,64,62,61,60,59,58,57,235,234,233,232,150,149,73,72,71,70,65,64,63,62,61,60,59,58,57,1.69,1
3298,234,78,15,0,233,232,231,228,225,223,73,70,69,68,66,64,62,60,59,58,57,56,55,233,232,231,149,148,147,71,70,69,68,63,62,61,60,59,58,57,56,55,1.67,1
3300,232,80,16,0,231,230,228,226,223,221,73,70,68,66,64,62,60,58,57,56,55,54,53,231,230,149,148,146,145,69,68,67,66,61,60,59,58,57,56,55,54,53,1.67,1
3302,230,80,16,0,229,228,227,225,223,221,75,71,68,66,63,60,58,56,55,54,53,52,51,229,228,227,145,144,143,67,66,65,64,59,58,57,56,55,54,53,52,51,1.69,1
3304,228,78,17,0,227,225,223,221,218,216,73,70,68,66,63,60,57,54,53,52,51,50,49,227,145,144,143,141,140,65,64,63,62,57,56,55,54,53,52,51,50,49,1.74,1
3306,226,50,16,0,225,224,222,220,218,215,74,70,68,66,63,60,57,54,52,50,49,48,47,225,224,143,142,141,139,63,62,61,60,55,54,53,52,51,50,49,48,47,1.78,1
3308,224,50,15,0,223,222,221,220,217,215,75,72,70,68,65,62,59,56,54,52,50,48,46,223,222,221,220,138,137,61,60,59,58,53,52,51,50,49,48,47,46,45,1.79,1
3310,222,50,15,0,221,220,219,218,215,213,73,70,68,66,63,60,57,54,52,50,48,46,44,221,220,219,218,138,137,59,58,57,56,51,50,49,48,47,46,45,44,43,1.74,1
3312,220,50,15,0,218,216,214,212,210,208,73,70,68,66,63,60,57,54,52,50,48,46,44,137,136,135,134,133,132,57,56,55,54,49,48,47,46,45,44,43,42,41,1.76,1
3314,218,58,15,0,217,215,213,211,209,207,73,70,68,66,63,60,57,54,52,50,48,46,44,217,135,134,133,132,131,55,54,53,52,47,46,45,44,43,42,41,40,39,1.82,1
3316,216,64,15,0,215,214,213,211,207,205,73,70,68,66,63,60,57,54,52,50,48,46,44,215,214,213,131,130,129,53,52,51,50,45,44,43,42,41,40,39,38,37,1.81,1
3318,214,64,16,2,213,211,209,207,204,202,73,70,68,66,63,60,57,54,52,50,48,46,44,213,131,130,129,127,126,51,50,49,48,43,42,41,40,39,38,37,36,35,1.88,1
3320,212,64,16,2,211,210,208,206,204,201,74,70,68,66,63,60,57,54,52,50,48,46,44,211,210,129,128,127,125,49,48,47,46,41,40,39,38,37,36,35,34,33,1.91,1
3322,210,64,15,2,209,208,207,206,203,201,75,71,68,66,63,60,57,54,52,50,48,46,44,209,208,207,206,124,123,47,46,45,44,39,38,37,36,35,34,33,32,31,1.89,1
3324,208,72,15,2,207,206,205,203,199,197,73,70,68,66,63,60,57,54,52,50,48,46,44,207,206,205,123,122,121,45,44,43,42,37,36,35,34,33,32,31,30,29,1.87,1
3326,206,72,16,2,205,203,201,199,196,194,73,70,68,66,63,60,57,54,52,50,48,46,44,205,123,122,121,119,118,43,42,41,40,35,34,33,32,31,30,29,28,27,1.96,1
3328,204,72,16,2,203,202,201,199,197,195,75,70,68,66,63,60,57,54,52,50,48,46,44,203,202,201,121,120,119,41,40,39,38,33,32,31,30,29,28,27,26,25,2.00,1
3330,202,72,15,2,201,200,198,196,193,191,73,70,68,66,63,60,57,54,52,50,48,46,44,201,200,119,118,116,115,39,38,37,36,31,30,29,28,27,26,25,24,23,2.00,1
3332,200,80,15,2,199,197,195,193,190,188,73,70,68,66,63,60,57,54,52,50,48,46,44,199,117,116,115,113,112,37,36,35,34,31,30,29,28,27,26,25,24,23,2.09,1
3334,198,74,16,0,197,196,194,192,189,187,73,70,68,66,63,60,57,54,52,50,48,46,44,197,196,115,114,112,111,37,36,35,34,33,32,31,30,29,28,27,26,25,2.14,1
3336,196,74,16,0,195,193,191,189,186,184,73,70,68,66,63,60,57,54,52,50,48,46,44,195,113,112,111,109,108,39,38,37,36,35,34,33,32,31,30,29,28,27,2.16,1
3338,194,74,15,0,193,192,191,190,189,188,79,75,73,71,67,64,61,58,56,54,52,50,48,193,192,191,190,189,188,46,45,44,43,41,40,39,38,37,36,35,34,33,2.20,1
3340,192,72,15,0,191,190,189,188,187,186,77,73,71,69,65,62,59,56,54,52,50,48,46,191,190,189,188,187,186,46,45,44,43,41,40,39,38,37,36,35,34,33,2.17,1
3342,190,70,15,0,189,188,187,186,185,184,75,71,69,67,63,60,57,54,52,50,48,46,44,189,188,187,186,185,184,46,45,44,43,41,40,39,38,37,36,35,34,33,2.11,1
3344,188,58,15,0,187,184,182,180,178,176,73,70,68,66,63,60,57,54,52,50,48,46,44,187,104,103,102,101,100,47,46,45,44,43,42,41,40,39,38,37,36,35,2.19,1
3346,186,68,15,0,185,183,181,179,177,175,73,70,68,66,63,60,57,54,52,50,48,46,44,185,103,102,101,100,99,49,48,47,46,45,44,43,42,41,40,39,38,37,2.21,1
3348,184,74,17,0,183,182,181,179,175,173,73,70,68,66,63,60,57,54,52,50,48,46,44,183,182,181,99,98,97,51,50,49,48,47,46,45,44,43,42,41,40,39,2.20,1
3350,182,74,17,0,181,179,177,175,172,170,73,70,68,66,63,60,57,54,52,50,48,46,44,181,99,98,97,95,94,53,52,51,50,49,48,47,46,45,44,43,42,41,2.21,1
3352,180,74,17,0,179,178,176,174,172,169,74,70,68,66,63,60,57,54,52,50,48,46,44,179,178,97,96,95,93,55,54,53,52,51,50,49,48,47,46,45,44,43,2.29,1
3354,178,74,15,0,177,176,175,174,171,169,75,71,68,66,63,60,57,54,52,50,48,46,45,177,176,175,174,92,91,59,56,55,54,53,52,51,50,49,48,47,46,45,2.27,1
3356,176,78,16,2,175,174,173,171,167,165,73,70,68,66,63,60,57,54,52,50,49,48,47,175,174,173,91,90,89,59,58,57,56,55,54,53,52,51,50,49,48,47,2.32,1
3358,174,78,17,2,173,171,169,167,164,162,73,70,68,66,63,60,57,54,53,52,51,50,49,173,91,90,89,87,86,61,60,59,58,57,56,55,54,53,52,51,50,49,2.37,1
3360,172,76,17,2,171,170,168,166,164,161,74,70,68,66,63,60,58,56,55,54,53,52,51,171,170,89,88,87,85,63,62,61,60,59,58,57,56,55,54,53,52,51,2.37,1
3362,170,74,17,2,169,168,166,164,161,159,73,70,68,66,64,62,60,58,57,56,55,54,53,169,168,87,86,84,83,65,64,63,62,61,60,59,58,57,56,55,54,53,2.39,1
3364,168,70,16,2,167,165,163,161,158,156,73,70,68,66,64,62,61,60,59,58,57,56,55,167,85,84,83,81,80,67,66,65,64,63,62,61,60,59,58,57,56,55,2.43,1
3366,166,70,17,2,165,164,162,160,157,155,73,70,68,66,65,64,63,62,61,60,59,58,57,165,164,83,82,80,79,69,68,67,66,65,64,63,62,61,60,59,58,57,2.43,1
3368,164,70,17,2,163,161,159,157,154,152,73,70,69,68,67,66,65,64,63,62,61,60,59,163,81,80,79,77,76,71,70,69,68,67,66,65,64,63,62,61,60,59,2.42,1
3370,162,70,16,2,161,160,158,156,154,151,75,72,71,70,69,68,67,66,65,64,63,62,61,161,160,79,78,77,76,73,72,71,70,69,68,67,66,65,64,63,62,61,2.40,1
3372,240,70,16,2,239,238,237,236,233,231,77,76,75,74,73,72,71,70,69,68,67,66,65,239,238,237,236,154,153,77,76,75,74,73,72,71,70,69,68,67,66,65,1.80,1
3374,238,70,15,2,237,236,235,234,231,229,75,74,73,72,71,70,69,68,67,66,65,64,63,237,236,235,234,154,153,75,74,73,72,71,70,69,68,67,66,65,64,63,1.73,1
3376,236,66,16,2,234,232,230,228,226,224,75,74,73,72,71,70,69,68,67,66,65,64,63,153,152,151,150,149,148,75,74,73,72,71,70,69,68,67,66,65,64,63,1.82,1
3378,234,76,14,3,233,231,229,227,225,223,75,74,73,72,71,70,69,68,67,66,65,64,63,233,151,150,149,148,147,75,74,73,72,71,70,69,68,67,66,65,64,63,1.83,1
3380,232,80,15,3,231,230,229,227,225,223,77,76,75,74,73,72,71,70,69,68,67,66,65,231,230,229,147,146,145,77,76,75,74,73,72,71,70,69,68,67,66,65,1.84,1
3382,230,78,15,3,229,228,227,225,223,221,75,74,73,72,71,70,69,68,67,66,65,64,63,229,228,227,147,146,145,75,74,73,72,71,70,69,68,67,66,65,64,63,1.81,1
3384,228,70,14,3,227,226,225,224,223,221,80,77,75,74,73,72,71,70,69,68,67,66,65,227,226,225,224,223,141,79,76,75,74,73,72,71,70,69,68,67,66,65,1.83,1
3386,226,70,14,3,225,224,223,222,221,219,78,75,73,72,71,70,69,68,67,66,65,64,63,225,224,223,222,221,141,77,74,73,72,71,70,69,68,67,66,65,64,63,1.79,1
3388,224,78,16,3,223,222,221,219,217,215,77,76,75,74,73,72,71,70,69,68,67,66,65,223,222,221,139,138,137,77,76,75,74,73,72,71,70,69,68,67,66,65,1.79,1
3390,222,78,16,3,221,220,219,217,215,213,75,74,73,72,71,70,69,68,67,66,65,64,63,221,220,219,139,138,137,75,74,73,72,71,70,69,68,67,66,65,64,63,1.78,1
3392,220,74,17,2,219,218,217,216,215,213,80,78,77,76,75,74,73,72,71,70,69,68,67,219,218,217,216,215,133,79,78,77,76,75,74,73,72,71,70,69,68,67,1.84,1
3394,218,74,17,2,217,216,215,214,213,211,78,76,75,74,73,72,71,70,69,68,67,66,65,217,216,215,214,213,133,77,76,75,74,73,72,71,70,69,68,67,66,65,1.77,1
3396,216,72,16,2,215,214,213,212,211,209,76,74,73,72,71,70,69,68,67,66,65,64,63,215,214,213,212,211,133,75,74,73,72,71,70,69,68,67,66,65,64,63,1.75,1
3398,214,64,16,2,212,210,208,206,204,202,75,74,73,72,71,70,69,68,67,66,65,64,63,131,130,129,128,127,126,75,74,73,72,71,70,69,68,67,66,65,64,63,1.82,1
3400,212,72,15,3,211,209,207,205,203,201,75,74,73,72,71,70,69,68,67,66,65,64,63,211,129,128,127,126,125,75,74,73,72,71,70,69,68,67,66,65,64,63,1.80,1
3402,210,78,17,3,209,208,207,205,203,201,77,76,75,74,73,72,71,70,69,68,67,66,65,209,208,207,125,124,123,77,76,75,74,73,72,71,70,69,68,67,66,65,1.79,1
3404,208,78,17,3,207,206,205,203,201,199,75,74,73,72,71,70,69,68,67,66,65,64,63,207,206,205,125,124,123,75,74,73,72,71,70,69,68,67,66,65,64,63,1.77,1
3406,206,70,17,3,205,204,203,202,201,199,80,77,74,72,71,70,69,68,67,66,65,64,63,205,204,203,202,201,119,79,76,73,72,71,70,69,68,67,66,65,64,63,1.80,1
3408,204,70,17,3,203,202,201,200,197,195,77,75,73,72,71,70,69,68,67,66,65,64,63,203,202,201,200,118,117,77,74,73,72,71,70,69,68,67,66,65,64,63,1.79,1
3410,202,78,19,3,201,200,199,197,195,193,77,76,75,74,73,72,71,70,69,68,67,66,65,201,200,199,117,116,115,77,76,75,74,73,72,71,70,69,68,67,66,65,1.78,1
3412,200,78,19,3,199,198,197,195,193,191,75,74,73,72,71,70,69,68,67,66,65,64,63,199,198,197,117,116,115,75,74,73,72,71,70,69,68,67,66,65,64,63,1.76,1
3414,198,70,19,3,197,196,195,194,193,191,80,77,75,73,71,70,69,68,67,66,65,64,63,197,196,195,194,193,111,79,74,73,72,71,70,69,68,67,66,65,64,63,1.76,1
3416,196,70,19,3,195,194,193,192,189,187,77,76,75,74,73,72,71,70,69,68,67,66,65,195,194,193,192,110,109,77,76,75,74,73,72,71,70,69,68,67,66,65,1.78,1
3418,194,70,19,3,193,192,191,190,187,185,75,74,73,72,71,70,69,68,67,66,65,64,63,193,192,191,190,110,109,75,74,73,72,71,70,69,68,67,66,65,64,63,1.73,1
3420,192,70,19,3,190,188,186,184,182,180,75,74,73,72,71,70,69,68,67,66,65,64,63,109,108,107,106,105,104,75,74,73,72,71,70,69,68,67,66,65,64,63,1.76,1
3422,190,76,18,4,189,187,185,183,181,179,75,74,73,72,71,70,69,68,67,66,65,64,63,189,107,106,105,104,103,75,74,73,72,71,70,69,68,67,66,65,64,63,1.81,1
3424,188,78,20,3,187,186,185,183,181,179,77,76,75,74,73,72,71,70,69,68,67,66,65,187,186,185,103,102,101,77,76,75,74,73,72,71,70,69,68,67,66,65,1.85,1
3426,186,78,20,3,185,184,183,181,179,177,75,74,73,72,71,70,69,68,67,66,65,64,63,185,184,183,103,102,101,75,74,73,72,71,70,69,68,67,66,65,64,63,1.77,1
3428,184,76,20,3,183,182,181,180,179,177,80,77,74,72,71,70,69,68,67,66,65,64,63,183,182,181,180,179,97,79,76,73,72,71,70,69,68,67,66,65,64,63,1.79,1
3430,182,68,19,3,181,180,179,178,176,174,78,76,74,72,71,70,69,68,67,66,65,64,63,181,180,179,178,96,95,78,74,73,72,71,70,69,68,67,66,65,64,63,1.82,1
3432,180,76,20,3,179,178,177,175,173,171,77,76,75,74,73,72,71,70,69,68,67,66,65,179,178,177,95,94,93,77,76,75,74,73,72,71,70,69,68,67,66,65,1.80,1
3434,178,76,20,3,177,176,175,173,171,169,75,74,73,72,71,70,69,68,67,66,65,64,63,177,176,175,95,94,93,75,74,73,72,71,70,69,68,67,66,65,64,63,1.74,1
3436,176,76,21,3,175,174,173,172,171,169,80,77,75,73,71,70,69,68,67,66,65,64,63,175,174,173,172,171,89,79,74,73,72,71,70,69,68,67,66,65,64,63,1.75,1
3438,174,68,21,3,173,172,171,170,168,166,78,77,76,75,74,73,71,70,69,68,67,66,65,173,172,171,170,88,87,78,77,76,75,74,73,71,70,69,68,67,66,65,1.76,1
3440,172,68,21,3,171,170,169,168,166,164,76,75,74,73,72,71,69,68,67,66,65,64,63,171,170,169,168,88,87,76,75,74,73,72,71,69,68,67,66,65,64,63,1.71,1
3442,170,68,22,3,168,166,164,162,160,158,75,74,73,72,71,70,69,68,67,66,65,64,63,87,86,85,84,83,82,75,74,73,72,71,70,69,68,67,66,65,64,63,1.76,1
3444,168,76,21,4,167,165,163,161,159,157,75,74,73,72,71,70,69,68,67,66,65,64,63,167,85,84,83,82,81,75,74,73,72,71,70,69,68,67,66,65,64,63,1.76,1
3446,166,72,22,4,165,164,163,161,159,157,77,76,75,74,73,72,71,70,69,68,67,66,65,165,164,163,81,80,79,77,76,75,74,73,72,71,70,69,68,67,66,65,1.73,1
3448,164,72,22,4,163,162,161,159,157,155,75,74,73,72,71,70,69,68,67,66,65,64,63,163,162,161,81,80,79,75,74,73,72,71,70,69,68,67,66,65,64,63,1.72,1
3450,162,72,23,4,161,160,159,158,157,155,80,77,74,72,71,70,69,68,67,66,65,64,63,161,160,159,158,157,80,79,76,73,72,71,70,69,68,67,66,65,64,63,1.68,1
3452,222,72,22,4,221,220,219,218,215,212,75,73,71,70,69,68,67,66,65,64,63,62,61,221,220,219,218,136,135,73,72,71,70,69,68,67,66,65,64,63,62,61,1.30,1
3454,220,80,23,4,219,218,217,214,211,207,71,70,69,68,67,66,65,64,63,62,61,60,59,219,218,217,135,134,133,71,70,69,68,67,66,65,64,63,62,61,60,59,1.31,1
3456,218,74,23,1,217,216,215,212,209,205,69,68,67,66,65,64,63,62,61,60,59,58,57,217,216,215,135,134,133,69,68,67,66,65,64,63,62,61,60,59,58,57,1.31,1
3458,216,74,24,1,215,214,213,211,209,205,73,69,67,65,63,62,61,60,59,58,57,56,55,215,214,213,139,138,129,67,66,65,64,63,62,61,60,59,58,57,56,55,1.28,1
3460,214,74,24,1,213,212,211,209,205,201,70,68,66,64,62,60,59,58,57,56,55,54,53,213,212,211,139,128,127,65,64,63,62,61,60,59,58,57,56,55,54,53,1.30,1
3462,212,72,22,1,211,210,209,207,203,199,68,66,64,62,60,58,57,56,55,54,53,52,51,211,210,209,139,128,127,63,62,61,60,59,58,57,56,55,54,53,52,51,1.28,1
3464,210,66,23,1,208,206,204,201,198,194,68,66,64,62,60,58,56,54,53,52,51,50,49,127,126,125,124,123,122,61,60,59,58,57,56,55,54,53,52,51,50,49,1.38,1
3466,208,74,21,1,207,205,203,200,197,193,68,66,64,62,60,58,56,54,52,50,49,48,47,207,125,124,123,122,121,59,58,57,56,55,54,53,52,51,50,49,48,47,1.37,1
3468,206,80,23,1,205,204,203,200,197,193,70,68,66,64,62,60,58,56,54,52,50,48,46,205,204,203,121,120,119,57,56,55,54,53,52,51,50,49,48,47,46,45,1.41,1
3470,204,72,21,4,203,202,201,198,195,191,68,66,64,62,60,58,56,54,52,50,48,46,44,203,202,201,121,120,119,55,54,53,52,51,50,49,48,47,46,45,44,43,1.39,1
3472,202,72,22,4,201,200,199,197,195,191,73,69,65,62,60,58,56,54,52,50,48,46,44,201,200,199,139,138,115,53,52,51,50,49,48,47,46,45,44,43,42,41,1.45,1
3474,200,72,21,4,199,198,197,195,191,187,70,67,64,62,60,58,56,54,52,50,48,46,44,199,198,197,139,114,113,51,50,49,48,47,46,45,44,43,42,41,40,39,1.46,1
3476,198,80,22,4,197,196,195,192,189,185,70,68,66,64,62,60,58,56,54,52,50,48,46,197,196,195,113,112,111,49,48,47,46,45,44,43,42,41,40,39,38,37,1.50,1
3478,196,74,22,0,195,194,193,190,187,183,68,66,64,62,60,58,56,54,52,50,48,46,44,195,194,193,113,112,111,47,46,45,44,43,42,41,40,39,38,37,36,35,1.51,1
3480,194,74,23,0,193,192,191,189,187,183,73,69,66,63,60,58,56,54,52,50,48,46,44,193,192,191,139,138,107,45,44,43,42,41,40,39,38,37,36,35,34,33,1.47,1
3482,192,74,23,0,191,190,189,187,183,179,70,68,66,64,62,60,58,56,54,52,50,48,46,191,190,189,139,106,105,43,42,41,40,39,38,37,36,35,34,33,32,31,1.49,1
3484,190,72,21,0,189,188,187,185,181,177,68,66,64,62,60,58,56,54,52,50,48,46,44,189,188,187,139,106,105,41,40,39,38,37,36,35,34,33,32,31,30,29,1.48,1
3486,188,66,22,0,186,184,182,179,176,172,68,66,64,62,60,58,56,54,52,50,48,46,44,105,104,103,102,101,100,39,38,37,36,35,34,33,32,31,30,29,28,27,1.58,1
3488,186,74,20,0,185,183,181,178,175,171,68,66,64,62,60,58,56,54,52,50,48,46,44,185,103,102,101,100,99,37,36,35,34,33,32,31,30,29,28,27,26,25,1.58,1
3490,184,80,22,0,183,182,181,178,175,171,70,68,66,64,62,60,58,56,54,52,50,48,46,183,182,181,99,98,97,35,34,33,32,31,30,29,28,27,26,25,24,23,1.58,1
3492,182,72,20,4,181,180,179,176,173,169,68,66,64,62,60,58,56,54,52,50,48,46,44,181,180,179,99,98,97,35,34,33,32,31,30,29,28,27,26,25,24,23,1.57,1
3494,180,72,21,4,179,178,177,175,173,169,73,69,65,62,60,58,56,54,52,50,48,46,44,179,178,177,139,138,93,41,38,35,34,33,32,31,30,29,28,27,26,25,1.63,1
3496,178,72,20,4,177,176,175,173,170,166,71,68,65,62,60,58,56,54,52,50,48,46,44,177,176,175,139,92,91,42,38,37,36,35,34,33,32,31,30,29,28,27,1.64,1
3498,176,80,21,4,175,174,173,170,167,163,70,68,66,64,62,60,58,56,54,52,50,48,46,175,174,173,91,90,89,43,42,41,40,39,38,37,36,35,34,33,32,31,1.64,1
3500,174,74,21,0,173,172,171,168,165,161,68,66,64,62,60,58,56,54,52,50,48,46,44,173,172,171,91,90,89,43,42,41,40,39,38,37,36,35,34,33,32,31,1.65,1
3502,172,74,22,0,171,170,169,167,165,161,73,69,66,63,60,58,56,54,52,50,48,46,44,171,170,169,139,138,85,49,44,43,42,41,40,39,38,37,36,35,34,33,1.62,1
3504,170,74,22,0,169,168,167,165,162,158,71,69,67,65,63,61,59,57,55,53,51,49,47,169,168,167,139,84,83,50,49,48,47,46,45,44,43,42,41,40,39,38,1.64,1
3506,168,72,20,0,167,166,165,163,160,156,69,67,65,63,61,59,57,55,53,51,49,47,45,167,166,165,139,84,83,50,49,48,47,46,45,44,43,42,41,40,39,38,1.62,1
3508,166,66,21,0,165,164,163,160,156,150,68,66,64,62,60,58,56,54,52,50,48,46,44,165,164,163,80,79,78,51,50,49,48,47,46,45,44,43,42,41,40,39,1.69,1
3510,164,74,19,0,163,162,160,156,153,149,68,66,64,62,60,58,56,54,52,50,48,46,44,163,162,81,79,78,77,53,52,51,50,49,48,47,46,45,44,43,42,41,1.70,1
3512,162,80,20,0,161,159,157,154,151,147,68,66,64,62,60,58,56,54,52,50,48,46,44,161,80,79,77,76,75,55,54,53,52,51,50,49,48,47,46,45,44,43,1.73,1
3514,88,0,0,0,87,86,85,84,83,82,0,0,0,0,0,0,0,0,0,0,0,0,0,87,86,85,84,83,82,0,0,0,0,0,0,0,0,0,0,0,0,0,0.00,0
3516,88,0,1,0,87,86,85,83,80,78,0,0,0,0,0,0,0,0,0,0,0,0,0,87,86,85,80,79,78,0,0,0,0,0,0,0,0,0,0,0,0,0,0.09,1
3518,88,0,0,1,87,86,84,81,79,77,0,0,0,0,0,0,0,0,0,0,0,0,0,87,86,81,79,78,77,0,0,0,0,0,0,0,0,0,0,0,0,0,0.18,1
3520,88,6,1,1,87,85,83,81,79,77,1,0,0,0,0,0,0,0,0,0,0,0,0,87,79,78,77,76,75,1,0,0,0,0,0,0,0,0,0,0,0,0,0.27,1
3522,88,0,0,0,87,86,85,84,83,82,0,0,0,0,0,0,0,0,0,0,0,0,0,87,86,85,84,83,82,0,0,0,0,0,0,0,0,0,0,0,0,0,0.00,0
3524,88,0,1,0,87,86,85,83,80,78,0,0,0,0,0,0,0,0,0,0,0,0,0,87,86,85,80,79,78,0,0,0,0,0,0,0,0,0,0,0,0,0,0.09,1
3526,88,0,0,1,87,86,84,81,79,77,0,0,0,0,0,0,0,0,0,0,0,0,0,87,86,81,79,78,77,0,0,0,0,0,0,0,0,0,0,0,0,0,0.18,1
3528,88,6,1,1,87,85,83,81,79,77,1,0,0,0,0,0,0,0,0,0,0,0,0,87,79,78,77,76,75,1,0,0,0,0,0,0,0,0,0,0,0,0,0.27,1
3531,88,0,0,0,87,86,85,84,83,82,0,0,0,0,0,0,0,0,0,0,0,0,0,87,86,85,84,83,82,0,0,0,0,0,0,0,0,0,0,0,0,0,0.00,0
3533,88,0,1,0,87,86,85,83,80,78,0,0,0,0,0,0,0,0,0,0,0,0,0,87,86,85,80,79,78,0,0,0,0,0,0,0,0,0,0,0,0,0,0.09,1
3535,88,0,0,1,87,86,84,81,79,77,0,0,0,0,0,0,0,0,0,0,0,0,0,87,86,81,79,78,77,0,0,0,0,0,0,0,0,0,0,0,0,0,0.18,1
3537,88,6,1,1,87,85,83,81,79,77,1,0,0,0,0,0,0,0,0,0,0,0,0,87,79,78,77,76,75,1,0,0,0,0,0,0,0,0,0,0,0,0,0.27,1
3539,88,0,0,0,87,86,85,84,83,82,0,0,0,0,0,0,0,0,0,0,0,0,0,87,86,85,84,83,82,0,0,0,0,0,0,0,0,0,0,0,0,0,0.00,0
3541,88,0,1,0,87,86,85,83,80,78,0,0,0,0,0,0,0,0,0,0,0,0,0,87,86,85,80,79,78,0,0,0,0,0,0,0,0,0,0,0,0,0,0.09,1
3543,88,0,0,1,87,86,84,81,79,77,0,0,0,0,0,0,0,0,0,0,0,0,0,87,86,81,79,78,77,0,0,0,0,0,0,0,0,0,0,0,0,0,0.18,1
3545,88,6,1,1,87,85,83,81,79,77,1,0,0,0,0,0,0,0,0,0,0,0,0,87,79,78,77,76,75,1,0,0,0,0,0,0,0,0,0,0,0,0,0.27,1
3547,88,0,0,0,87,86,85,84,83,82,0,0,0,0,0,0,0,0,0,0,0,0,0,87,86,85,84,83,82,0,0,0,0,0,0,0,0,0,0,0,0,0,0.00,0
3549,88,0,1,0,87,86,85,83,80,78,0,0,0,0,0,0,0,0,0,0,0,0,0,87,86,85,80,79,78,0,0,0,0,0,0,0,0,0,0,0,0,0,0.09,1
3551,88,0,0,1,87,86,84,81,79,77,0,0,0,0,0,0,0,0,0,0,0,0,0,87,86,81,79,78,77,0,0,0,0,0,0,0,0,0,0,0,0,0,0.18,1
3553,88,6,1,1,87,85,83,81,79,77,1,0,0,0,0,0,0,0,0,0,0,0,0,87,79,78,77,76,75,1,0,0,0,0,0,0,0,0,0,0,0,0,0.27,1
3555,88,0,0,0,87,86,85,84,83,82,0,0,0,0,0,0,0,0,0,0,0,0,0,87,86,85,84,83,82,0,0,0,0,0,0,0,0,0,0,0,0,0,0.00,0
3557,88,0,1,0,87,86,85,83,80,78,0,0,0,0,0,0,0,0,0,0,0,0,0,87,86,85,80,79,78,0,0,0,0,0,0,0,0,0,0,0,0,0,0.09,1
3559,88,0,0,1,87,86,84,81,79,77,0,0,0,0,0,0,0,0,0,0,0,0,0,87,86,81,79,78,77,0,0,0,0,0,0,0,0,0,0,0,0,0,0.18,1
3561,88,6,1,1,87,85,83,81,79,77,1,0,0,0,0,0,0,0,0,0,0,0,0,87,79,78,77,76,75,1,0,0,0,0,0,0,0,0,0,0,0,0,0.27,1
3563,88,0,0,0,87,86,85,84,83,82,0,0,0,0,0,0,0,0,0,0,0,0,0,87,86,85,84,83,82,0,0,0,0,0,0,0,0,0,0,0,0,0,0.00,0
3565,88,0,1,0,87,86,85,83,80,78,0,0,0,0,0,0,0,0,0,0,0,0,0,87,86,85,80,79,78,0,0,0,0,0,0,0,0,0,0,0,0,0,0.09,1
3567,88,0,0,1,87,86,84,81,79,77,0,0,0,0,0,0,0,0,0,0,0,0,0,87,86,81,79,78,77,0,0,0,0,0,0,0,0,0,0,0,0,0,0.18,1
3569,88,6,1,1,87,85,83,81,79,77,1,0,0,0,0,0,0,0,0,0,0,0,0,87,79,78,77,76,75,1,0,0,0,0,0,0,0,0,0,0,0,0,0.27,1
3571,88,0,0,0,87,86,85,84,83,82,0,0,0,0,0,0,0,0,0,0,0,0,0,87,86,85,84,83,82,0,0,0,0,0,0,0,0,0,0,0,0,0,0.00,0
3573,88,0,1,0,87,86,85,83,80,78,0,0,0,0,0,0,0,0,0,0,0,0,0,87,86,85,80,79,78,0,0,0,0,0,0,0,0,0,0,0,0,0,0.09,1
3575,88,0,0,1,87,86,84,81,79,77,0,0,0,0,0,0,0,0,0,0,0,0,0,87,86,81,79,78,77,0,0,0,0,0,0,0,0,0,0,0,0,0,0.18,1
3577,88,6,1,1,87,85,83,81,79,77,1,0,0,0,0,0,0,0,0,0,0,0,0,87,79,78,77,76,75,1,0,0,0,0,0,0,0,0,0,0,0,0,0.27,1
3579,88,0,0,0,87,86,85,84,83,82,0,0,0,0,0,0,0,0,0,0,0,0,0,87,86,85,84,83,82,0,0,0,0,0,0,0,0,0,0,0,0,0,0.00,0
3581,88,0,1,0,87,86,85,83,80,78,0,0,0,0,0,0,0,0,0,0,0,0,0,87,86,85,80,79,78,0,0,0,0,0,0,0,0,0,0,0,0,0,0.09,1
3583,88,0,0,1,87,86,84,81,79,77,0,0,0,0,0,0,0,0,0,0,0,0,0,87,86,81,79,78,77,0,0,0,0,0,0,0,0,0,0,0,0,0,0.18,1
3585,88,6,1,1,87,85,83,81,79,77,1,0,0,0,0,0,0,0,0,0,0,0,0,87,79,78,77,76,75,1,0,0,0,0,0,0,0,0,0,0,0,0,0.27,1
3587,88,0,0,0,87,86,85,84,83,82,0,0,0,0,0,0,0,0,0,0,0,0,0,87,86,85,84,83,82,0,0,0,0,0,0,0,0,0,0,0,0,0,0.00,0
3589,88,0,1,0,87,86,85,83,80,78,0,0,0,0,0,0,0,0,0,0,0,0,0,87,86,85,80,79,78,0,0,0,0,0,0,0,0,0,0,0,0,0,0.09,1
3591,88,0,0,1,87,86,84,81,79,77,0,0,0,0,0,0,0,0,0,0,0,0,0,87,86,81,79,78,77,0,0,0,0,0,0,0,0,0,0,0,0,0,0.18,1
3593,88,6,1,1,87,85,83,81,79,77,1,0,0,0,0,0,0,0,0,0,0,0,0,87,79,78,77,76,75,1,0,0,0,0,0,0,0,0,0,0,0,0,0.27,1
3595,88,0,0,0,87,86,85,84,83,82,0,0,0,0,0,0,0,0,0,0,0,0,0,87,86,85,84,83,82,0,0,0,0,0,0,0,0,0,0,0,0,0,0.00,0
3597,88,0,1,0,87,86,85,83,80,78,0,0,0,0,0,0,0,0,0,0,0,0,0,87,86,85,80,79,78,0,0,0,0,0,0,0,0,0,0,0,0,0,0.09,1
3599,88,0,0,1,87,86,84,81,79,77,0,0,0,0,0,0,0,0,0,0,0,0,0,87,86,81,79,78,77,0,0,0,0,0,0,0,0,0,0,0,0,0,0.18,1
3601,88,6,1,1,87,85,83,81,79,77,1,0,0,0,0,0,0,0,0,0,0,0,0,87,79,78,77,76,75,1,0,0,0,0,0,0,0,0,0,0,0,0,0.27,1
3603,88,0,0,0,87,86,85,84,83,82,0,0,0,0,0,0,0,0,0,0,0,0,0,87,86,85,84,83,82,0,0,0,0,0,0,0,0,0,0,0,0,0,0.00,0
3605,88,0,1,0,87,86,85,83,80,78,0,0,0,0,0,0,0,0,0,0,0,0,0,87,86,85,80,79,78,0,0,0,0,0,0,0,0,0,0,0,0,0,0.09,1
3607,88,0,0,1,87,86,84,81,79,77,0,0,0,0,0,0,0,0,0,0,0,0,0,87,86,81,79,78,77,0,0,0,0,0,0,0,0,0,0,0,0,0,0.18,1
3609,88,6,1,1,87,85,83,81,79,77,1,0,0,0,0,0,0,0,0,0,0,0,0,87,79,78,77,76,75,1,0,0,0,0,0,0,0,0,0,0,0,0,0.27,1
3611,88,0,0,0,87,86,85,84,83,82,0,0,0,0,0,0,0,0,0,0,0,0,0,87,86,85,84,83,82,0,0,0,0,0,0,0,0,0,0,0,0,0,0.00,0
3613,88,0,1,0,87,86,85,83,80,78,0,0,0,0,0,0,0,0,0,0,0,0,0,87,86,85,80,79,78,0,0,0,0,0,0,0,0,0,0,0,0,0,0.09,1
3615,88,0,0,1,87,86,84,81,79,77,0,0,0,0,0,0,0,0,0,0,0,0,0,87,86,81,79,78,77,0,0,0,0,0,0,0,0,0,0,0,0,0,0.18,1
3617,88,6,1,1,87,85,83,81,79,77,1,0,0,0,0,0,0,0,0,0,0,0,0,87,79,78,77,76,75,1,0,0,0,0,0,0,0,0,0,0,0,0,0.27,1
3619,160,12,11,0,153,136,124,115,108,103,0,0,0,0,0,0,0,0,0,0,0,0,0,103,102,101,100,99,98,0,0,0,0,0,0,0,0,0,0,0,0,0,1.08,0
3621,170,12,11,0,163,146,134,125,118,113,0,0,0,0,0,0,0,0,0,0,0,0,0,113,112,111,110,109,108,0,0,0,0,0,0,0,0,0,0,0,0,0,1.03,0
3623,160,0,6,0,154,142,133,125,121,118,0,0,0,0,0,0,0,0,0,0,0,0,0,124,123,121,119,118,117,0,0,0,0,0,0,0,0,0,0,0,0,0,0.91,0
3625,240,0,9,0,232,214,203,192,182,177,0,0,0,0,0,0,0,0,0,0,0,0,0,103,99,98,97,94,93,0,0,0,0,0,0,0,0,0,0,0,0,0,0.92,0
3627,240,0,7,0,231,214,207,199,185,179,0,0,0,0,0,0,0,0,0,0,0,0,0,90,89,88,87,85,84,0,0,0,0,0,0,0,0,0,0,0,0,0,0.73,0
3629,186,0,5,0,179,167,161,155,145,138,0,0,0,0,0,0,0,0,0,0,0,0,0,116,82,81,80,79,76,0,0,0,0,0,0,0,0,0,0,0,0,0,0.63,0
3631,160,12,11,0,153,136,124,115,108,103,0,0,0,0,0,0,0,0,0,0,0,0,0,103,102,101,100,99,98,0,0,0,0,0,0,0,0,0,0,0,0,0,1.08,0
3633,170,12,11,0,163,146,134,125,118,113,0,0,0,0,0,0,0,0,0,0,0,0,0,113,112,111,110,109,108,0,0,0,0,0,0,0,0,0,0,0,0,0,1.03,0
3635,160,6,12,0,154,137,125,118,110,108,0,0,0,0,0,0,0,0,0,0,0,0,0,114,113,112,111,109,108,0,0,0,0,0,0,0,0,0,0,0,0,0,1.06,0
3637,182,6,13,0,175,156,143,135,125,122,0,0,0,0,0,0,0,0,0,0,0,0,0,80,78,77,76,75,74,0,0,0,0,0,0,0,0,0,0,0,0,0,1.05,0
3639,92,2,1,0,91,87,83,77,75,74,0,0,0,0,0,0,0,0,0,0,0,0,0,91,78,77,76,75,74,0,0,0,0,0,0,0,0,0,0,0,0,0,0.41,0
3641,108,6,2,0,107,106,102,93,80,76,0,0,0,0,0,0,0,0,0,0,0,0,0,107,106,80,79,77,76,0,0,0,0,0,0,0,0,0,0,0,0,0,0.45,0
3643,114,0,1,0,112,109,106,103,99,97,0,0,0,0,0,0,0,0,0,0,0,0,0,112,79,78,77,76,75,0,0,0,0,0,0,0,0,0,0,0,0,0,0.27,0
3645,82,0,0,0,81,80,79,78,77,76,0,0,0,0,0,0,0,0,0,0,0,0,0,81,80,79,78,77,76,0,0,0,0,0,0,0,0,0,0,0,0,0,0.00,0
3647,92,0,0,0,91,90,89,88,87,86,0,0,0,0,0,0,0,0,0,0,0,0,0,91,90,89,88,87,86,0,0,0,0,0,0,0,0,0,0,0,0,0,0.00,0
3649,96,0,0,0,95,94,93,92,91,90,0,0,0,0,0,0,0,0,0,0,0,0,0,95,94,93,92,91,90,0,0,0,0,0,0,0,0,0,0,0,0,0,0.00,0
3653,160,0,6,1,157,147,136,125,111,103,0,0,0,0,0,0,0,0,0,0,0,0,0,127,125,109,96,92,91,0,0,0,0,0,0,0,0,0,0,0,0,0,0.82,0
3655,212,0,9,1,204,191,177,162,142,133,0,0,0,0,0,0,0,0,0,0,0,0,0,88,81,80,79,77,76,0,0,0,0,0,0,0,0,0,0,0,0,0,0.96,0
3657,144,0,5,0,142,136,131,128,126,125,0,0,0,0,0,0,0,0,0,0,0,0,0,132,131,130,127,126,125,0,0,0,0,0,0,0,0,0,0,0,0,0,0.34,0
3659,160,0,3,0,156,152,150,147,144,143,0,0,0,0,0,0,0,0,0,0,0,0,0,151,149,148,147,144,143,0,0,0,0,0,0,0,0,0,0,0,0,0,0.32,0
3661,240,0,3,0,236,232,230,227,224,223,0,0,0,0,0,0,0,0,0,0,0,0,0,231,229,228,227,224,223,0,0,0,0,0,0,0,0,0,0,0,0,0,0.22,0
3663,240,0,0,0,239,238,237,236,235,234,0,0,0,0,0,0,0,0,0,0,0,0,0,239,238,237,236,235,234,0,0,0,0,0,0,0,0,0,0,0,0,0,0.00,0
3665,160,0,0,0,159,158,157,156,155,154,0,0,0,0,0,0,0,0,0,0,0,0,0,159,158,157,156,155,154,0,0,0,0,0,0,0,0,0,0,0,0,0,0.00,0
3667,240,0,0,0,239,238,237,236,235,234,0,0,0,0,0,0,0,0,0,0,0,0,0,239,238,237,236,235,234,0,0,0,0,0,0,0,0,0,0,0,0,0,0.00,0
3669,192,0,0,0,191,190,189,188,187,186,0,0,0,0,0,0,0,0,0,0,0,0,0,191,190,189,188,187,186,0,0,0,0,0,0,0,0,0,0,0,0,0,0.00,0
3671,160,0,1,0,159,157,154,152,150,149,0,0,0,0,0,0,0,0,0,0,0,0,0,159,155,153,152,150,149,0,0,0,0,0,0,0,0,0,0,0,0,0,0.11,0
3673,176,0,1,0,175,173,170,168,166,165,0,0,0,0,0,0,0,0,0,0,0,0,0,175,171,169,168,166,165,0,0,0,0,0,0,0,0,0,0,0,0,0,0.10,0
3675,160,0,0,0,159,158,157,156,155,154,0,0,0,0,0,0,0,0,0,0,0,0,0,159,158,157,156,155,154,0,0,0,0,0,0,0,0,0,0,0,0,0,0.00,0
3677,240,0,0,0,239,238,237,236,235,234,0,0,0,0,0,0,0,0,0,0,0,0,0,239,238,237,236,235,234,0,0,0,0,0,0,0,0,0,0,0,0,0,0.00,0
3679,210,0,0,0,209,208,207,206,205,204,0,0,0,0,0,0,0,0,0,0,0,0,0,209,208,207,206,205,204,0,0,0,0,0,0,0,0,0,0,0,0,0,0.00,0
3681,84,0,0,0,83,82,81,80,79,78,0,0,0,0,0,0,0,0,0,0,0,0,0,83,82,81,80,79,78,0,0,0,0,0,0,0,0,0,0,0,0,0,0.00,0
3683,104,0,0,0,103,90,83,76,75,74,0,0,0,0,0,0,0,0,0,0,0,0,0,103,78,77,76,75,74,0,0,0,0,0,0,0,0,0,0,0,0,0,0.52,0
3685,112,0,0,0,111,94,85,76,75,74,0,0,0,0,0,0,0,0,0,0,0,0,0,111,78,77,76,75,74,0,0,0,0,0,0,0,0,0,0,0,0,0,0.59,0
3687,160,0,0,0,149,136,126,109,95,89,0,0,0,0,0,0,0,0,0,0,0,0,0,97,92,79,78,76,75,0,0,0,0,0,0,0,0,0,0,0,0,0,0.85,0
3689,240,0,0,0,219,192,173,140,114,103,0,0,0,0,0,0,0,0,0,0,0,0,0,105,78,77,76,75,74,0,0,0,0,0,0,0,0,0,0,0,0,0,1.04,0
3691,216,0,0,0,195,170,154,127,109,101,0,0,0,0,0,0,0,0,0,0,0,0,0,89,84,83,82,81,80,0,0,0,0,0,0,0,0,0,0,0,0,0,1.05,0
3693,160,0,0,0,159,152,149,144,139,136,0,0,0,0,0,0,0,0,0,0,0,0,0,159,96,95,94,93,92,0,0,0,0,0,0,0,0,0,0,0,0,0,0.23,0
3695,170,0,0,0,169,162,159,154,149,146,0,0,0,0,0,0,0,0,0,0,0,0,0,169,106,105,104,103,102,0,0,0,0,0,0,0,0,0,0,0,0,0,0.22,0
3697,140,0,0,0,139,132,129,124,119,116,0,0,0,0,0,0,0,0,0,0,0,0,0,139,96,95,94,93,92,0,0,0,0,0,0,0,0,0,0,0,0,0,0.26,0
3699,88,0,0,0,87,86,85,84,83,82,0,0,0,0,0,0,0,0,0,0,0,0,0,87,86,85,84,83,82,0,0,0,0,0,0,0,0,0,0,0,0,0,0.00,0
3701,144,0,6,1,136,128,119,108,84,76,0,0,0,0,0,0,0,0,0,0,0,0,0,81,80,79,78,76,75,0,0,0,0,0,0,0,0,0,0,0,0,0,0.72,0
3703,112,0,2,0,109,106,103,99,94,90,0,0,0,0,0,0,0,0,0,0,0,0,0,92,91,83,82,78,77,0,0,0,0,0,0,0,0,0,0,0,0,0,0.28,0
3727,160,12,11,0,153,136,124,115,108,103,0,0,0,0,0,0,0,0,0,0,0,0,0,103,102,101,100,99,98,0,0,0,0,0,0,0,0,0,0,0,0,0,1.08,0
3729,170,12,11,0,163,146,134,125,118,113,0,0,0,0,0,0,0,0,0,0,0,0,0,113,112,111,110,109,108,0,0,0,0,0,0,0,0,0,0,0,0,0,1.03,0
3731,160,12,11,0,153,136,124,115,108,103,0,0,0,0,0,0,0,0,0,0,0,0,0,103,102,101,100,99,98,0,0,0,0,0,0,0,0,0,0,0,0,0,1.08,0
3733,170,12,11,0,163,146,134,125,118,113,0,0,0,0,0,0,0,0,0,0,0,0,0,113,112,111,110,109,108,0,0,0,0,0,0,0,0,0,0,0,0,0,1.03,0
3735,160,6,13,0,153,134,121,113,103,100,0,0,0,0,0,0,0,0,0,0,0,0,0,58,56,55,54,53,52,0,0,0,0,0,0,0,0,0,0,0,0,0,1.16,0
3737,182,6,13,0,175,156,143,135,125,122,0,0,0,0,0,0,0,0,0,0,0,0,0,80,78,77,76,75,74,0,0,0,0,0,0,0,0,0,0,0,0,0,1.05,0
3739,160,0,9,0,152,134,123,112,102,97,0,0,0,0,0,0,0,0,0,0,0,0,0,99,91,89,87,84,83,0,0,0,0,0,0,0,0,0,0,0,0,0,1.28,0
3741,240,0,13,0,226,198,183,168,151,143,0,0,0,0,0,0,0,0,0,0,0,0,0,99,91,89,87,84,83,0,0,0,0,0,0,0,0,0,0,0,0,0,1.33,0
3743,240,0,8,0,231,213,205,196,180,171,0,0,0,0,0,0,0,0,0,0,0,0,0,90,56,55,54,53,50,0,0,0,0,0,0,0,0,0,0,0,0,0,0.81,0
3745,186,0,5,0,179,167,161,155,145,138,0,0,0,0,0,0,0,0,0,0,0,0,0,116,82,81,80,79,76,0,0,0,0,0,0,0,0,0,0,0,0,0,0.63,0
