pkt#,size,#dec,#op,#rung,#2gram,#3gram,#4gram,#5gram,#6gram,#7gram,#8gram,#9gram,#10gram,#11gram,#12gram,#13gram,#14gram,#15gram,#16gram,#17gram,#18gram,#19gram,#20gram,L2gram,L3gram,L4gram,L5gram,L6gram,L7gram,L8gram,L9gram,L10gram,L11gram,L12gram,L13gram,L14gram,L15gram,L16gram,L17gram,L18gram,L19gram,L20gram,entropy,class
25,82,0,0,0,80,79,78,77,75,74,0,0,0,0,0,0,0,0,0,0,0,0,0,80,79,78,77,75,74,0,0,0,0,0,0,0,0,0,0,0,0,0,0.19,0
27,158,6,11,1,147,131,119,111,107,104,0,0,0,0,0,0,0,0,0,0,0,0,0,82,80,79,78,77,76,0,0,0,0,0,0,0,0,0,0,0,0,0,1.26,0
29,160,6,12,1,141,114,100,89,83,78,1,0,0,0,0,0,0,0,0,0,0,0,0,81,79,78,77,76,75,1,0,0,0,0,0,0,0,0,0,0,0,0,1.87,0
31,240,6,19,0,205,152,124,105,90,79,1,0,0,0,0,0,0,0,0,0,0,0,0,83,80,79,77,76,74,1,0,0,0,0,0,0,0,0,0,0,0,0,2.54,0
33,240,6,8,1,214,160,135,118,94,76,1,0,0,0,0,0,0,0,0,0,0,0,0,83,79,78,77,76,74,1,0,0,0,0,0,0,0,0,0,0,0,0,2.36,0
35,240,6,14,0,219,168,145,123,93,75,0,0,0,0,0,0,0,0,0,0,0,0,0,80,79,77,76,75,74,0,0,0,0,0,0,0,0,0,0,0,0,0,2.10,0
37,194,16,18,0,176,143,124,106,85,79,0,0,0,0,0,0,0,0,0,0,0,0,0,84,83,81,80,79,78,0,0,0,0,0,0,0,0,0,0,0,0,0,1.78,0
39,144,10,3,0,134,124,117,114,113,111,1,0,0,0,0,0,0,0,0,0,0,0,0,117,116,115,114,113,111,1,0,0,0,0,0,0,0,0,0,0,0,0,1.15,0
41,160,0,0,0,159,158,157,156,155,154,0,0,0,0,0,0,0,0,0,0,0,0,0,159,158,157,156,155,154,0,0,0,0,0,0,0,0,0,0,0,0,0,0.00,1
43,160,0,1,0,157,155,153,152,151,150,0,0,0,0,0,0,0,0,0,0,0,0,0,155,154,153,152,151,150,0,0,0,0,0,0,0,0,0,0,0,0,0,0.11,1
45,160,0,1,1,157,154,152,151,150,149,0,0,0,0,0,0,0,0,0,0,0,0,0,155,153,152,151,150,149,0,0,0,0,0,0,0,0,0,0,0,0,0,0.16,1
47,160,6,3,1,157,155,153,151,148,147,0,0,0,0,0,0,0,0,0,0,0,0,0,155,154,153,149,148,147,0,0,0,0,0,0,0,0,0,0,0,0,0,0.22,1
49,160,6,3,1,157,155,153,151,148,145,0,0,0,0,0,0,0,0,0,0,0,0,0,155,154,153,149,145,144,0,0,0,0,0,0,0,0,0,0,0,0,0,0.27,1
51,160,6,3,1,157,155,153,151,149,145,2,1,0,0,0,0,0,0,0,0,0,0,0,155,154,153,145,144,142,2,1,0,0,0,0,0,0,0,0,0,0,0,0.38,1
53,160,6,3,1,157,155,153,151,149,145,2,1,0,0,0,0,0,0,0,0,0,0,0,155,154,153,145,144,142,2,1,0,0,0,0,0,0,0,0,0,0,0,0.38,1
55,160,14,4,1,157,155,153,150,146,142,2,1,0,0,0,0,0,0,0,0,0,0,0,155,154,153,141,140,139,2,1,0,0,0,0,0,0,0,0,0,0,0,0.44,1
57,160,14,5,1,157,154,151,148,144,140,2,1,0,0,0,0,0,0,0,0,0,0,0,155,141,140,139,137,136,2,1,0,0,0,0,0,0,0,0,0,0,0,0.54,1
59,160,14,4,1,156,153,150,146,143,138,2,1,0,0,0,0,0,0,0,0,0,0,0,140,139,138,137,136,134,2,1,0,0,0,0,0,0,0,0,0,0,0,0.64,1
61,160,14,5,1,156,153,150,146,142,137,2,1,0,0,0,0,0,0,0,0,0,0,0,140,139,138,137,134,133,2,1,0,0,0,0,0,0,0,0,0,0,0,0.69,1
63,160,22,5,1,156,152,148,143,138,134,2,1,0,0,0,0,0,0,0,0,0,0,0,140,135,134,133,131,130,2,1,0,0,0,0,0,0,0,0,0,0,0,0.79,1
65,160,22,6,1,156,153,149,144,139,134,2,1,0,0,0,0,0,0,0,0,0,0,0,140,139,133,132,130,129,2,1,0,0,0,0,0,0,0,0,0,0,0,0.83,1
67,160,22,6,1,156,152,148,143,138,133,4,2,0,0,0,0,0,0,0,0,0,0,0,140,131,130,129,127,126,2,1,0,0,0,0,0,0,0,0,0,0,0,0.93,1
69,160,22,5,1,156,151,147,142,137,131,4,2,0,0,0,0,0,0,0,0,0,0,0,140,129,128,127,126,124,2,1,0,0,0,0,0,0,0,0,0,0,0,1.02,1
71,160,22,5,1,156,151,147,142,137,131,4,2,0,0,0,0,0,0,0,0,0,0,0,140,129,128,127,126,124,2,1,0,0,0,0,0,0,0,0,0,0,0,1.02,1
73,160,22,5,1,156,151,147,142,137,131,4,2,0,0,0,0,0,0,0,0,0,0,0,140,129,128,127,126,124,2,1,0,0,0,0,0,0,0,0,0,0,0,1.02,1
75,160,22,6,1,154,148,143,136,130,125,4,2,0,0,0,0,0,0,0,0,0,0,0,123,122,121,120,119,118,2,1,0,0,0,0,0,0,0,0,0,0,0,1.12,1
77,160,32,5,2,154,147,142,135,129,124,4,2,0,0,0,0,0,0,0,0,0,0,0,123,121,120,119,118,117,2,1,0,0,0,0,0,0,0,0,0,0,0,1.18,1
79,160,38,7,2,154,148,143,135,128,122,4,2,0,0,0,0,0,0,0,0,0,0,0,123,122,121,117,116,115,2,1,0,0,0,0,0,0,0,0,0,0,0,1.22,1
81,160,38,8,2,154,147,141,133,125,119,4,2,0,0,0,0,0,0,0,0,0,0,0,123,117,116,115,113,112,2,1,0,0,0,0,0,0,0,0,0,0,0,1.29,1
83,160,38,7,2,154,146,139,131,124,117,4,2,0,0,0,0,0,0,0,0,0,0,0,123,115,114,113,112,110,2,1,0,0,0,0,0,0,0,0,0,0,0,1.36,1
85,160,38,8,2,154,146,139,131,122,116,4,2,0,0,0,0,0,0,0,0,0,0,0,123,115,114,113,110,109,2,1,0,0,0,0,0,0,0,0,0,0,0,1.42,1
87,160,46,9,2,154,146,139,130,122,115,4,2,0,0,0,0,0,0,0,0,0,0,0,123,115,114,109,108,107,2,1,0,0,0,0,0,0,0,0,0,0,0,1.46,1
89,160,46,10,2,154,145,137,128,119,112,4,2,0,0,0,0,0,0,0,0,0,0,0,123,109,108,107,105,104,2,1,0,0,0,0,0,0,0,0,0,0,0,1.55,1
91,160,46,9,2,154,146,138,129,121,111,4,2,0,0,0,0,0,0,0,0,0,0,0,123,115,107,106,105,102,2,1,0,0,0,0,0,0,0,0,0,0,0,1.63,1
93,160,46,10,2,154,145,137,128,119,110,4,2,0,0,0,0,0,0,0,0,0,0,0,123,107,106,105,102,101,2,1,0,0,0,0,0,0,0,0,0,0,0,1.67,1
95,160,46,10,2,154,145,137,128,119,110,4,2,0,0,0,0,0,0,0,0,0,0,0,123,107,106,105,102,101,2,1,0,0,0,0,0,0,0,0,0,0,0,1.67,1
97,160,46,12,2,153,142,133,122,113,105,4,2,0,0,0,0,0,0,0,0,0,0,0,102,100,99,98,97,96,2,1,0,0,0,0,0,0,0,0,0,0,0,1.77,1
99,160,54,10,3,153,143,133,121,112,104,4,2,0,0,0,0,0,0,0,0,0,0,0,102,101,99,97,96,95,2,1,0,0,0,0,0,0,0,0,0,0,0,1.83,1
101,160,60,12,3,153,143,134,122,111,102,4,2,0,0,0,0,0,0,0,0,0,0,0,102,101,100,95,94,93,2,1,0,0,0,0,0,0,0,0,0,0,0,1.86,1
103,160,60,13,3,153,142,132,120,108,99,4,2,0,0,0,0,0,0,0,0,0,0,0,102,95,94,93,91,90,2,1,0,0,0,0,0,0,0,0,0,0,0,1.92,1
105,160,60,12,3,153,141,130,118,107,97,4,2,0,0,0,0,0,0,0,0,0,0,0,102,93,92,91,90,88,2,1,0,0,0,0,0,0,0,0,0,0,0,1.99,1
107,160,60,13,3,153,141,130,118,106,96,4,2,0,0,0,0,0,0,0,0,0,0,0,102,93,92,91,88,87,2,1,0,0,0,0,0,0,0,0,0,0,0,2.03,1
109,160,68,13,3,153,140,128,115,102,93,4,2,0,0,0,0,0,0,0,0,0,0,0,102,89,88,87,85,84,2,1,0,0,0,0,0,0,0,0,0,0,0,2.10,1
111,160,68,14,3,153,141,129,116,103,93,4,2,0,0,0,0,0,0,0,0,0,0,0,102,93,87,86,84,83,2,1,0,0,0,0,0,0,0,0,0,0,0,2.13,1
113,160,68,14,3,153,140,128,115,102,92,6,3,0,0,0,0,0,0,0,0,0,0,0,102,85,84,83,81,80,2,1,0,0,0,0,0,0,0,0,0,0,0,2.19,1
115,160,68,13,3,153,140,128,115,102,90,6,3,0,0,0,0,0,0,0,0,0,0,0,102,84,83,82,81,78,2,1,0,0,0,0,0,0,0,0,0,0,0,2.27,1
117,160,68,13,3,153,139,127,114,100,89,6,3,0,0,0,0,0,0,0,0,0,0,0,102,83,82,81,78,77,2,1,0,0,0,0,0,0,0,0,0,0,0,2.30,1
119,160,68,13,3,153,139,127,114,100,89,6,3,0,0,0,0,0,0,0,0,0,0,0,102,83,82,81,78,77,2,1,0,0,0,0,0,0,0,0,0,0,0,2.30,1
121,240,68,14,3,232,217,204,188,174,164,6,3,0,0,0,0,0,0,0,0,0,0,0,158,157,156,154,153,152,2,1,0,0,0,0,0,0,0,0,0,0,0,1.76,1
123,238,74,13,1,230,215,202,187,173,163,6,3,0,0,0,0,0,0,0,0,0,0,0,158,155,154,153,152,151,2,1,0,0,0,0,0,0,0,0,0,0,0,1.80,1
125,236,80,15,1,230,216,203,187,172,161,6,3,0,0,0,0,0,0,0,0,0,0,0,158,157,155,151,150,149,2,1,0,0,0,0,0,0,0,0,0,0,0,1.76,1
127,234,78,15,0,228,213,199,183,167,157,5,2,0,0,0,0,0,0,0,0,0,0,0,158,151,150,149,147,146,2,1,0,0,0,0,0,0,0,0,0,0,0,1.77,1
129,232,70,12,0,226,211,197,181,166,153,4,2,0,0,0,0,0,0,0,0,0,0,0,158,150,149,148,147,144,2,1,0,0,0,0,0,0,0,0,0,0,0,1.81,1
131,230,70,13,0,224,208,194,178,162,152,4,2,0,0,0,0,0,0,0,0,0,0,0,158,149,148,147,144,143,2,1,0,0,0,0,0,0,0,0,0,0,0,1.83,1
133,228,78,14,0,222,206,192,176,161,150,4,2,0,0,0,0,0,0,0,0,0,0,0,158,149,148,143,142,141,2,1,0,0,0,0,0,0,0,0,0,0,0,1.82,1
135,226,78,15,3,220,203,188,172,157,147,4,2,0,0,0,0,0,0,0,0,0,0,0,158,143,142,141,139,138,2,1,0,0,0,0,0,0,0,0,0,0,0,1.89,1
137,224,70,13,3,218,202,187,173,159,146,4,2,0,0,0,0,0,0,0,0,0,0,0,158,149,141,140,139,136,2,1,0,0,0,0,0,0,0,0,0,0,0,1.91,1
139,222,70,13,3,216,201,187,173,158,145,4,2,0,0,0,0,0,0,0,0,0,0,0,158,149,141,140,136,135,2,1,0,0,0,0,0,0,0,0,0,0,0,1.90,1
141,220,70,13,3,215,200,186,172,157,144,3,1,0,0,0,0,0,0,0,0,0,0,0,158,149,141,140,136,135,2,1,0,0,0,0,0,0,0,0,0,0,0,1.85,1
143,218,70,15,3,212,195,180,164,149,137,2,1,0,0,0,0,0,0,0,0,0,0,0,136,134,133,132,131,130,2,1,0,0,0,0,0,0,0,0,0,0,0,1.90,1
145,216,68,12,4,210,194,178,161,147,136,2,1,0,0,0,0,0,0,0,0,0,0,0,136,135,133,131,130,129,2,1,0,0,0,0,0,0,0,0,0,0,0,1.90,1
147,214,74,14,4,208,192,177,161,146,134,2,1,0,0,0,0,0,0,0,0,0,0,0,136,135,134,129,128,127,2,1,0,0,0,0,0,0,0,0,0,0,0,1.91,1
149,212,74,15,4,206,190,175,159,143,131,2,1,0,0,0,0,0,0,0,0,0,0,0,136,129,128,127,125,124,2,1,0,0,0,0,0,0,0,0,0,0,0,1.92,1
151,210,74,14,4,204,189,174,158,144,129,2,1,0,0,0,0,0,0,0,0,0,0,0,136,128,127,126,125,122,2,1,0,0,0,0,0,0,0,0,0,0,0,1.93,1
153,208,74,15,4,202,186,171,157,142,128,2,1,0,0,0,0,0,0,0,0,0,0,0,136,127,126,125,122,121,2,1,0,0,0,0,0,0,0,0,0,0,0,1.98,1
155,206,76,15,3,200,184,169,154,138,125,2,1,0,0,0,0,0,0,0,0,0,0,0,136,123,122,121,119,118,2,1,0,0,0,0,0,0,0,0,0,0,0,2.05,1
157,204,76,16,3,200,185,170,155,139,125,2,1,0,0,0,0,0,0,0,0,0,0,0,136,127,121,120,118,117,2,1,0,0,0,0,0,0,0,0,0,0,0,2.00,1
159,202,76,16,3,198,182,167,152,137,124,4,2,0,0,0,0,0,0,0,0,0,0,0,136,119,118,117,115,114,2,1,0,0,0,0,0,0,0,0,0,0,0,2.04,1
161,200,68,13,3,195,179,165,151,136,122,4,2,0,0,0,0,0,0,0,0,0,0,0,118,117,116,115,114,112,2,1,0,0,0,0,0,0,0,0,0,0,0,2.09,1
163,198,68,14,3,193,178,165,151,134,121,4,2,0,0,0,0,0,0,0,0,0,0,0,118,117,116,115,112,111,2,1,0,0,0,0,0,0,0,0,0,0,0,2.10,1
165,196,68,14,3,191,177,164,150,133,120,4,2,0,0,0,0,0,0,0,0,0,0,0,118,117,116,115,112,111,2,1,0,0,0,0,0,0,0,0,0,0,0,2.07,1
167,194,68,15,3,187,172,158,142,126,114,4,2,0,0,0,0,0,0,0,0,0,0,0,111,110,109,108,107,106,2,1,0,0,0,0,0,0,0,0,0,0,0,2.14,1
169,192,70,12,4,186,170,155,139,124,113,4,2,0,0,0,0,0,0,0,0,0,0,0,112,109,108,107,106,105,2,1,0,0,0,0,0,0,0,0,0,0,0,2.15,1
171,190,76,14,4,184,169,156,140,123,111,4,2,0,0,0,0,0,0,0,0,0,0,0,112,111,110,105,104,103,2,1,0,0,0,0,0,0,0,0,0,0,0,2.14,1
173,188,76,15,4,182,167,153,137,121,108,4,2,0,0,0,0,0,0,0,0,0,0,0,112,105,104,103,101,100,2,1,0,0,0,0,0,0,0,0,0,0,0,2.15,1
175,186,76,13,4,179,164,150,136,121,106,4,2,0,0,0,0,0,0,0,0,0,0,0,104,103,102,101,100,98,2,1,0,0,0,0,0,0,0,0,0,0,0,2.19,1
177,184,70,14,3,177,163,150,136,119,105,4,2,0,0,0,0,0,0,0,0,0,0,0,104,103,102,101,98,97,2,1,0,0,0,0,0,0,0,0,0,0,0,2.25,1
179,182,78,15,3,176,162,149,134,119,104,4,2,0,0,0,0,0,0,0,0,0,0,0,104,103,102,97,96,95,2,1,0,0,0,0,0,0,0,0,0,0,0,2.21,1
181,180,78,16,3,174,159,145,130,115,101,4,2,0,0,0,0,0,0,0,0,0,0,0,104,97,96,95,93,92,2,1,0,0,0,0,0,0,0,0,0,0,0,2.25,1
183,178,70,13,3,172,158,145,131,117,100,4,2,0,0,0,0,0,0,0,0,0,0,0,104,103,95,94,93,90,2,1,0,0,0,0,0,0,0,0,0,0,0,2.30,1
185,176,70,14,3,170,156,144,130,114,99,4,2,0,0,0,0,0,0,0,0,0,0,0,104,95,94,93,90,89,2,1,0,0,0,0,0,0,0,0,0,0,0,2.31,1
187,174,70,14,3,168,155,143,129,113,98,3,1,0,0,0,0,0,0,0,0,0,0,0,104,95,94,93,90,89,2,1,0,0,0,0,0,0,0,0,0,0,0,2.25,1
189,172,70,15,3,165,151,138,122,106,91,2,1,0,0,0,0,0,0,0,0,0,0,0,90,89,88,87,85,84,2,1,0,0,0,0,0,0,0,0,0,0,0,2.33,1
191,170,68,14,4,163,147,134,118,104,90,2,1,0,0,0,0,0,0,0,0,0,0,0,90,87,86,85,84,83,2,1,0,0,0,0,0,0,0,0,0,0,0,2.35,1
193,168,74,15,4,161,146,133,117,102,88,2,1,0,0,0,0,0,0,0,0,0,0,0,90,88,87,83,82,81,2,1,0,0,0,0,0,0,0,0,0,0,0,2.39,1
195,166,74,15,4,159,145,133,117,102,86,2,1,0,0,0,0,0,0,0,0,0,0,0,90,88,87,83,79,78,2,1,0,0,0,0,0,0,0,0,0,0,0,2.37,1
197,164,74,15,4,157,144,132,115,101,84,2,1,0,0,0,0,0,0,0,0,0,0,0,90,88,87,79,78,76,2,1,0,0,0,0,0,0,0,0,0,0,0,2.39,1
199,162,74,15,4,155,142,130,115,101,84,2,1,0,0,0,0,0,0,0,0,0,0,0,90,88,87,79,78,76,2,1,0,0,0,0,0,0,0,0,0,0,0,2.39,1
201,240,76,16,3,233,221,210,194,178,161,2,1,0,0,0,0,0,0,0,0,0,0,0,170,168,167,155,154,153,2,1,0,0,0,0,0,0,0,0,0,0,0,1.79,1
203,238,76,17,3,232,219,208,192,176,159,2,1,0,0,0,0,0,0,0,0,0,0,0,170,155,154,153,151,150,2,1,0,0,0,0,0,0,0,0,0,0,0,1.77,1
205,236,76,16,3,230,217,206,188,173,157,2,1,0,0,0,0,0,0,0,0,0,0,0,170,154,153,151,150,148,2,1,0,0,0,0,0,0,0,0,0,0,0,1.81,1
207,234,68,15,3,228,214,203,187,172,156,2,1,0,0,0,0,0,0,0,0,0,0,0,170,153,152,151,148,147,2,1,0,0,0,0,0,0,0,0,0,0,0,1.83,1
209,232,76,15,3,226,212,201,184,168,153,2,1,0,0,0,0,0,0,0,0,0,0,0,170,149,148,147,145,144,2,1,0,0,0,0,0,0,0,0,0,0,0,1.84,1
211,230,76,16,3,224,212,201,184,168,152,2,1,0,0,0,0,0,0,0,0,0,0,0,170,153,147,146,144,143,2,1,0,0,0,0,0,0,0,0,0,0,0,1.83,1
213,228,76,16,3,222,209,198,181,165,150,4,2,0,0,0,0,0,0,0,0,0,0,0,170,145,144,143,141,140,2,1,0,0,0,0,0,0,0,0,0,0,0,1.86,1
215,226,68,13,3,220,207,196,178,163,148,4,2,0,0,0,0,0,0,0,0,0,0,0,170,144,143,141,140,138,2,1,0,0,0,0,0,0,0,0,0,0,0,1.90,1
217,224,68,14,3,218,204,194,178,162,147,4,2,0,0,0,0,0,0,0,0,0,0,0,170,143,142,141,138,137,2,1,0,0,0,0,0,0,0,0,0,0,0,1.89,1
219,222,68,14,3,216,202,192,176,161,147,4,2,0,0,0,0,0,0,0,0,0,0,0,170,143,142,141,138,137,2,1,0,0,0,0,0,0,0,0,0,0,0,1.85,1
221,220,68,15,3,213,198,187,171,155,142,4,2,0,0,0,0,0,0,0,0,0,0,0,138,137,136,135,133,132,2,1,0,0,0,0,0,0,0,0,0,0,0,1.92,1
223,218,72,15,3,210,195,185,169,154,141,4,2,0,0,0,0,0,0,0,0,0,0,0,137,135,134,133,132,131,2,1,0,0,0,0,0,0,0,0,0,0,0,1.98,1
225,216,78,15,3,209,195,185,167,152,139,4,2,0,0,0,0,0,0,0,0,0,0,0,137,136,135,131,130,129,2,1,0,0,0,0,0,0,0,0,0,0,0,1.96,1
227,214,80,16,3,207,192,181,164,148,136,4,2,0,0,0,0,0,0,0,0,0,0,0,137,131,130,129,127,126,2,1,0,0,0,0,0,0,0,0,0,0,0,2.00,1
229,212,74,15,3,205,191,181,165,151,139,7,4,1,0,0,0,0,0,0,0,0,0,0,137,136,135,127,126,125,3,2,1,0,0,0,0,0,0,0,0,0,0,2.01,1
231,210,74,15,3,203,190,181,165,151,139,7,4,1,0,0,0,0,0,0,0,0,0,0,137,136,135,127,126,125,3,2,1,0,0,0,0,0,0,0,0,0,0,1.98,1
233,208,74,15,3,201,189,180,164,150,137,9,5,1,0,0,0,0,0,0,0,0,0,0,137,136,135,127,126,120,3,2,1,0,0,0,0,0,0,0,0,0,0,2.00,1
235,206,74,15,3,199,187,178,162,148,135,8,5,1,0,0,0,0,0,0,0,0,0,0,137,136,135,127,126,120,3,2,1,0,0,0,0,0,0,0,0,0,0,1.98,1
237,204,72,15,3,197,185,176,158,142,129,5,3,1,0,0,0,0,0,0,0,0,0,0,137,136,135,119,118,117,3,2,1,0,0,0,0,0,0,0,0,0,0,1.97,1
239,202,72,16,3,195,182,172,155,140,127,5,3,1,0,0,0,0,0,0,0,0,0,0,137,119,118,117,115,114,3,2,1,0,0,0,0,0,0,0,0,0,0,2.01,1
241,200,72,15,3,193,181,172,153,139,125,5,3,1,0,0,0,0,0,0,0,0,0,0,137,118,117,115,114,112,3,2,1,0,0,0,0,0,0,0,0,0,0,2.02,1
243,198,72,16,3,192,179,170,152,138,124,5,3,1,0,0,0,0,0,0,0,0,0,0,137,117,116,115,112,111,3,2,1,0,0,0,0,0,0,0,0,0,0,2.01,1
245,196,80,15,3,190,176,166,149,134,121,5,3,1,0,0,0,0,0,0,0,0,0,0,137,113,112,111,109,108,3,2,1,0,0,0,0,0,0,0,0,0,0,2.07,1
247,194,76,14,2,188,176,167,149,135,121,5,3,1,0,0,0,0,0,0,0,0,0,0,137,117,111,109,108,107,3,2,1,0,0,0,0,0,0,0,0,0,0,2.13,1
249,192,78,16,2,187,175,167,150,136,123,9,6,1,0,0,0,0,0,0,0,0,0,0,137,117,116,107,106,105,4,3,1,0,0,0,0,0,0,0,0,0,0,2.09,1
251,190,78,17,2,185,172,163,146,131,120,9,6,3,1,0,0,0,0,0,0,0,0,0,137,107,106,105,103,102,4,3,2,1,0,0,0,0,0,0,0,0,0,2.11,1
253,188,70,14,2,183,170,161,144,131,119,10,7,4,2,0,0,0,0,0,0,0,0,0,137,106,105,103,102,100,5,4,3,2,0,0,0,0,0,0,0,0,0,2.15,1
255,186,70,15,2,181,168,160,144,130,118,10,7,4,2,0,0,0,0,0,0,0,0,0,137,105,104,103,100,99,5,4,3,2,0,0,0,0,0,0,0,0,0,2.15,1
257,184,78,15,2,180,167,159,142,128,116,10,7,4,2,0,0,0,0,0,0,0,0,0,137,105,104,99,98,97,5,4,3,2,0,0,0,0,0,0,0,0,0,2.13,1
259,182,78,15,2,178,165,157,140,126,115,10,7,4,2,0,0,0,0,0,0,0,0,0,137,105,104,99,98,97,5,4,3,2,0,0,0,0,0,0,0,0,0,2.10,1
262,180,70,13,2,176,163,155,138,125,114,13,9,4,2,0,0,0,0,0,0,0,0,0,137,105,104,99,98,92,5,4,3,2,0,0,0,0,0,0,0,0,0,2.14,1
264,178,70,13,2,174,161,154,138,125,114,13,9,4,2,0,0,0,0,0,0,0,0,0,137,105,104,99,98,92,5,4,3,2,0,0,0,0,0,0,0,0,0,2.09,1
266,176,78,14,2,172,160,153,135,120,108,10,7,4,2,0,0,0,0,0,0,0,0,0,137,105,104,91,90,89,5,4,3,2,0,0,0,0,0,0,0,0,0,2.08,1
268,174,80,14,2,170,158,150,134,119,107,10,7,4,2,0,0,0,0,0,0,0,0,0,137,105,91,90,88,87,5,4,3,2,0,0,0,0,0,0,0,0,0,2.12,1
270,172,78,15,1,168,157,151,135,121,109,14,10,5,2,0,0,0,0,0,0,0,0,0,137,105,104,87,86,85,5,4,3,2,0,0,0,0,0,0,0,0,0,2.17,1
272,170,78,16,1,167,156,149,133,118,106,14,10,6,3,0,0,0,0,0,0,0,0,0,137,87,86,85,83,82,5,4,3,2,0,0,0,0,0,0,0,0,0,2.16,1
274,168,76,14,0,165,155,148,132,119,105,14,10,6,3,0,0,0,0,0,0,0,0,0,137,105,85,84,83,80,5,4,3,2,0,0,0,0,0,0,0,0,0,2.21,1
276,166,68,13,0,163,153,146,131,118,104,14,10,6,3,0,0,0,0,0,0,0,0,0,137,105,85,84,83,80,5,4,3,2,0,0,0,0,0,0,0,0,0,2.20,1
278,164,68,13,0,161,151,144,129,117,104,14,10,6,3,0,0,0,0,0,0,0,0,0,137,105,85,84,83,80,5,4,3,2,0,0,0,0,0,0,0,0,0,2.18,1
280,162,68,14,0,158,146,138,123,109,97,14,10,6,3,0,0,0,0,0,0,0,0,0,80,78,77,76,75,74,5,4,3,2,0,0,0,0,0,0,0,0,0,2.24,1
282,240,76,14,2,235,224,216,200,187,176,14,10,6,3,0,0,0,0,0,0,0,0,0,159,158,157,155,154,153,5,4,3,2,0,0,0,0,0,0,0,0,0,1.69,1
284,238,74,13,2,233,222,214,199,185,174,14,10,6,3,0,0,0,0,0,0,0,0,0,159,158,157,153,152,151,5,4,3,2,0,0,0,0,0,0,0,0,0,1.70,1
286,236,76,14,2,231,220,212,198,183,171,14,10,6,3,0,0,0,0,0,0,0,0,0,159,153,152,151,149,148,5,4,3,2,0,0,0,0,0,0,0,0,0,1.72,1
288,234,78,15,2,229,220,213,199,185,173,16,11,6,3,0,0,0,0,0,0,0,0,0,159,158,157,149,148,147,5,4,3,2,0,0,0,0,0,0,0,0,0,1.71,1
290,232,78,16,2,227,217,209,195,180,168,15,11,7,3,0,0,0,0,0,0,0,0,0,159,149,148,147,145,144,5,4,3,2,0,0,0,0,0,0,0,0,0,1.75,1
292,230,68,14,2,225,216,208,194,180,166,15,11,7,3,0,0,0,0,0,0,0,0,0,159,158,147,146,145,142,5,4,3,2,0,0,0,0,0,0,0,0,0,1.75,1
294,228,68,14,2,223,214,206,193,180,166,15,11,7,3,0,0,0,0,0,0,0,0,0,159,158,147,146,145,142,5,4,3,2,0,0,0,0,0,0,0,0,0,1.74,1
296,226,76,15,2,221,212,204,189,174,162,15,11,7,3,0,0,0,0,0,0,0,0,0,159,143,142,141,139,138,5,4,3,2,0,0,0,0,0,0,0,0,0,1.74,1
298,224,78,14,2,219,212,204,188,175,162,15,11,7,3,0,0,0,0,0,0,0,0,0,159,158,141,139,138,137,5,4,3,2,0,0,0,0,0,0,0,0,0,1.73,1
300,222,80,15,2,217,210,203,190,177,164,19,14,9,4,0,0,0,0,0,0,0,0,0,159,158,147,137,136,135,5,4,3,2,0,0,0,0,0,0,0,0,0,1.74,1
302,220,74,16,1,215,208,201,188,174,161,19,14,9,4,0,0,0,0,0,0,0,0,0,159,137,136,135,133,132,5,4,3,2,0,0,0,0,0,0,0,0,0,1.81,1
304,218,74,15,1,214,206,199,186,173,159,19,14,9,4,0,0,0,0,0,0,0,0,0,137,135,134,133,132,130,5,4,3,2,0,0,0,0,0,0,0,0,0,1.80,1
306,216,74,14,1,212,204,197,184,171,157,17,12,8,4,0,0,0,0,0,0,0,0,0,137,135,134,133,132,130,5,4,3,2,0,0,0,0,0,0,0,0,0,1.78,1
308,214,80,15,1,210,202,195,181,166,152,16,12,8,4,0,0,0,0,0,0,0,0,0,137,135,134,129,128,127,5,4,3,2,0,0,0,0,0,0,0,0,0,1.79,1
310,212,80,16,0,208,200,192,178,164,151,16,12,8,4,0,0,0,0,0,0,0,0,0,137,135,129,128,126,125,5,4,3,2,0,0,0,0,0,0,0,0,0,1.78,1
312,210,80,15,0,206,198,191,178,165,152,20,15,9,4,0,0,0,0,0,0,0,0,0,137,135,134,125,124,123,5,4,3,2,0,0,0,0,0,0,0,0,0,1.80,1
314,208,74,15,0,204,196,189,176,164,152,20,15,9,4,0,0,0,0,0,0,0,0,0,137,135,134,125,124,123,5,4,3,2,0,0,0,0,0,0,0,0,0,1.81,1
317,206,74,15,0,202,194,187,176,165,153,27,22,15,9,4,3,2,1,0,0,0,0,0,137,135,134,133,132,118,11,10,7,5,4,3,2,1,0,0,0,0,0,1.82,1
319,204,74,15,1,200,192,185,174,164,153,27,22,15,9,4,3,2,1,0,0,0,0,0,137,135,134,133,132,118,11,10,7,5,4,3,2,1,0,0,0,0,0,1.84,1
321,202,66,14,1,198,190,183,174,164,153,27,22,15,9,4,3,2,1,0,0,0,0,0,137,135,134,133,132,118,11,10,7,5,4,3,2,1,0,0,0,0,0,1.82,1
325,200,66,14,1,195,186,179,169,157,146,26,21,15,9,4,3,2,1,0,0,0,0,0,118,116,115,114,113,112,10,9,7,5,4,3,2,1,0,0,0,0,0,1.85,1
328,198,74,15,1,192,185,178,167,155,144,25,20,14,8,4,3,2,1,0,0,0,0,0,117,116,115,113,112,111,10,9,7,5,4,3,2,1,0,0,0,0,0,1.84,1
330,196,80,15,1,190,183,176,164,151,140,23,18,12,7,4,3,2,1,0,0,0,0,0,117,116,115,111,110,109,10,9,7,5,4,3,2,1,0,0,0,0,0,1.86,1
332,194,80,16,1,188,180,172,161,147,135,21,17,12,7,4,3,2,1,0,0,0,0,0,117,111,110,109,107,106,10,9,7,5,4,3,2,1,0,0,0,0,0,1.87,1
334,192,80,17,1,186,179,172,161,148,137,24,19,12,7,4,3,2,1,0,0,0,0,0,117,116,115,107,106,105,10,9,7,5,4,3,2,1,0,0,0,0,0,1.88,1
337,190,72,16,1,184,176,168,158,145,134,24,19,13,7,4,3,2,1,0,0,0,0,0,117,107,106,105,103,102,10,9,7,5,4,3,2,1,0,0,0,0,0,1.93,1
339,188,72,15,1,182,176,169,159,146,132,24,19,13,7,4,3,2,1,0,0,0,0,0,117,116,105,104,103,100,10,9,7,5,4,3,2,1,0,0,0,0,0,1.91,1
341,186,72,15,1,180,175,168,158,144,130,24,19,13,7,4,3,2,1,0,0,0,0,0,117,116,105,104,100,99,10,9,7,5,4,3,2,1,0,0,0,0,0,1.88,1
343,184,80,16,3,178,172,164,152,138,127,24,19,13,7,4,3,2,1,0,0,0,0,0,117,101,100,99,97,96,10,9,7,5,4,3,2,1,0,0,0,0,0,1.91,1
345,182,80,14,3,176,171,163,151,138,126,24,19,13,7,4,3,2,1,0,0,0,0,0,117,116,99,97,96,95,10,9,7,5,4,3,2,1,0,0,0,0,0,1.92,1
347,180,78,16,3,174,169,162,151,139,128,28,22,13,7,4,3,2,1,0,0,0,0,0,117,116,105,95,94,93,10,9,7,5,4,3,2,1,0,0,0,0,0,1.96,1
349,178,78,17,3,172,166,158,148,135,124,27,21,14,7,4,3,2,1,0,0,0,0,0,117,95,94,93,91,90,10,9,7,5,4,3,2,1,0,0,0,0,0,1.97,1
351,176,76,16,2,169,162,154,144,132,120,25,19,13,7,4,3,2,1,0,0,0,0,0,95,93,92,91,90,88,10,9,7,5,4,3,2,1,0,0,0,0,0,2.05,1
353,174,74,15,2,167,161,153,142,129,117,24,19,13,7,4,3,2,1,0,0,0,0,0,95,94,93,91,88,87,10,9,7,5,4,3,2,1,0,0,0,0,0,2.06,1
355,172,80,17,2,165,159,151,138,124,114,24,19,13,7,4,3,2,1,0,0,0,0,0,95,94,93,87,86,85,10,9,7,5,4,3,2,1,0,0,0,0,0,2.07,1
357,170,74,16,2,163,157,148,136,123,113,24,19,13,7,4,3,2,1,0,0,0,0,0,95,94,87,86,84,83,10,9,7,5,4,3,2,1,0,0,0,0,0,2.09,1
359,168,76,17,2,161,155,148,137,125,115,27,21,14,7,4,3,2,1,0,0,0,0,0,95,94,93,83,82,81,10,9,7,5,4,3,2,1,0,0,0,0,0,2.10,1
361,166,76,17,2,159,153,146,135,124,115,27,21,14,7,4,3,2,1,0,0,0,0,0,95,94,93,83,82,81,10,9,7,5,4,3,2,1,0,0,0,0,0,2.05,1
363,164,76,17,2,157,151,144,135,126,117,34,28,20,13,9,7,5,3,1,0,0,0,0,95,94,93,91,90,76,10,9,7,6,5,4,3,2,1,0,0,0,0,2.14,1
365,162,70,17,2,155,150,144,135,125,116,34,27,19,11,6,3,2,1,0,0,0,0,0,95,94,93,91,76,75,10,9,7,5,4,3,2,1,0,0,0,0,0,2.18,1
367,240,70,17,2,235,230,224,215,205,196,34,27,19,11,6,3,2,1,0,0,0,0,0,175,174,173,171,156,155,10,9,7,5,4,3,2,1,0,0,0,0,0,1.54,1
369,238,70,16,2,232,226,219,208,197,188,31,24,17,10,5,3,2,1,0,0,0,0,0,156,155,154,153,151,150,10,9,7,5,4,3,2,1,0,0,0,0,0,1.59,1
371,236,76,17,3,229,223,216,204,194,185,30,24,17,10,5,3,2,1,0,0,0,0,0,155,154,153,151,150,149,10,9,7,5,4,3,2,1,0,0,0,0,0,1.61,1
373,234,80,17,3,227,221,214,201,191,183,30,24,17,10,5,3,2,1,0,0,0,0,0,155,154,153,149,148,147,10,9,7,5,4,3,2,1,0,0,0,0,0,1.59,1
375,232,76,16,3,225,218,210,198,188,180,30,24,17,10,5,3,2,1,0,0,0,0,0,155,149,148,147,145,144,10,9,7,5,4,3,2,1,0,0,0,0,0,1.63,1
377,230,78,17,3,223,217,211,200,191,183,33,26,17,10,5,3,2,1,0,0,0,0,0,155,154,153,145,144,143,10,9,7,5,4,3,2,1,0,0,0,0,0,1.62,1
379,228,78,18,3,221,214,207,197,187,179,32,25,17,9,5,3,2,1,0,0,0,0,0,155,145,144,143,141,140,10,9,7,5,4,3,2,1,0,0,0,0,0,1.63,1
381,226,76,17,3,219,213,206,196,186,175,30,23,16,9,5,3,2,1,0,0,0,0,0,155,154,143,142,141,138,10,9,7,5,4,3,2,1,0,0,0,0,0,1.69,1
383,224,74,18,3,217,210,203,193,181,172,29,23,16,9,5,3,2,1,0,0,0,0,0,155,143,142,141,138,137,10,9,7,5,4,3,2,1,0,0,0,0,0,1.67,1
385,222,80,18,3,215,207,199,188,177,169,29,23,16,9,5,3,2,1,0,0,0,0,0,155,139,138,137,135,134,10,9,7,5,4,3,2,1,0,0,0,0,0,1.71,1
387,220,76,15,3,213,206,199,188,178,169,29,23,16,9,5,3,2,1,0,0,0,0,0,155,143,137,135,134,133,10,9,7,5,4,3,2,1,0,0,0,0,0,1.73,1
389,218,78,17,3,212,206,200,190,180,171,33,25,16,9,5,3,2,1,0,0,0,0,0,155,143,142,133,132,131,10,9,7,5,4,3,2,1,0,0,0,0,0,1.72,1
391,216,78,18,3,210,204,197,187,176,167,32,25,18,10,5,3,2,1,0,0,0,0,0,155,133,132,131,129,128,9,8,7,5,4,3,2,1,0,0,0,0,0,1.72,1
393,214,76,17,1,207,200,193,183,173,163,30,23,16,9,4,2,1,0,0,0,0,0,0,133,131,130,129,128,126,9,6,5,4,3,2,1,0,0,0,0,0,0,1.79,1
395,212,74,17,1,205,198,191,181,169,160,28,21,14,7,2,0,0,0,0,0,0,0,0,133,131,130,129,126,125,9,4,3,2,1,0,0,0,0,0,0,0,0,1.79,1
397,210,80,18,2,203,196,188,176,165,156,26,19,12,5,1,0,0,0,0,0,0,0,0,133,131,129,125,124,123,9,4,3,2,1,0,0,0,0,0,0,0,0,1.81,1
399,208,74,17,2,201,194,185,174,162,152,24,17,11,5,1,0,0,0,0,0,0,0,0,133,131,125,124,122,121,9,4,3,2,1,0,0,0,0,0,0,0,0,1.82,1
401,206,76,18,2,199,192,184,173,162,152,26,19,12,5,1,0,0,0,0,0,0,0,0,133,131,129,121,120,119,9,4,3,2,1,0,0,0,0,0,0,0,0,1.87,1
403,204,76,18,2,197,190,182,171,161,152,26,19,12,5,1,0,0,0,0,0,0,0,0,133,131,129,121,120,119,9,4,3,2,1,0,0,0,0,0,0,0,0,1.82,1
405,202,76,18,2,195,188,180,171,163,154,33,26,18,10,5,3,2,1,0,0,0,0,0,133,131,129,128,127,114,10,9,7,5,4,3,2,1,0,0,0,0,0,1.89,1
407,200,70,19,0,193,186,178,168,157,148,28,21,14,6,1,0,0,0,0,0,0,0,0,133,119,118,117,114,113,9,4,3,2,1,0,0,0,0,0,0,0,0,1.93,1
409,198,70,19,0,193,186,178,168,157,148,28,21,14,6,1,0,0,0,0,0,0,0,0,133,119,118,117,114,113,9,4,3,2,1,0,0,0,0,0,0,0,0,1.86,1
411,196,70,19,0,189,181,171,160,150,141,26,19,13,6,1,0,0,0,0,0,0,0,0,113,112,111,110,109,108,9,4,3,2,1,0,0,0,0,0,0,0,0,1.93,1
413,194,76,19,0,187,179,169,157,147,138,25,19,13,6,1,0,0,0,0,0,0,0,0,113,112,111,109,108,107,9,4,3,2,1,0,0,0,0,0,0,0,0,1.94,1
415,192,80,19,0,185,177,167,154,144,136,25,19,13,6,1,0,0,0,0,0,0,0,0,113,112,111,107,106,105,9,4,3,2,1,0,0,0,0,0,0,0,0,1.94,1
417,190,74,18,0,183,174,163,151,141,133,25,19,13,6,1,0,0,0,0,0,0,0,0,113,107,106,105,103,102,9,4,3,2,1,0,0,0,0,0,0,0,0,1.98,1
419,188,76,19,0,181,173,164,153,144,136,28,21,13,6,1,0,0,0,0,0,0,0,0,113,112,111,103,102,101,9,4,3,2,1,0,0,0,0,0,0,0,0,1.97,1
421,186,76,20,0,179,170,160,150,140,132,27,20,13,5,1,0,0,0,0,0,0,0,0,113,103,102,101,99,98,9,4,3,2,1,0,0,0,0,0,0,0,0,1.98,1
423,184,76,19,0,177,169,159,149,139,128,25,18,12,5,1,0,0,0,0,0,0,0,0,113,112,101,100,99,96,9,4,3,2,1,0,0,0,0,0,0,0,0,2.03,1
425,182,74,20,0,175,166,156,146,135,125,24,18,12,5,1,0,0,0,0,0,0,0,0,113,101,100,99,96,95,9,4,3,2,1,0,0,0,0,0,0,0,0,2.02,1
427,180,80,20,0,173,163,152,141,130,122,24,18,12,5,1,0,0,0,0,0,0,0,0,113,97,96,95,93,92,9,4,3,2,1,0,0,0,0,0,0,0,0,2.06,1
429,178,74,17,0,171,162,152,141,131,122,24,18,12,5,1,0,0,0,0,0,0,0,0,113,101,95,93,92,91,9,4,3,2,1,0,0,0,0,0,0,0,0,2.08,1
431,176,76,19,0,170,162,153,143,133,124,27,20,12,5,1,0,0,0,0,0,0,0,0,113,101,100,91,90,89,9,4,3,2,1,0,0,0,0,0,0,0,0,2.08,1
433,174,76,20,0,168,159,149,140,129,120,27,20,13,5,1,0,0,0,0,0,0,0,0,113,91,90,89,87,86,9,4,3,2,1,0,0,0,0,0,0,0,0,2.09,1
435,172,76,18,0,165,155,145,136,126,116,25,18,11,3,0,0,0,0,0,0,0,0,0,91,89,88,87,86,84,7,4,3,1,0,0,0,0,0,0,0,0,0,2.14,1
437,170,74,18,0,163,153,143,134,123,113,23,16,10,3,0,0,0,0,0,0,0,0,0,91,89,88,87,84,83,5,4,3,1,0,0,0,0,0,0,0,0,0,2.15,1
439,168,80,18,0,161,151,141,130,118,109,21,15,9,2,0,0,0,0,0,0,0,0,0,91,89,88,83,82,81,5,4,3,1,0,0,0,0,0,0,0,0,0,2.17,1
441,166,74,17,2,159,149,138,128,116,106,19,13,8,2,0,0,0,0,0,0,0,0,0,91,89,83,82,80,79,5,4,3,1,0,0,0,0,0,0,0,0,0,2.19,1
443,164,76,18,2,157,147,137,127,116,106,22,16,9,2,0,0,0,0,0,0,0,0,0,91,89,88,79,78,77,5,4,3,1,0,0,0,0,0,0,0,0,0,2.25,1
445,162,76,18,2,155,145,135,125,115,106,22,16,9,2,0,0,0,0,0,0,0,0,0,91,89,88,79,78,77,5,4,3,1,0,0,0,0,0,0,0,0,0,2.20,1
447,172,76,18,2,165,155,145,138,129,120,29,23,15,7,4,3,2,1,0,0,0,0,0,103,101,100,99,98,84,11,10,7,5,4,3,2,1,0,0,0,0,0,2.14,1
449,170,70,19,0,163,153,143,135,124,114,24,18,11,3,0,0,0,0,0,0,0,0,0,103,89,88,87,84,83,6,5,3,1,0,0,0,0,0,0,0,0,0,2.18,1
451,168,70,19,0,163,153,143,135,124,114,24,18,11,3,0,0,0,0,0,0,0,0,0,103,89,88,87,84,83,6,5,3,1,0,0,0,0,0,0,0,0,0,2.10,1
453,166,70,19,0,161,151,141,132,120,108,22,16,10,3,0,0,0,0,0,0,0,0,0,103,89,88,80,79,78,6,5,3,1,0,0,0,0,0,0,0,0,0,2.12,1
455,164,76,18,0,159,149,138,128,117,107,23,17,10,3,0,0,0,0,0,0,0,0,0,103,89,81,79,78,77,6,5,3,1,0,0,0,0,0,0,0,0,0,2.14,1
457,162,80,19,0,157,146,135,126,116,107,25,19,12,4,0,0,0,0,0,0,0,0,0,103,79,78,77,76,75,6,5,3,1,0,0,0,0,0,0,0,0,0,2.14,1
459,160,2,12,0,152,136,123,115,108,103,0,0,0,0,0,0,0,0,0,0,0,0,0,103,102,101,100,99,98,0,0,0,0,0,0,0,0,0,0,0,0,0,1.14,0
461,170,2,12,0,162,146,133,125,118,113,0,0,0,0,0,0,0,0,0,0,0,0,0,113,112,111,110,109,108,0,0,0,0,0,0,0,0,0,0,0,0,0,1.08,0
463,160,0,7,0,139,119,105,95,86,83,0,0,0,0,0,0,0,0,0,0,0,0,0,88,87,85,84,83,82,0,0,0,0,0,0,0,0,0,0,0,0,0,1.84,0
465,240,6,10,0,216,189,173,160,146,142,0,0,0,0,0,0,0,0,0,0,0,0,0,103,99,98,97,94,93,0,0,0,0,0,0,0,0,0,0,0,0,0,1.62,0
467,240,6,11,0,230,209,198,188,173,168,0,0,0,0,0,0,0,0,0,0,0,0,0,90,89,88,87,85,84,0,0,0,0,0,0,0,0,0,0,0,0,0,0.87,0
469,186,0,9,0,178,162,152,144,132,127,0,0,0,0,0,0,0,0,0,0,0,0,0,82,80,79,78,77,76,0,0,0,0,0,0,0,0,0,0,0,0,0,0.81,0
471,160,12,11,0,153,136,124,115,108,103,0,0,0,0,0,0,0,0,0,0,0,0,0,103,102,101,100,99,98,0,0,0,0,0,0,0,0,0,0,0,0,0,1.08,0
473,170,12,11,0,163,146,134,125,118,113,0,0,0,0,0,0,0,0,0,0,0,0,0,113,112,111,110,109,108,0,0,0,0,0,0,0,0,0,0,0,0,0,1.03,0
475,160,6,12,0,154,137,125,118,110,108,0,0,0,0,0,0,0,0,0,0,0,0,0,114,113,112,111,109,108,0,0,0,0,0,0,0,0,0,0,0,0,0,1.06,0
477,182,6,13,0,175,156,143,135,125,122,0,0,0,0,0,0,0,0,0,0,0,0,0,80,78,77,76,75,74,0,0,0,0,0,0,0,0,0,0,0,0,0,1.05,0
479,92,2,1,0,91,87,83,77,75,74,0,0,0,0,0,0,0,0,0,0,0,0,0,91,78,77,76,75,74,0,0,0,0,0,0,0,0,0,0,0,0,0,0.41,0
481,108,6,2,0,107,106,102,93,80,76,0,0,0,0,0,0,0,0,0,0,0,0,0,107,106,80,79,77,76,0,0,0,0,0,0,0,0,0,0,0,0,0,0.45,0
483,114,0,1,0,112,109,106,103,99,97,0,0,0,0,0,0,0,0,0,0,0,0,0,112,79,78,77,76,75,0,0,0,0,0,0,0,0,0,0,0,0,0,0.27,0
485,82,0,0,0,81,80,79,78,77,76,0,0,0,0,0,0,0,0,0,0,0,0,0,81,80,79,78,77,76,0,0,0,0,0,0,0,0,0,0,0,0,0,0.00,0
487,92,0,0,0,91,90,89,88,86,85,0,0,0,0,0,0,0,0,0,0,0,0,0,91,90,89,88,86,85,0,0,0,0,0,0,0,0,0,0,0,0,0,0.09,0
489,96,0,1,0,94,92,90,86,83,81,0,0,0,0,0,0,0,0,0,0,0,0,0,86,85,84,83,81,80,0,0,0,0,0,0,0,0,0,0,0,0,0,0.25,0
491,160,6,2,0,156,151,145,139,131,127,0,0,0,0,0,0,0,0,0,0,0,0,0,149,113,89,88,84,83,0,0,0,0,0,0,0,0,0,0,0,0,0,0.38,0
493,212,6,4,1,202,191,181,173,162,157,0,0,0,0,0,0,0,0,0,0,0,0,0,105,81,80,79,77,76,0,0,0,0,0,0,0,0,0,0,0,0,0,0.80,0
495,82,0,0,0,81,80,79,78,77,76,0,0,0,0,0,0,0,0,0,0,0,0,0,81,80,79,78,77,76,0,0,0,0,0,0,0,0,0,0,0,0,0,0.00,0
497,104,0,3,0,99,94,90,86,78,77,0,0,0,0,0,0,0,0,0,0,0,0,0,83,82,81,80,78,77,0,0,0,0,0,0,0,0,0,0,0,0,0,0.55,0
499,86,0,0,0,85,84,83,82,81,80,0,0,0,0,0,0,0,0,0,0,0,0,0,85,84,83,82,81,80,0,0,0,0,0,0,0,0,0,0,0,0,0,0.00,0
501,86,0,0,0,85,84,83,82,81,80,0,0,0,0,0,0,0,0,0,0,0,0,0,85,84,83,82,81,80,0,0,0,0,0,0,0,0,0,0,0,0,0,0.00,0
503,82,0,1,0,81,80,79,77,76,75,0,0,0,0,0,0,0,0,0,0,0,0,0,81,80,79,77,76,75,0,0,0,0,0,0,0,0,0,0,0,0,0,0.10,0
505,84,0,0,0,83,82,81,80,79,78,0,0,0,0,0,0,0,0,0,0,0,0,0,83,82,81,80,79,78,0,0,0,0,0,0,0,0,0,0,0,0,0,0.00,0
507,84,0,1,0,82,79,78,77,75,74,0,0,0,0,0,0,0,0,0,0,0,0,0,80,79,78,77,75,74,0,0,0,0,0,0,0,0,0,0,0,0,0,0.28,0
509,82,0,0,0,81,80,79,78,77,76,0,0,0,0,0,0,0,0,0,0,0,0,0,81,80,79,78,77,76,0,0,0,0,0,0,0,0,0,0,0,0,0,0.00,0
511,82,0,0,0,81,80,79,78,77,76,0,0,0,0,0,0,0,0,0,0,0,0,0,81,80,79,78,77,76,0,0,0,0,0,0,0,0,0,0,0,0,0,0.00,0
513,82,0,0,0,81,80,79,78,77,76,0,0,0,0,0,0,0,0,0,0,0,0,0,81,80,79,78,77,76,0,0,0,0,0,0,0,0,0,0,0,0,0,0.00,0
515,104,0,0,0,103,90,83,76,75,74,0,0,0,0,0,0,0,0,0,0,0,0,0,103,78,77,76,75,74,0,0,0,0,0,0,0,0,0,0,0,0,0,0.52,0
517,112,0,0,0,111,94,85,76,75,74,0,0,0,0,0,0,0,0,0,0,0,0,0,111,78,77,76,75,74,0,0,0,0,0,0,0,0,0,0,0,0,0,0.59,0
519,160,0,3,0,149,133,120,103,90,85,0,0,0,0,0,0,0,0,0,0,0,0,0,97,81,79,78,76,75,0,0,0,0,0,0,0,0,0,0,0,0,0,0.98,0
521,240,0,5,0,219,187,163,130,105,95,0,0,0,0,0,0,0,0,0,0,0,0,0,105,78,77,76,75,74,0,0,0,0,0,0,0,0,0,0,0,0,0,1.18,0
523,216,0,3,0,195,167,148,121,103,95,0,0,0,0,0,0,0,0,0,0,0,0,0,89,84,83,82,81,80,0,0,0,0,0,0,0,0,0,0,0,0,0,1.15,0
525,160,0,0,0,159,152,149,144,139,136,0,0,0,0,0,0,0,0,0,0,0,0,0,159,96,95,94,93,92,0,0,0,0,0,0,0,0,0,0,0,0,0,0.23,0
527,170,0,0,0,169,162,159,154,149,146,0,0,0,0,0,0,0,0,0,0,0,0,0,169,106,105,104,103,102,0,0,0,0,0,0,0,0,0,0,0,0,0,0.22,0
529,140,0,0,0,139,132,129,124,119,116,0,0,0,0,0,0,0,0,0,0,0,0,0,139,96,95,94,93,92,0,0,0,0,0,0,0,0,0,0,0,0,0,0.26,0
531,88,0,1,0,87,86,84,81,78,77,0,0,0,0,0,0,0,0,0,0,0,0,0,87,86,81,80,78,77,0,0,0,0,0,0,0,0,0,0,0,0,0,0.09,0
533,144,0,14,1,128,119,109,100,77,75,0,0,0,0,0,0,0,0,0,0,0,0,0,81,80,79,78,76,75,0,0,0,0,0,0,0,0,0,0,0,0,0,0.99,0
535,112,0,2,0,109,106,103,99,94,90,0,0,0,0,0,0,0,0,0,0,0,0,0,92,91,83,82,78,77,0,0,0,0,0,0,0,0,0,0,0,0,0,0.28,0
567,160,2,12,0,152,136,123,115,108,103,0,0,0,0,0,0,0,0,0,0,0,0,0,103,102,101,100,99,98,0,0,0,0,0,0,0,0,0,0,0,0,0,1.14,0
569,170,2,12,0,162,146,133,125,118,113,0,0,0,0,0,0,0,0,0,0,0,0,0,113,112,111,110,109,108,0,0,0,0,0,0,0,0,0,0,0,0,0,1.08,0
571,160,12,11,0,153,136,124,115,108,103,0,0,0,0,0,0,0,0,0,0,0,0,0,103,102,101,100,99,98,0,0,0,0,0,0,0,0,0,0,0,0,0,1.08,0
573,170,12,11,0,163,146,134,125,118,113,0,0,0,0,0,0,0,0,0,0,0,0,0,113,112,111,110,109,108,0,0,0,0,0,0,0,0,0,0,0,0,0,1.03,0
575,160,6,13,0,153,134,121,113,103,100,0,0,0,0,0,0,0,0,0,0,0,0,0,58,56,55,54,53,52,0,0,0,0,0,0,0,0,0,0,0,0,0,1.16,0
577,182,6,13,0,175,156,143,135,125,122,0,0,0,0,0,0,0,0,0,0,0,0,0,80,78,77,76,75,74,0,0,0,0,0,0,0,0,0,0,0,0,0,1.05,0
579,160,6,10,0,136,109,93,80,66,62,0,0,0,0,0,0,0,0,0,0,0,0,0,55,54,52,51,49,48,0,0,0,0,0,0,0,0,0,0,0,0,0,2.24,0
581,240,6,18,0,210,170,146,127,104,97,0,0,0,0,0,0,0,0,0,0,0,0,0,55,54,52,51,49,48,0,0,0,0,0,0,0,0,0,0,0,0,0,2.10,0
583,240,6,12,0,229,206,194,183,166,160,0,0,0,0,0,0,0,0,0,0,0,0,0,56,54,53,52,51,50,0,0,0,0,0,0,0,0,0,0,0,0,0,0.94,0
585,186,0,9,0,178,162,152,144,132,127,0,0,0,0,0,0,0,0,0,0,0,0,0,82,80,79,78,77,76,0,0,0,0,0,0,0,0,0,0,0,0,0,0.81,0
