pkt#,size,#dec,#op,#rung,#2gram,#3gram,#4gram,#5gram,#6gram,#7gram,#8gram,#9gram,#10gram,#11gram,#12gram,#13gram,#14gram,#15gram,#16gram,#17gram,#18gram,#19gram,#20gram,L2gram,L3gram,L4gram,L5gram,L6gram,L7gram,L8gram,L9gram,L10gram,L11gram,L12gram,L13gram,L14gram,L15gram,L16gram,L17gram,L18gram,L19gram,L20gram,entropy,class
55,708,0,0,0,706,1,0,0,0,0,0,0,0,0,0,0,0,0,0,0,0,0,0,470,1,0,0,0,0,0,0,0,0,0,0,0,0,0,0,0,0,0,0.02,0
58,708,0,0,0,707,2,1,0,0,0,0,0,0,0,0,0,0,0,0,0,0,0,0,707,2,1,0,0,0,0,0,0,0,0,0,0,0,0,0,0,0,0,0.03,0
61,708,3,0,0,706,3,2,1,0,0,0,0,0,0,0,0,0,0,0,0,0,0,0,470,3,2,1,0,0,0,0,0,0,0,0,0,0,0,0,0,0,0,0.05,0
64,708,5,1,0,707,5,4,3,2,1,0,0,0,0,0,0,0,0,0,0,0,0,0,707,5,4,3,2,1,0,0,0,0,0,0,0,0,0,0,0,0,0,0.06,0
67,708,5,1,0,707,5,4,3,2,1,0,0,0,0,0,0,0,0,0,0,0,0,0,707,5,4,3,2,1,0,0,0,0,0,0,0,0,0,0,0,0,0,0.06,0
70,708,5,2,1,706,6,5,4,3,1,0,0,0,0,0,0,0,0,0,0,0,0,0,470,6,5,4,3,1,0,0,0,0,0,0,0,0,0,0,0,0,0,0.08,0
73,708,7,2,1,706,7,6,5,4,2,0,0,0,0,0,0,0,0,0,0,0,0,0,470,7,6,5,4,1,0,0,0,0,0,0,0,0,0,0,0,0,0,0.09,0
76,708,7,3,1,706,8,7,6,5,3,1,0,0,0,0,0,0,0,0,0,0,0,0,470,8,7,6,5,2,1,0,0,0,0,0,0,0,0,0,0,0,0,0.11,0
79,708,7,3,1,706,9,8,7,6,4,2,1,0,0,0,0,0,0,0,0,0,0,0,470,9,8,7,6,3,2,1,0,0,0,0,0,0,0,0,0,0,0,0.12,0
82,708,12,3,1,707,12,11,9,7,5,3,2,1,0,0,0,0,0,0,0,0,0,0,707,12,11,8,7,4,3,2,1,0,0,0,0,0,0,0,0,0,0,0.14,0
85,708,7,3,1,706,11,10,9,8,6,4,3,2,1,0,0,0,0,0,0,0,0,0,470,11,10,9,8,5,4,3,2,1,0,0,0,0,0,0,0,0,0,0.15,0
88,708,7,3,1,706,12,11,10,9,7,5,4,3,2,1,0,0,0,0,0,0,0,0,470,12,11,10,9,6,5,4,3,2,1,0,0,0,0,0,0,0,0,0.17,0
91,708,7,3,1,706,13,12,11,10,8,6,5,4,3,2,1,0,0,0,0,0,0,0,470,13,12,11,10,7,6,5,4,3,2,1,0,0,0,0,0,0,0,0.18,0
94,708,7,3,1,707,15,13,12,11,9,7,6,5,4,3,2,1,0,0,0,0,0,0,707,14,13,12,11,8,7,6,5,4,3,2,1,0,0,0,0,0,0,0.20,0
97,708,7,3,1,706,15,14,13,12,10,8,7,6,5,4,3,2,1,0,0,0,0,0,470,15,14,13,12,9,8,7,6,5,4,3,2,1,0,0,0,0,0,0.21,0
100,708,16,3,1,706,16,15,14,13,11,9,8,7,6,5,4,3,2,1,0,0,0,0,470,16,15,14,13,10,9,8,7,6,5,4,3,2,1,0,0,0,0,0.22,0
103,708,16,3,1,706,17,16,15,14,12,10,9,8,7,6,5,4,3,2,1,0,0,0,470,17,16,15,14,11,10,9,8,7,6,5,4,3,2,1,0,0,0,0.24,0
106,708,16,3,1,707,18,17,16,15,13,11,10,9,8,7,6,5,4,3,2,1,0,0,707,18,17,16,15,12,11,10,9,8,7,6,5,4,3,2,1,0,0,0.25,0
109,708,19,3,1,706,19,18,17,16,14,12,11,10,9,8,7,6,5,4,3,2,1,0,470,19,18,17,16,13,12,11,10,9,8,7,6,5,4,3,2,1,0,0.26,0
112,708,19,3,1,706,20,19,18,17,15,13,12,11,10,9,8,7,6,5,4,3,2,1,470,20,19,18,17,14,13,12,11,10,9,8,7,6,5,4,3,2,1,0.28,0
115,708,23,3,1,707,23,22,21,20,17,14,13,12,11,10,9,8,7,6,5,4,3,2,707,23,22,21,20,15,14,13,12,11,10,9,8,7,6,5,4,3,2,0.29,0
118,708,23,3,1,706,22,21,20,19,17,15,14,13,12,11,10,9,8,7,6,5,4,3,470,22,21,20,19,16,15,14,13,12,11,10,9,8,7,6,5,4,3,0.30,0
121,708,23,3,1,706,23,22,21,20,18,16,15,14,13,12,11,10,9,8,7,6,5,4,470,23,22,21,20,17,16,15,14,13,12,11,10,9,8,7,6,5,4,0.32,0
124,708,23,3,1,706,24,23,22,21,19,17,16,15,14,13,12,11,10,9,8,7,6,5,470,24,23,22,21,18,17,16,15,14,13,12,11,10,9,8,7,6,5,0.33,0
127,708,23,3,1,706,25,24,23,22,20,18,17,16,15,14,13,12,11,10,9,8,7,6,470,25,24,23,22,19,18,17,16,15,14,13,12,11,10,9,8,7,6,0.35,0
130,708,26,3,1,706,26,25,24,23,21,19,18,17,16,15,14,13,12,11,10,9,8,7,470,26,25,24,23,20,19,18,17,16,15,14,13,12,11,10,9,8,7,0.36,0
133,708,26,3,2,706,27,26,25,24,22,20,19,18,17,16,15,14,13,12,11,10,9,8,470,27,26,25,24,21,20,19,18,17,16,15,14,13,12,11,10,9,8,0.37,0
136,708,26,3,2,707,28,27,26,25,23,21,20,19,18,17,16,15,14,13,12,11,10,9,707,28,27,26,25,22,21,20,19,18,17,16,15,14,13,12,11,10,9,0.38,0
139,708,29,3,2,706,29,28,27,26,24,22,21,20,19,18,17,16,15,14,13,12,11,10,470,29,28,27,26,23,22,21,20,19,18,17,16,15,14,13,12,11,10,0.40,0
142,708,31,3,2,707,30,29,28,27,25,23,22,21,20,19,18,17,16,15,14,13,12,11,707,30,29,28,27,24,23,22,21,20,19,18,17,16,15,14,13,12,11,0.41,0
145,347,2,1,0,341,0,0,0,0,0,0,0,0,0,0,0,0,0,0,0,0,0,0,235,0,0,0,0,0,0,0,0,0,0,0,0,0,0,0,0,0,0,0.11,0
