pkt#,size,#dec,#op,#rung,#2gram,#3gram,#4gram,#5gram,#6gram,#7gram,#8gram,#9gram,#10gram,#11gram,#12gram,#13gram,#14gram,#15gram,#16gram,#17gram,#18gram,#19gram,#20gram,L2gram,L3gram,L4gram,L5gram,L6gram,L7gram,L8gram,L9gram,L10gram,L11gram,L12gram,L13gram,L14gram,L15gram,L16gram,L17gram,L18gram,L19gram,L20gram,entropy,class
73,2,0,0,0,0,0,0,0,0,0,0,0,0,0,0,0,0,0,0,0,0,0,0,0,0,0,0,0,0,0,0,0,0,0,0,0,0,0,0,0,0,0,1.00,0
75,78,0,10,1,66,51,40,34,31,29,1,0,0,0,0,0,0,0,0,0,0,0,0,31,30,29,28,26,25,1,0,0,0,0,0,0,0,0,0,0,0,0,2.19,0
77,80,6,10,0,63,35,21,12,7,3,0,0,0,0,0,0,0,0,0,0,0,0,0,12,8,7,5,4,3,0,0,0,0,0,0,0,0,0,0,0,0,0,3.11,0
79,80,6,7,0,64,33,21,15,6,2,1,0,0,0,0,0,0,0,0,0,0,0,0,9,7,6,5,3,2,1,0,0,0,0,0,0,0,0,0,0,0,0,3.24,0
81,80,0,1,0,72,47,35,26,12,2,0,0,0,0,0,0,0,0,0,0,0,0,0,13,7,6,5,3,2,0,0,0,0,0,0,0,0,0,0,0,0,0,2.59,0
83,74,16,14,0,60,37,24,13,1,0,0,0,0,0,0,0,0,0,0,0,0,0,0,9,6,5,3,1,0,0,0,0,0,0,0,0,0,0,0,0,0,0,2.56,0
85,64,0,1,0,53,43,36,34,33,30,0,0,0,0,0,0,0,0,0,0,0,0,0,37,36,35,34,33,30,0,0,0,0,0,0,0,0,0,0,0,0,0,2.17,0
87,80,0,0,0,79,78,77,76,75,74,0,0,0,0,0,0,0,0,0,0,0,0,0,79,78,77,76,75,74,0,0,0,0,0,0,0,0,0,0,0,0,0,0.00,1
89,78,0,0,0,77,75,73,72,71,70,0,0,0,0,0,0,0,0,0,0,0,0,0,77,75,73,72,71,70,0,0,0,0,0,0,0,0,0,0,0,0,0,0.20,1
91,76,0,1,0,75,73,72,71,70,69,0,0,0,0,0,0,0,0,0,0,0,0,0,75,73,72,71,70,69,0,0,0,0,0,0,0,0,0,0,0,0,0,0.10,1
93,74,0,2,0,73,72,71,69,68,67,0,0,0,0,0,0,0,0,0,0,0,0,0,73,72,71,69,68,67,0,0,0,0,0,0,0,0,0,0,0,0,0,0.10,1
95,72,0,1,0,71,69,68,67,65,64,0,0,0,0,0,0,0,0,0,0,0,0,0,71,69,68,67,65,64,0,0,0,0,0,0,0,0,0,0,0,0,0,0.21,1
97,70,0,0,0,69,68,67,66,65,62,0,0,0,0,0,0,0,0,0,0,0,0,0,69,68,67,66,65,62,0,0,0,0,0,0,0,0,0,0,0,0,0,0.22,1
99,68,0,1,0,67,66,65,64,62,61,0,0,0,0,0,0,0,0,0,0,0,0,0,67,66,65,64,62,61,0,0,0,0,0,0,0,0,0,0,0,0,0,0.11,1
101,66,0,1,0,65,64,63,61,60,59,0,0,0,0,0,0,0,0,0,0,0,0,0,65,64,63,61,60,59,0,0,0,0,0,0,0,0,0,0,0,0,0,0.11,1
103,64,0,1,0,63,61,60,59,57,56,0,0,0,0,0,0,0,0,0,0,0,0,0,63,61,60,59,57,56,0,0,0,0,0,0,0,0,0,0,0,0,0,0.23,1
105,62,0,0,0,61,60,59,58,57,54,0,0,0,0,0,0,0,0,0,0,0,0,0,61,60,59,58,57,54,0,0,0,0,0,0,0,0,0,0,0,0,0,0.24,1
107,60,0,1,0,59,58,57,56,54,53,0,0,0,0,0,0,0,0,0,0,0,0,0,59,58,57,56,54,53,0,0,0,0,0,0,0,0,0,0,0,0,0,0.12,1
109,58,0,2,0,57,55,54,53,52,51,0,0,0,0,0,0,0,0,0,0,0,0,0,57,55,54,53,52,51,0,0,0,0,0,0,0,0,0,0,0,0,0,0.13,1
111,56,0,1,0,55,54,53,52,50,49,0,0,0,0,0,0,0,0,0,0,0,0,0,55,54,53,52,50,49,0,0,0,0,0,0,0,0,0,0,0,0,0,0.13,1
113,54,0,1,0,53,51,50,49,47,46,0,0,0,0,0,0,0,0,0,0,0,0,0,53,51,50,49,47,46,0,0,0,0,0,0,0,0,0,0,0,0,0,0.27,1
115,52,0,0,0,51,50,49,48,47,44,0,0,0,0,0,0,0,0,0,0,0,0,0,51,50,49,48,47,44,0,0,0,0,0,0,0,0,0,0,0,0,0,0.27,1
117,50,0,0,0,49,48,47,46,45,44,0,0,0,0,0,0,0,0,0,0,0,0,0,49,48,47,46,45,44,0,0,0,0,0,0,0,0,0,0,0,0,0,0.00,1
119,48,0,0,0,47,46,45,44,43,42,0,0,0,0,0,0,0,0,0,0,0,0,0,47,46,45,44,43,42,0,0,0,0,0,0,0,0,0,0,0,0,0,0.00,1
121,46,0,1,0,45,43,41,40,39,38,0,0,0,0,0,0,0,0,0,0,0,0,0,45,43,41,40,39,38,0,0,0,0,0,0,0,0,0,0,0,0,0,0.30,1
123,44,0,0,0,43,41,40,39,38,37,0,0,0,0,0,0,0,0,0,0,0,0,0,43,41,40,39,38,37,0,0,0,0,0,0,0,0,0,0,0,0,0,0.16,1
125,42,0,2,0,41,40,39,37,36,35,0,0,0,0,0,0,0,0,0,0,0,0,0,41,40,39,37,36,35,0,0,0,0,0,0,0,0,0,0,0,0,0,0.16,1
127,40,0,1,0,39,37,36,35,33,32,0,0,0,0,0,0,0,0,0,0,0,0,0,39,37,36,35,33,32,0,0,0,0,0,0,0,0,0,0,0,0,0,0.34,1
129,38,0,0,0,37,36,35,34,33,30,0,0,0,0,0,0,0,0,0,0,0,0,0,37,36,35,34,33,30,0,0,0,0,0,0,0,0,0,0,0,0,0,0.35,1
132,36,0,1,0,35,34,33,32,30,29,0,0,0,0,0,0,0,0,0,0,0,0,0,35,34,33,32,30,29,0,0,0,0,0,0,0,0,0,0,0,0,0,0.18,1
135,34,0,1,0,33,31,30,29,28,27,0,0,0,0,0,0,0,0,0,0,0,0,0,33,31,30,29,28,27,0,0,0,0,0,0,0,0,0,0,0,0,0,0.19,1
137,32,0,0,0,31,30,29,27,26,25,0,0,0,0,0,0,0,0,0,0,0,0,0,31,30,29,27,26,25,0,0,0,0,0,0,0,0,0,0,0,0,0,0.20,1
139,30,0,1,0,29,27,26,25,23,22,0,0,0,0,0,0,0,0,0,0,0,0,0,29,27,26,25,23,22,0,0,0,0,0,0,0,0,0,0,0,0,0,0.42,1
141,28,0,0,0,27,26,25,23,22,20,0,0,0,0,0,0,0,0,0,0,0,0,0,27,26,25,23,22,20,0,0,0,0,0,0,0,0,0,0,0,0,0,0.44,1
143,26,0,0,0,25,24,23,22,21,20,0,0,0,0,0,0,0,0,0,0,0,0,0,25,24,23,22,21,20,0,0,0,0,0,0,0,0,0,0,0,0,0,0.00,1
145,24,0,1,0,23,22,21,20,19,18,1,0,0,0,0,0,0,0,0,0,0,0,0,23,22,21,20,19,18,1,0,0,0,0,0,0,0,0,0,0,0,0,0.50,1
147,22,0,0,0,21,20,19,18,17,16,0,0,0,0,0,0,0,0,0,0,0,0,0,21,20,19,18,17,16,0,0,0,0,0,0,0,0,0,0,0,0,0,0.00,1
149,20,0,1,0,19,18,17,16,14,13,0,0,0,0,0,0,0,0,0,0,0,0,0,19,18,17,16,14,13,0,0,0,0,0,0,0,0,0,0,0,0,0,0.29,1
151,18,0,2,0,17,16,15,13,12,11,0,0,0,0,0,0,0,0,0,0,0,0,0,17,16,15,13,12,11,0,0,0,0,0,0,0,0,0,0,0,0,0,0.31,1
153,16,0,0,0,15,14,13,12,11,10,0,0,0,0,0,0,0,0,0,0,0,0,0,15,14,13,12,11,10,0,0,0,0,0,0,0,0,0,0,0,0,0,0.00,1
155,14,0,0,0,13,12,11,10,9,7,0,0,0,0,0,0,0,0,0,0,0,0,0,13,12,11,10,9,6,0,0,0,0,0,0,0,0,0,0,0,0,0,0.73,1
157,12,0,1,0,11,10,9,8,6,5,0,0,0,0,0,0,0,0,0,0,0,0,0,11,10,9,8,6,5,0,0,0,0,0,0,0,0,0,0,0,0,0,0.41,1
159,10,0,0,0,9,8,7,6,5,4,0,0,0,0,0,0,0,0,0,0,0,0,0,9,8,7,6,5,4,0,0,0,0,0,0,0,0,0,0,0,0,0,0.00,1
161,8,0,1,0,6,4,3,2,1,0,0,0,0,0,0,0,0,0,0,0,0,0,0,5,4,3,2,1,0,0,0,0,0,0,0,0,0,0,0,0,0,0,1.06,1
163,6,0,1,0,5,4,3,1,0,0,0,0,0,0,0,0,0,0,0,0,0,0,0,5,4,3,1,0,0,0,0,0,0,0,0,0,0,0,0,0,0,0,0.65,1
166,4,0,2,0,3,2,1,0,0,0,0,0,0,0,0,0,0,0,0,0,0,0,0,3,2,1,0,0,0,0,0,0,0,0,0,0,0,0,0,0,0,0,0.81,1
168,2,0,0,0,1,0,0,0,0,0,0,0,0,0,0,0,0,0,0,0,0,0,0,1,0,0,0,0,0,0,0,0,0,0,0,0,0,0,0,0,0,0,1.00,1
170,28,0,0,0,27,26,25,24,23,20,0,0,0,0,0,0,0,0,0,0,0,0,0,27,26,25,24,23,20,0,0,0,0,0,0,0,0,0,0,0,0,0,0.44,1
173,26,0,1,0,25,24,23,22,20,19,0,0,0,0,0,0,0,0,0,0,0,0,0,25,24,23,22,20,19,0,0,0,0,0,0,0,0,0,0,0,0,0,0.24,1
175,24,0,1,0,23,22,21,19,18,17,0,0,0,0,0,0,0,0,0,0,0,0,0,23,22,21,19,18,17,0,0,0,0,0,0,0,0,0,0,0,0,0,0.25,1
177,22,0,0,0,21,20,19,18,17,16,0,0,0,0,0,0,0,0,0,0,0,0,0,21,20,19,18,17,16,0,0,0,0,0,0,0,0,0,0,0,0,0,0.00,1
179,20,0,0,0,19,18,17,16,15,13,0,0,0,0,0,0,0,0,0,0,0,0,0,19,18,17,16,15,12,0,0,0,0,0,0,0,0,0,0,0,0,0,0.57,1
181,18,0,1,0,17,16,15,14,12,11,0,0,0,0,0,0,0,0,0,0,0,0,0,17,16,15,14,12,11,0,0,0,0,0,0,0,0,0,0,0,0,0,0.31,1
183,16,0,2,0,15,14,13,11,10,9,0,0,0,0,0,0,0,0,0,0,0,0,0,15,14,13,11,10,9,0,0,0,0,0,0,0,0,0,0,0,0,0,0.34,1
185,14,0,0,0,13,12,11,10,9,8,0,0,0,0,0,0,0,0,0,0,0,0,0,13,12,11,10,9,8,0,0,0,0,0,0,0,0,0,0,0,0,0,0.00,1
187,12,0,0,0,11,10,9,8,7,5,0,0,0,0,0,0,0,0,0,0,0,0,0,11,10,9,8,7,4,0,0,0,0,0,0,0,0,0,0,0,0,0,0.82,1
189,10,0,1,0,9,8,7,6,4,3,0,0,0,0,0,0,0,0,0,0,0,0,0,9,8,7,6,4,3,0,0,0,0,0,0,0,0,0,0,0,0,0,0.47,1
191,8,0,0,0,7,6,5,4,3,2,0,0,0,0,0,0,0,0,0,0,0,0,0,7,6,5,4,3,2,0,0,0,0,0,0,0,0,0,0,0,0,0,0.00,1
193,6,0,1,0,5,4,3,1,0,0,0,0,0,0,0,0,0,0,0,0,0,0,0,5,4,3,1,0,0,0,0,0,0,0,0,0,0,0,0,0,0,0,0.65,1
195,4,0,0,0,3,2,1,0,0,0,0,0,0,0,0,0,0,0,0,0,0,0,0,3,2,1,0,0,0,0,0,0,0,0,0,0,0,0,0,0,0,0,0.81,1
197,2,0,1,0,1,0,0,0,0,0,0,0,0,0,0,0,0,0,0,0,0,0,0,1,0,0,0,0,0,0,0,0,0,0,0,0,0,0,0,0,0,0,1.00,1
199,80,12,11,0,73,56,44,35,28,23,0,0,0,0,0,0,0,0,0,0,0,0,0,23,22,21,20,19,18,0,0,0,0,0,0,0,0,0,0,0,0,0,1.87,0
201,10,0,0,0,9,8,7,6,5,4,0,0,0,0,0,0,0,0,0,0,0,0,0,9,8,7,6,5,4,0,0,0,0,0,0,0,0,0,0,0,0,0,0.00,0
203,80,0,6,0,74,62,53,45,41,38,0,0,0,0,0,0,0,0,0,0,0,0,0,44,43,41,39,38,37,0,0,0,0,0,0,0,0,0,0,0,0,0,1.59,0
205,80,0,3,0,77,70,67,63,56,53,0,0,0,0,0,0,0,0,0,0,0,0,0,54,46,45,44,41,40,0,0,0,0,0,0,0,0,0,0,0,0,0,0.77,0
207,80,0,4,0,73,62,57,52,44,40,0,0,0,0,0,0,0,0,0,0,0,0,0,35,33,32,31,29,28,0,0,0,0,0,0,0,0,0,0,0,0,0,1.02,0
209,26,0,1,0,25,23,21,19,17,16,0,0,0,0,0,0,0,0,0,0,0,0,0,25,21,20,19,17,16,0,0,0,0,0,0,0,0,0,0,0,0,0,0.47,0
211,80,12,11,0,73,56,44,35,28,23,0,0,0,0,0,0,0,0,0,0,0,0,0,23,22,21,20,19,18,0,0,0,0,0,0,0,0,0,0,0,0,0,1.87,0
213,10,0,0,0,9,8,7,6,5,4,0,0,0,0,0,0,0,0,0,0,0,0,0,9,8,7,6,5,4,0,0,0,0,0,0,0,0,0,0,0,0,0,0.00,0
215,80,6,12,0,74,57,45,38,30,28,0,0,0,0,0,0,0,0,0,0,0,0,0,34,33,32,31,29,28,0,0,0,0,0,0,0,0,0,0,0,0,0,1.81,0
217,22,0,0,0,20,19,18,17,15,14,0,0,0,0,0,0,0,0,0,0,0,0,0,20,19,18,17,15,14,0,0,0,0,0,0,0,0,0,0,0,0,0,0.53,0
219,12,2,1,0,11,9,6,1,0,0,0,0,0,0,0,0,0,0,0,0,0,0,0,11,5,3,1,0,0,0,0,0,0,0,0,0,0,0,0,0,0,0,1.78,0
221,28,6,2,0,27,26,22,14,3,0,0,0,0,0,0,0,0,0,0,0,0,0,0,27,26,14,6,1,0,0,0,0,0,0,0,0,0,0,0,0,0,0,1.30,0
223,34,0,1,0,32,30,28,26,23,22,0,0,0,0,0,0,0,0,0,0,0,0,0,32,29,28,26,23,22,0,0,0,0,0,0,0,0,0,0,0,0,0,0.70,0
225,2,0,0,0,1,0,0,0,0,0,0,0,0,0,0,0,0,0,0,0,0,0,0,1,0,0,0,0,0,0,0,0,0,0,0,0,0,0,0,0,0,0,0.00,0
227,12,0,0,0,11,10,9,8,7,6,0,0,0,0,0,0,0,0,0,0,0,0,0,11,10,9,8,7,6,0,0,0,0,0,0,0,0,0,0,0,0,0,0.00,0
229,16,0,0,0,15,14,13,12,11,10,0,0,0,0,0,0,0,0,0,0,0,0,0,15,14,13,12,11,10,0,0,0,0,0,0,0,0,0,0,0,0,0,0.00,0
231,80,0,1,1,78,72,69,65,59,56,0,0,0,0,0,0,0,0,0,0,0,0,0,76,52,51,50,49,48,0,0,0,0,0,0,0,0,0,0,0,0,0,0.48,0
233,52,0,3,0,46,42,38,34,29,28,0,0,0,0,0,0,0,0,0,0,0,0,0,40,34,33,31,29,28,0,0,0,0,0,0,0,0,0,0,0,0,0,1.04,0
235,2,0,0,0,1,0,0,0,0,0,0,0,0,0,0,0,0,0,0,0,0,0,0,1,0,0,0,0,0,0,0,0,0,0,0,0,0,0,0,0,0,0,0.00,0
237,6,0,1,0,5,3,1,0,0,0,0,0,0,0,0,0,0,0,0,0,0,0,0,5,2,1,0,0,0,0,0,0,0,0,0,0,0,0,0,0,0,0,0.65,0
239,6,0,0,0,5,4,3,2,1,0,0,0,0,0,0,0,0,0,0,0,0,0,0,5,4,3,2,1,0,0,0,0,0,0,0,0,0,0,0,0,0,0,0.00,0
241,6,0,0,0,5,4,3,2,1,0,0,0,0,0,0,0,0,0,0,0,0,0,0,5,4,3,2,1,0,0,0,0,0,0,0,0,0,0,0,0,0,0,0.00,0
243,2,0,0,0,1,0,0,0,0,0,0,0,0,0,0,0,0,0,0,0,0,0,0,1,0,0,0,0,0,0,0,0,0,0,0,0,0,0,0,0,0,0,0.00,0
245,4,0,0,0,3,2,1,0,0,0,0,0,0,0,0,0,0,0,0,0,0,0,0,3,2,1,0,0,0,0,0,0,0,0,0,0,0,0,0,0,0,0,0.00,0
247,24,0,0,0,23,12,6,0,0,0,0,0,0,0,0,0,0,0,0,0,0,0,0,23,2,1,0,0,0,0,0,0,0,0,0,0,0,0,0,0,0,0,1.00,0
249,32,0,0,0,31,16,8,0,0,0,0,0,0,0,0,0,0,0,0,0,0,0,0,31,2,1,0,0,0,0,0,0,0,0,0,0,0,0,0,0,0,0,1.00,0
251,80,0,0,0,69,56,47,31,19,14,0,0,0,0,0,0,0,0,0,0,0,0,0,26,20,11,9,7,6,0,0,0,0,0,0,0,0,0,0,0,0,0,1.37,0
253,80,0,0,0,69,56,47,31,19,14,0,0,0,0,0,0,0,0,0,0,0,0,0,26,20,11,9,7,6,0,0,0,0,0,0,0,0,0,0,0,0,0,1.37,0
255,56,0,0,0,45,34,27,16,10,7,0,0,0,0,0,0,0,0,0,0,0,0,0,26,20,11,9,7,6,0,0,0,0,0,0,0,0,0,0,0,0,0,1.49,0
257,80,0,0,0,79,72,69,64,59,56,0,0,0,0,0,0,0,0,0,0,0,0,0,79,28,27,25,23,22,0,0,0,0,0,0,0,0,0,0,0,0,0,0.38,0
259,10,0,0,0,9,8,7,6,5,4,0,0,0,0,0,0,0,0,0,0,0,0,0,9,8,7,6,5,4,0,0,0,0,0,0,0,0,0,0,0,0,0,0.00,0
261,60,0,0,0,59,52,49,44,39,36,0,0,0,0,0,0,0,0,0,0,0,0,0,59,18,17,15,13,12,0,0,0,0,0,0,0,0,0,0,0,0,0,0.47,0
263,8,0,0,0,7,6,5,4,3,2,0,0,0,0,0,0,0,0,0,0,0,0,0,7,6,5,4,3,2,0,0,0,0,0,0,0,0,0,0,0,0,0,0.00,0
267,64,0,5,0,56,48,40,30,8,1,0,0,0,0,0,0,0,0,0,0,0,0,0,13,12,5,4,2,1,0,0,0,0,0,0,0,0,0,0,0,0,0,1.33,0
269,32,0,2,0,29,26,23,19,15,12,0,0,0,0,0,0,0,0,0,0,0,0,0,16,15,14,12,10,9,0,0,0,0,0,0,0,0,0,0,0,0,0,0.73,0
317,80,12,11,0,73,56,44,35,28,23,0,0,0,0,0,0,0,0,0,0,0,0,0,23,22,21,20,19,18,0,0,0,0,0,0,0,0,0,0,0,0,0,1.87,0
319,10,0,0,0,9,8,7,6,5,4,0,0,0,0,0,0,0,0,0,0,0,0,0,9,8,7,6,5,4,0,0,0,0,0,0,0,0,0,0,0,0,0,0.00,0
321,80,12,11,0,73,56,44,35,28,23,0,0,0,0,0,0,0,0,0,0,0,0,0,23,22,21,20,19,18,0,0,0,0,0,0,0,0,0,0,0,0,0,1.87,0
323,10,0,0,0,9,8,7,6,5,4,0,0,0,0,0,0,0,0,0,0,0,0,0,9,8,7,6,5,4,0,0,0,0,0,0,0,0,0,0,0,0,0,0.00,0
325,80,6,12,0,74,57,45,38,30,28,0,0,0,0,0,0,0,0,0,0,0,0,0,34,33,32,31,29,28,0,0,0,0,0,0,0,0,0,0,0,0,0,1.81,0
327,22,0,0,0,20,19,18,17,15,14,0,0,0,0,0,0,0,0,0,0,0,0,0,20,19,18,17,15,14,0,0,0,0,0,0,0,0,0,0,0,0,0,0.53,0
329,80,0,6,0,74,62,53,45,41,38,0,0,0,0,0,0,0,0,0,0,0,0,0,44,43,41,39,38,37,0,0,0,0,0,0,0,0,0,0,0,0,0,1.59,0
331,80,0,3,0,77,70,67,63,56,53,0,0,0,0,0,0,0,0,0,0,0,0,0,54,46,45,44,41,40,0,0,0,0,0,0,0,0,0,0,0,0,0,0.77,0
333,80,0,4,0,73,62,57,52,44,40,0,0,0,0,0,0,0,0,0,0,0,0,0,35,33,32,31,29,28,0,0,0,0,0,0,0,0,0,0,0,0,0,1.02,0
335,26,0,1,0,25,23,21,19,17,16,0,0,0,0,0,0,0,0,0,0,0,0,0,25,21,20,19,17,16,0,0,0,0,0,0,0,0,0,0,0,0,0,0.47,0
