pkt#,size,#dec,#op,#rung,#2gram,#3gram,#4gram,#5gram,#6gram,#7gram,#8gram,#9gram,#10gram,#11gram,#12gram,#13gram,#14gram,#15gram,#16gram,#17gram,#18gram,#19gram,#20gram,L2gram,L3gram,L4gram,L5gram,L6gram,L7gram,L8gram,L9gram,L10gram,L11gram,L12gram,L13gram,L14gram,L15gram,L16gram,L17gram,L18gram,L19gram,L20gram,entropy,class
60,2,0,0,0,0,0,0,0,0,0,0,0,0,0,0,0,0,0,0,0,0,0,0,0,0,0,0,0,0,0,0,0,0,0,0,0,0,0,0,0,0,0,1.00,0
62,78,0,10,1,66,51,40,34,30,28,0,0,0,0,0,0,0,0,0,0,0,0,0,31,30,29,28,25,24,0,0,0,0,0,0,0,0,0,0,0,0,0,2.15,0
64,80,6,15,0,62,31,18,11,6,3,0,0,0,0,0,0,0,0,0,0,0,0,0,11,8,7,5,4,3,0,0,0,0,0,0,0,0,0,0,0,0,0,3.21,0
66,80,6,8,0,61,34,21,13,4,0,0,0,0,0,0,0,0,0,0,0,0,0,0,9,7,6,3,1,0,0,0,0,0,0,0,0,0,0,0,0,0,0,3.40,0
68,80,6,1,0,71,47,35,25,11,2,1,0,0,0,0,0,0,0,0,0,0,0,0,9,7,6,5,3,2,1,0,0,0,0,0,0,0,0,0,0,0,0,2.62,0
70,80,16,13,0,66,42,28,17,3,0,0,0,0,0,0,0,0,0,0,0,0,0,0,15,6,5,4,2,0,0,0,0,0,0,0,0,0,0,0,0,0,0,2.72,0
72,4,0,0,0,3,2,1,0,0,0,0,0,0,0,0,0,0,0,0,0,0,0,0,3,2,1,0,0,0,0,0,0,0,0,0,0,0,0,0,0,0,0,0.00,0
74,64,0,2,0,53,43,36,34,33,31,0,0,0,0,0,0,0,0,0,0,0,0,0,37,36,35,34,33,30,0,0,0,0,0,0,0,0,0,0,0,0,0,2.12,0
76,56,0,0,0,55,54,53,52,51,50,0,0,0,0,0,0,0,0,0,0,0,0,0,55,54,53,52,51,50,0,0,0,0,0,0,0,0,0,0,0,0,0,0.00,1
78,54,0,1,0,53,50,49,48,47,46,0,0,0,0,0,0,0,0,0,0,0,0,0,53,50,49,48,47,46,0,0,0,0,0,0,0,0,0,0,0,0,0,0.27,1
80,52,0,0,0,51,50,49,47,46,45,0,0,0,0,0,0,0,0,0,0,0,0,0,51,50,49,47,46,45,0,0,0,0,0,0,0,0,0,0,0,0,0,0.14,1
82,50,0,1,0,49,48,47,45,44,43,0,0,0,0,0,0,0,0,0,0,0,0,0,49,48,47,45,44,43,0,0,0,0,0,0,0,0,0,0,0,0,0,0.14,1
84,48,0,1,0,47,45,44,43,41,40,0,0,0,0,0,0,0,0,0,0,0,0,0,47,45,44,43,41,40,0,0,0,0,0,0,0,0,0,0,0,0,0,0.29,1
86,46,0,0,0,45,44,43,42,41,39,0,0,0,0,0,0,0,0,0,0,0,0,0,45,44,43,42,41,38,0,0,0,0,0,0,0,0,0,0,0,0,0,0.30,1
88,44,0,1,0,43,42,41,40,38,37,0,0,0,0,0,0,0,0,0,0,0,0,0,43,42,41,40,38,37,0,0,0,0,0,0,0,0,0,0,0,0,0,0.16,1
90,42,0,1,0,41,39,38,37,35,34,0,0,0,0,0,0,0,0,0,0,0,0,0,41,39,38,37,35,34,0,0,0,0,0,0,0,0,0,0,0,0,0,0.32,1
92,40,0,1,0,39,38,37,36,34,33,0,0,0,0,0,0,0,0,0,0,0,0,0,39,38,37,36,34,33,0,0,0,0,0,0,0,0,0,0,0,0,0,0.17,1
94,38,0,1,0,37,35,34,33,31,30,0,0,0,0,0,0,0,0,0,0,0,0,0,37,35,34,33,31,30,0,0,0,0,0,0,0,0,0,0,0,0,0,0.35,1
96,36,0,0,0,35,34,33,32,31,29,0,0,0,0,0,0,0,0,0,0,0,0,0,35,34,33,32,31,28,0,0,0,0,0,0,0,0,0,0,0,0,0,0.37,1
98,34,0,0,0,33,32,31,30,29,28,0,0,0,0,0,0,0,0,0,0,0,0,0,33,32,31,30,29,28,0,0,0,0,0,0,0,0,0,0,0,0,0,0.00,1
100,32,0,0,0,31,30,29,28,27,26,0,0,0,0,0,0,0,0,0,0,0,0,0,31,30,29,28,27,26,0,0,0,0,0,0,0,0,0,0,0,0,0,0.00,1
102,30,0,1,0,28,26,25,24,23,22,0,0,0,0,0,0,0,0,0,0,0,0,0,27,26,25,24,23,22,0,0,0,0,0,0,0,0,0,0,0,0,0,0.42,1
104,28,0,0,0,27,26,25,23,22,21,0,0,0,0,0,0,0,0,0,0,0,0,0,27,26,25,23,22,21,0,0,0,0,0,0,0,0,0,0,0,0,0,0.22,1
106,26,0,2,0,25,24,23,21,20,19,0,0,0,0,0,0,0,0,0,0,0,0,0,25,24,23,21,20,19,0,0,0,0,0,0,0,0,0,0,0,0,0,0.24,1
108,24,0,1,0,23,21,20,19,17,16,0,0,0,0,0,0,0,0,0,0,0,0,0,23,21,20,19,17,16,0,0,0,0,0,0,0,0,0,0,0,0,0,0.50,1
111,22,0,0,0,21,20,19,18,17,15,0,0,0,0,0,0,0,0,0,0,0,0,0,21,20,19,18,17,14,0,0,0,0,0,0,0,0,0,0,0,0,0,0.53,1
114,20,0,1,0,19,18,17,16,14,13,0,0,0,0,0,0,0,0,0,0,0,0,0,19,18,17,16,14,13,0,0,0,0,0,0,0,0,0,0,0,0,0,0.29,1
116,18,0,2,0,17,16,15,14,13,11,0,0,0,0,0,0,0,0,0,0,0,0,0,17,16,15,14,13,11,0,0,0,0,0,0,0,0,0,0,0,0,0,0.31,1
118,16,0,1,0,15,14,13,12,10,9,0,0,0,0,0,0,0,0,0,0,0,0,0,15,14,13,12,10,9,0,0,0,0,0,0,0,0,0,0,0,0,0,0.34,1
120,14,0,1,0,13,12,11,10,9,8,1,0,0,0,0,0,0,0,0,0,0,0,0,13,12,11,10,9,8,1,0,0,0,0,0,0,0,0,0,0,0,0,0.73,1
122,12,0,0,0,11,10,9,8,7,6,0,0,0,0,0,0,0,0,0,0,0,0,0,11,10,9,8,7,6,0,0,0,0,0,0,0,0,0,0,0,0,0,0.00,1
124,10,0,1,0,9,8,7,6,4,3,0,0,0,0,0,0,0,0,0,0,0,0,0,9,8,7,6,4,3,0,0,0,0,0,0,0,0,0,0,0,0,0,0.47,1
126,8,0,0,0,7,6,5,4,3,2,0,0,0,0,0,0,0,0,0,0,0,0,0,7,6,5,4,3,2,0,0,0,0,0,0,0,0,0,0,0,0,0,0.00,1
128,6,0,1,0,5,4,3,1,0,0,0,0,0,0,0,0,0,0,0,0,0,0,0,5,4,3,1,0,0,0,0,0,0,0,0,0,0,0,0,0,0,0,0.65,1
130,4,0,0,0,3,2,1,0,0,0,0,0,0,0,0,0,0,0,0,0,0,0,0,3,2,1,0,0,0,0,0,0,0,0,0,0,0,0,0,0,0,0,0.81,1
132,2,0,1,0,1,0,0,0,0,0,0,0,0,0,0,0,0,0,0,0,0,0,0,1,0,0,0,0,0,0,0,0,0,0,0,0,0,0,0,0,0,0,1.00,1
134,8,0,0,0,7,6,5,4,3,2,0,0,0,0,0,0,0,0,0,0,0,0,0,7,6,5,4,3,2,0,0,0,0,0,0,0,0,0,0,0,0,0,0.00,0
136,6,0,1,0,5,4,3,1,0,0,0,0,0,0,0,0,0,0,0,0,0,0,0,5,4,3,1,0,0,0,0,0,0,0,0,0,0,0,0,0,0,0,0.65,1
138,4,0,0,0,3,2,1,0,0,0,0,0,0,0,0,0,0,0,0,0,0,0,0,3,2,1,0,0,0,0,0,0,0,0,0,0,0,0,0,0,0,0,0.81,1
140,2,0,1,0,1,0,0,0,0,0,0,0,0,0,0,0,0,0,0,0,0,0,0,1,0,0,0,0,0,0,0,0,0,0,0,0,0,0,0,0,0,0,1.00,1
142,80,12,11,0,73,56,44,35,28,23,0,0,0,0,0,0,0,0,0,0,0,0,0,23,22,21,20,19,18,0,0,0,0,0,0,0,0,0,0,0,0,0,1.87,0
144,10,0,0,0,9,8,7,6,5,4,0,0,0,0,0,0,0,0,0,0,0,0,0,9,8,7,6,5,4,0,0,0,0,0,0,0,0,0,0,0,0,0,0.00,0
146,80,0,6,0,74,62,53,45,41,38,0,0,0,0,0,0,0,0,0,0,0,0,0,44,43,41,39,38,37,0,0,0,0,0,0,0,0,0,0,0,0,0,1.59,0
148,80,0,3,0,77,70,67,63,56,53,0,0,0,0,0,0,0,0,0,0,0,0,0,54,46,45,44,41,40,0,0,0,0,0,0,0,0,0,0,0,0,0,0.77,0
150,80,0,4,0,73,62,57,52,44,40,0,0,0,0,0,0,0,0,0,0,0,0,0,35,33,32,31,29,28,0,0,0,0,0,0,0,0,0,0,0,0,0,1.02,0
152,26,0,1,0,25,23,21,19,17,16,0,0,0,0,0,0,0,0,0,0,0,0,0,25,21,20,19,17,16,0,0,0,0,0,0,0,0,0,0,0,0,0,0.47,0
154,80,12,11,0,73,56,44,35,28,23,0,0,0,0,0,0,0,0,0,0,0,0,0,23,22,21,20,19,18,0,0,0,0,0,0,0,0,0,0,0,0,0,1.87,0
156,10,0,0,0,9,8,7,6,5,4,0,0,0,0,0,0,0,0,0,0,0,0,0,9,8,7,6,5,4,0,0,0,0,0,0,0,0,0,0,0,0,0,0.00,0
158,80,6,12,0,74,57,45,38,30,28,0,0,0,0,0,0,0,0,0,0,0,0,0,34,33,32,31,29,28,0,0,0,0,0,0,0,0,0,0,0,0,0,1.81,0
160,22,0,0,0,20,19,18,17,15,14,0,0,0,0,0,0,0,0,0,0,0,0,0,20,19,18,17,15,14,0,0,0,0,0,0,0,0,0,0,0,0,0,0.53,0
162,12,2,1,0,11,9,6,1,0,0,0,0,0,0,0,0,0,0,0,0,0,0,0,11,5,3,1,0,0,0,0,0,0,0,0,0,0,0,0,0,0,0,1.78,0
164,28,6,2,0,27,26,22,14,3,0,0,0,0,0,0,0,0,0,0,0,0,0,0,27,26,14,6,1,0,0,0,0,0,0,0,0,0,0,0,0,0,0,1.30,0
166,34,0,1,0,32,30,28,26,23,22,0,0,0,0,0,0,0,0,0,0,0,0,0,32,29,28,26,23,22,0,0,0,0,0,0,0,0,0,0,0,0,0,0.70,0
168,2,0,0,0,1,0,0,0,0,0,0,0,0,0,0,0,0,0,0,0,0,0,0,1,0,0,0,0,0,0,0,0,0,0,0,0,0,0,0,0,0,0,0.00,0
170,12,0,0,0,11,10,9,8,7,6,0,0,0,0,0,0,0,0,0,0,0,0,0,11,10,9,8,7,6,0,0,0,0,0,0,0,0,0,0,0,0,0,0.00,0
172,16,0,0,0,15,14,13,12,11,10,0,0,0,0,0,0,0,0,0,0,0,0,0,15,14,13,12,11,10,0,0,0,0,0,0,0,0,0,0,0,0,0,0.00,0
174,80,0,1,1,78,72,69,65,59,56,0,0,0,0,0,0,0,0,0,0,0,0,0,76,52,51,50,49,48,0,0,0,0,0,0,0,0,0,0,0,0,0,0.48,0
176,52,0,3,0,46,42,38,34,29,28,0,0,0,0,0,0,0,0,0,0,0,0,0,40,34,33,31,29,28,0,0,0,0,0,0,0,0,0,0,0,0,0,1.04,0
178,2,0,0,0,1,0,0,0,0,0,0,0,0,0,0,0,0,0,0,0,0,0,0,1,0,0,0,0,0,0,0,0,0,0,0,0,0,0,0,0,0,0,0.00,0
180,6,0,2,0,5,1,0,0,0,0,0,0,0,0,0,0,0,0,0,0,0,0,0,5,1,0,0,0,0,0,0,0,0,0,0,0,0,0,0,0,0,0,1.46,0
182,6,0,0,0,5,4,3,2,1,0,0,0,0,0,0,0,0,0,0,0,0,0,0,5,4,3,2,1,0,0,0,0,0,0,0,0,0,0,0,0,0,0,0.00,0
184,6,0,0,0,5,4,3,2,1,0,0,0,0,0,0,0,0,0,0,0,0,0,0,5,4,3,2,1,0,0,0,0,0,0,0,0,0,0,0,0,0,0,0.00,0
186,2,0,0,0,1,0,0,0,0,0,0,0,0,0,0,0,0,0,0,0,0,0,0,1,0,0,0,0,0,0,0,0,0,0,0,0,0,0,0,0,0,0,0.00,0
188,4,0,0,0,3,2,1,0,0,0,0,0,0,0,0,0,0,0,0,0,0,0,0,3,2,1,0,0,0,0,0,0,0,0,0,0,0,0,0,0,0,0,0.00,0
190,24,0,0,0,23,12,6,0,0,0,0,0,0,0,0,0,0,0,0,0,0,0,0,23,2,1,0,0,0,0,0,0,0,0,0,0,0,0,0,0,0,0,1.00,0
192,32,0,0,0,31,16,8,0,0,0,0,0,0,0,0,0,0,0,0,0,0,0,0,31,2,1,0,0,0,0,0,0,0,0,0,0,0,0,0,0,0,0,1.00,0
194,80,0,0,0,69,56,47,31,19,14,0,0,0,0,0,0,0,0,0,0,0,0,0,26,20,11,9,7,6,0,0,0,0,0,0,0,0,0,0,0,0,0,1.37,0
196,80,0,0,0,69,56,47,31,19,14,0,0,0,0,0,0,0,0,0,0,0,0,0,26,20,11,9,7,6,0,0,0,0,0,0,0,0,0,0,0,0,0,1.37,0
198,56,0,0,0,45,34,27,16,10,7,0,0,0,0,0,0,0,0,0,0,0,0,0,26,20,11,9,7,6,0,0,0,0,0,0,0,0,0,0,0,0,0,1.49,0
200,80,0,0,0,79,72,69,64,59,56,0,0,0,0,0,0,0,0,0,0,0,0,0,79,28,27,25,23,22,0,0,0,0,0,0,0,0,0,0,0,0,0,0.38,0
202,10,0,0,0,9,8,7,6,5,4,0,0,0,0,0,0,0,0,0,0,0,0,0,9,8,7,6,5,4,0,0,0,0,0,0,0,0,0,0,0,0,0,0.00,0
204,60,0,0,0,59,52,49,44,39,36,0,0,0,0,0,0,0,0,0,0,0,0,0,59,18,17,15,13,12,0,0,0,0,0,0,0,0,0,0,0,0,0,0.47,0
206,8,0,0,0,7,6,5,4,3,2,0,0,0,0,0,0,0,0,0,0,0,0,0,7,6,5,4,3,2,0,0,0,0,0,0,0,0,0,0,0,0,0,0.00,0
208,64,0,5,0,56,48,40,30,8,1,0,0,0,0,0,0,0,0,0,0,0,0,0,13,12,5,4,2,1,0,0,0,0,0,0,0,0,0,0,0,0,0,1.33,0
210,32,0,2,0,29,26,23,19,15,12,0,0,0,0,0,0,0,0,0,0,0,0,0,16,15,14,12,10,9,0,0,0,0,0,0,0,0,0,0,0,0,0,0.73,0
234,80,12,11,0,73,56,44,35,28,23,0,0,0,0,0,0,0,0,0,0,0,0,0,23,22,21,20,19,18,0,0,0,0,0,0,0,0,0,0,0,0,0,1.87,0
238,10,0,0,0,9,8,7,6,5,4,0,0,0,0,0,0,0,0,0,0,0,0,0,9,8,7,6,5,4,0,0,0,0,0,0,0,0,0,0,0,0,0,0.00,0
240,80,12,11,0,73,56,44,35,28,23,0,0,0,0,0,0,0,0,0,0,0,0,0,23,22,21,20,19,18,0,0,0,0,0,0,0,0,0,0,0,0,0,1.87,0
242,10,0,0,0,9,8,7,6,5,4,0,0,0,0,0,0,0,0,0,0,0,0,0,9,8,7,6,5,4,0,0,0,0,0,0,0,0,0,0,0,0,0,0.00,0
244,80,6,12,0,74,57,45,38,30,28,0,0,0,0,0,0,0,0,0,0,0,0,0,34,33,32,31,29,28,0,0,0,0,0,0,0,0,0,0,0,0,0,1.81,0
246,22,0,0,0,20,19,18,17,15,14,0,0,0,0,0,0,0,0,0,0,0,0,0,20,19,18,17,15,14,0,0,0,0,0,0,0,0,0,0,0,0,0,0.53,0
248,80,0,6,0,74,62,53,45,41,38,0,0,0,0,0,0,0,0,0,0,0,0,0,44,43,41,39,38,37,0,0,0,0,0,0,0,0,0,0,0,0,0,1.59,0
250,80,0,3,0,77,70,67,63,56,53,0,0,0,0,0,0,0,0,0,0,0,0,0,54,46,45,44,41,40,0,0,0,0,0,0,0,0,0,0,0,0,0,0.77,0
252,80,0,4,0,73,62,57,52,44,40,0,0,0,0,0,0,0,0,0,0,0,0,0,35,33,32,31,29,28,0,0,0,0,0,0,0,0,0,0,0,0,0,1.02,0
254,26,0,1,0,25,23,21,19,17,16,0,0,0,0,0,0,0,0,0,0,0,0,0,25,21,20,19,17,16,0,0,0,0,0,0,0,0,0,0,0,0,0,0.47,0
