pkt#,size,#dec,#op,#rung,#2gram,#3gram,#4gram,#5gram,#6gram,#7gram,#8gram,#9gram,#10gram,#11gram,#12gram,#13gram,#14gram,#15gram,#16gram,#17gram,#18gram,#19gram,#20gram,L2gram,L3gram,L4gram,L5gram,L6gram,L7gram,L8gram,L9gram,L10gram,L11gram,L12gram,L13gram,L14gram,L15gram,L16gram,L17gram,L18gram,L19gram,L20gram,entropy,class
30,2,0,0,0,0,0,0,0,0,0,0,0,0,0,0,0,0,0,0,0,0,0,0,0,0,0,0,0,0,0,0,0,0,0,0,0,0,0,0,0,0,0,1.00,0
32,78,6,10,1,66,50,40,35,30,28,0,0,0,0,0,0,0,0,0,0,0,0,0,31,30,29,28,25,24,0,0,0,0,0,0,0,0,0,0,0,0,0,2.19,0
34,80,6,9,0,60,36,20,13,9,6,1,0,0,0,0,0,0,0,0,0,0,0,0,16,10,8,6,5,3,1,0,0,0,0,0,0,0,0,0,0,0,0,3.18,0
36,80,6,15,0,56,16,0,0,0,0,0,0,0,0,0,0,0,0,0,0,0,0,0,6,2,0,0,0,0,0,0,0,0,0,0,0,0,0,0,0,0,0,2.82,0
38,80,6,11,0,59,29,18,12,3,0,0,0,0,0,0,0,0,0,0,0,0,0,0,9,6,5,4,2,0,0,0,0,0,0,0,0,0,0,0,0,0,0,3.26,0
40,80,6,10,0,64,36,24,16,7,1,0,0,0,0,0,0,0,0,0,0,0,0,0,9,7,6,5,3,1,0,0,0,0,0,0,0,0,0,0,0,0,0,3.28,0
42,80,6,13,0,67,43,32,22,7,1,0,0,0,0,0,0,0,0,0,0,0,0,0,12,7,5,4,2,1,0,0,0,0,0,0,0,0,0,0,0,0,0,2.86,0
44,44,16,7,0,35,22,13,6,0,0,0,0,0,0,0,0,0,0,0,0,0,0,0,6,5,3,2,0,0,0,0,0,0,0,0,0,0,0,0,0,0,0,2.22,0
46,64,6,5,0,49,40,34,33,32,30,0,0,0,0,0,0,0,0,0,0,0,0,0,36,35,34,33,32,30,0,0,0,0,0,0,0,0,0,0,0,0,0,2.25,0
48,80,0,0,0,79,78,77,76,75,74,0,0,0,0,0,0,0,0,0,0,0,0,0,79,78,77,76,75,74,0,0,0,0,0,0,0,0,0,0,0,0,0,0.00,1
50,78,0,0,0,76,74,73,72,71,70,0,0,0,0,0,0,0,0,0,0,0,0,0,75,74,73,72,71,70,0,0,0,0,0,0,0,0,0,0,0,0,0,0.20,1
52,76,0,1,0,75,73,72,71,70,69,0,0,0,0,0,0,0,0,0,0,0,0,0,75,73,72,71,70,69,0,0,0,0,0,0,0,0,0,0,0,0,0,0.10,1
54,74,0,2,0,73,72,71,69,68,67,0,0,0,0,0,0,0,0,0,0,0,0,0,73,72,71,69,68,67,0,0,0,0,0,0,0,0,0,0,0,0,0,0.10,1
56,72,0,1,0,71,69,68,67,65,64,0,0,0,0,0,0,0,0,0,0,0,0,0,71,69,68,67,65,64,0,0,0,0,0,0,0,0,0,0,0,0,0,0.21,1
58,70,0,1,0,69,67,66,65,64,62,0,0,0,0,0,0,0,0,0,0,0,0,0,69,67,66,65,64,62,0,0,0,0,0,0,0,0,0,0,0,0,0,0.22,1
60,68,0,0,0,67,66,65,64,62,61,0,0,0,0,0,0,0,0,0,0,0,0,0,67,66,65,64,62,61,0,0,0,0,0,0,0,0,0,0,0,0,0,0.11,1
62,66,0,0,0,65,64,63,61,60,59,0,0,0,0,0,0,0,0,0,0,0,0,0,65,64,63,61,60,59,0,0,0,0,0,0,0,0,0,0,0,0,0,0.11,1
64,64,0,1,0,63,61,60,59,57,56,0,0,0,0,0,0,0,0,0,0,0,0,0,63,61,60,59,57,56,0,0,0,0,0,0,0,0,0,0,0,0,0,0.23,1
66,62,0,1,0,61,59,58,57,56,55,0,0,0,0,0,0,0,0,0,0,0,0,0,61,59,58,57,56,55,0,0,0,0,0,0,0,0,0,0,0,0,0,0.12,1
68,60,0,0,0,59,58,57,55,54,53,0,0,0,0,0,0,0,0,0,0,0,0,0,59,58,57,55,54,53,0,0,0,0,0,0,0,0,0,0,0,0,0,0.12,1
70,58,0,1,0,57,56,55,54,53,52,1,0,0,0,0,0,0,0,0,0,0,0,0,57,56,55,54,53,52,1,0,0,0,0,0,0,0,0,0,0,0,0,0.25,1
72,56,0,0,0,55,54,53,52,51,50,0,0,0,0,0,0,0,0,0,0,0,0,0,55,54,53,52,51,50,0,0,0,0,0,0,0,0,0,0,0,0,0,0.00,1
74,54,0,0,0,53,52,51,50,48,47,0,0,0,0,0,0,0,0,0,0,0,0,0,53,52,51,50,48,47,0,0,0,0,0,0,0,0,0,0,0,0,0,0.13,1
76,52,0,0,0,51,49,48,47,45,44,0,0,0,0,0,0,0,0,0,0,0,0,0,51,49,48,47,45,44,0,0,0,0,0,0,0,0,0,0,0,0,0,0.27,1
78,50,0,1,0,49,48,47,45,44,42,0,0,0,0,0,0,0,0,0,0,0,0,0,49,48,47,45,44,42,0,0,0,0,0,0,0,0,0,0,0,0,0,0.28,1
80,48,0,0,0,47,46,45,44,43,42,0,0,0,0,0,0,0,0,0,0,0,0,0,47,46,45,44,43,42,0,0,0,0,0,0,0,0,0,0,0,0,0,0.00,1
82,46,0,1,0,45,43,42,41,39,38,0,0,0,0,0,0,0,0,0,0,0,0,0,45,43,42,41,39,38,0,0,0,0,0,0,0,0,0,0,0,0,0,0.30,1
84,44,0,0,0,43,42,41,39,38,37,0,0,0,0,0,0,0,0,0,0,0,0,0,43,42,41,39,38,37,0,0,0,0,0,0,0,0,0,0,0,0,0,0.16,1
86,42,0,1,0,41,39,38,37,36,35,0,0,0,0,0,0,0,0,0,0,0,0,0,41,39,38,37,36,35,0,0,0,0,0,0,0,0,0,0,0,0,0,0.16,1
88,40,0,0,0,39,38,37,35,34,33,0,0,0,0,0,0,0,0,0,0,0,0,0,39,38,37,35,34,33,0,0,0,0,0,0,0,0,0,0,0,0,0,0.17,1
90,38,0,1,0,37,36,35,34,33,32,1,0,0,0,0,0,0,0,0,0,0,0,0,37,36,35,34,33,32,1,0,0,0,0,0,0,0,0,0,0,0,0,0.35,1
92,36,0,0,0,35,34,33,32,31,30,0,0,0,0,0,0,0,0,0,0,0,0,0,35,34,33,32,31,30,0,0,0,0,0,0,0,0,0,0,0,0,0,0.00,1
94,34,0,0,0,33,32,31,30,28,27,0,0,0,0,0,0,0,0,0,0,0,0,0,33,32,31,30,28,27,0,0,0,0,0,0,0,0,0,0,0,0,0,0.19,1
96,32,0,0,0,31,29,28,27,26,25,0,0,0,0,0,0,0,0,0,0,0,0,0,31,29,28,27,26,25,0,0,0,0,0,0,0,0,0,0,0,0,0,0.20,1
98,30,0,1,0,29,28,27,26,25,23,1,0,0,0,0,0,0,0,0,0,0,0,0,29,28,27,26,25,23,1,0,0,0,0,0,0,0,0,0,0,0,0,0.42,1
100,28,0,0,0,27,26,25,24,23,22,0,0,0,0,0,0,0,0,0,0,0,0,0,27,26,25,24,23,22,0,0,0,0,0,0,0,0,0,0,0,0,0,0.00,1
102,26,0,1,0,25,23,22,21,19,18,0,0,0,0,0,0,0,0,0,0,0,0,0,25,23,22,21,19,18,0,0,0,0,0,0,0,0,0,0,0,0,0,0.47,1
104,24,0,1,0,23,22,21,20,18,17,0,0,0,0,0,0,0,0,0,0,0,0,0,23,22,21,20,18,17,0,0,0,0,0,0,0,0,0,0,0,0,0,0.25,1
106,22,0,0,0,21,20,19,18,17,16,0,0,0,0,0,0,0,0,0,0,0,0,0,21,20,19,18,17,16,0,0,0,0,0,0,0,0,0,0,0,0,0,0.00,1
108,20,0,1,0,19,16,15,14,13,12,0,0,0,0,0,0,0,0,0,0,0,0,0,19,16,15,14,13,12,0,0,0,0,0,0,0,0,0,0,0,0,0,0.57,1
110,18,0,1,0,17,15,14,13,12,11,0,0,0,0,0,0,0,0,0,0,0,0,0,17,15,14,13,12,11,0,0,0,0,0,0,0,0,0,0,0,0,0,0.31,1
112,16,0,0,0,15,14,13,11,10,9,0,0,0,0,0,0,0,0,0,0,0,0,0,15,14,13,11,10,9,0,0,0,0,0,0,0,0,0,0,0,0,0,0.34,1
114,14,0,1,0,13,11,10,9,7,6,0,0,0,0,0,0,0,0,0,0,0,0,0,13,11,10,9,7,6,0,0,0,0,0,0,0,0,0,0,0,0,0,0.73,1
116,12,0,2,0,11,10,9,7,6,5,0,0,0,0,0,0,0,0,0,0,0,0,0,11,10,9,7,6,5,0,0,0,0,0,0,0,0,0,0,0,0,0,0.41,1
118,10,0,1,0,9,7,6,5,3,2,0,0,0,0,0,0,0,0,0,0,0,0,0,9,7,6,5,3,2,0,0,0,0,0,0,0,0,0,0,0,0,0,0.92,1
120,8,0,1,0,7,6,5,4,3,2,0,0,0,0,0,0,0,0,0,0,0,0,0,7,6,5,4,3,2,0,0,0,0,0,0,0,0,0,0,0,0,0,1.06,1
122,6,0,1,0,5,4,3,2,0,0,0,0,0,0,0,0,0,0,0,0,0,0,0,5,4,3,2,0,0,0,0,0,0,0,0,0,0,0,0,0,0,0,0.65,1
124,4,0,1,0,3,1,0,0,0,0,0,0,0,0,0,0,0,0,0,0,0,0,0,3,1,0,0,0,0,0,0,0,0,0,0,0,0,0,0,0,0,0,1.50,1
126,2,0,0,0,1,0,0,0,0,0,0,0,0,0,0,0,0,0,0,0,0,0,0,1,0,0,0,0,0,0,0,0,0,0,0,0,0,0,0,0,0,0,1.00,1
128,80,0,2,0,79,78,77,75,74,73,0,0,0,0,0,0,0,0,0,0,0,0,0,79,78,77,75,74,73,0,0,0,0,0,0,0,0,0,0,0,0,0,0.10,1
130,78,0,1,0,77,75,74,73,71,70,0,0,0,0,0,0,0,0,0,0,0,0,0,77,75,74,73,71,70,0,0,0,0,0,0,0,0,0,0,0,0,0,0.20,1
132,76,0,1,0,75,74,73,72,71,69,1,0,0,0,0,0,0,0,0,0,0,0,0,75,74,73,72,71,69,1,0,0,0,0,0,0,0,0,0,0,0,0,0.20,1
134,74,0,1,0,73,72,71,70,68,67,0,0,0,0,0,0,0,0,0,0,0,0,0,73,72,71,70,68,67,0,0,0,0,0,0,0,0,0,0,0,0,0,0.10,1
136,72,0,1,0,71,70,69,67,66,65,0,0,0,0,0,0,0,0,0,0,0,0,0,71,70,69,67,66,65,0,0,0,0,0,0,0,0,0,0,0,0,0,0.11,1
138,70,0,1,0,69,68,67,66,64,63,0,0,0,0,0,0,0,0,0,0,0,0,0,69,68,67,66,64,63,0,0,0,0,0,0,0,0,0,0,0,0,0,0.11,1
140,68,0,2,0,67,65,64,63,62,61,0,0,0,0,0,0,0,0,0,0,0,0,0,67,65,64,63,62,61,0,0,0,0,0,0,0,0,0,0,0,0,0,0.11,1
142,66,0,1,0,65,64,63,61,60,59,0,0,0,0,0,0,0,0,0,0,0,0,0,65,64,63,61,60,59,0,0,0,0,0,0,0,0,0,0,0,0,0,0.11,1
144,64,0,0,0,63,62,60,59,57,56,0,0,0,0,0,0,0,0,0,0,0,0,0,63,62,60,59,57,56,0,0,0,0,0,0,0,0,0,0,0,0,0,0.23,1
146,62,0,1,0,61,60,59,57,56,54,0,0,0,0,0,0,0,0,0,0,0,0,0,61,60,59,57,56,54,0,0,0,0,0,0,0,0,0,0,0,0,0,0.24,1
148,60,0,0,0,59,58,57,56,55,54,0,0,0,0,0,0,0,0,0,0,0,0,0,59,58,57,56,55,54,0,0,0,0,0,0,0,0,0,0,0,0,0,0.00,1
150,58,0,1,0,57,56,55,54,53,52,1,0,0,0,0,0,0,0,0,0,0,0,0,57,56,55,54,53,52,1,0,0,0,0,0,0,0,0,0,0,0,0,0.25,1
152,56,0,0,0,55,54,53,52,51,50,0,0,0,0,0,0,0,0,0,0,0,0,0,55,54,53,52,51,50,0,0,0,0,0,0,0,0,0,0,0,0,0,0.00,1
154,54,0,0,0,53,52,51,50,48,47,0,0,0,0,0,0,0,0,0,0,0,0,0,53,52,51,50,48,47,0,0,0,0,0,0,0,0,0,0,0,0,0,0.13,1
156,52,0,1,0,51,49,48,47,45,44,0,0,0,0,0,0,0,0,0,0,0,0,0,51,49,48,47,45,44,0,0,0,0,0,0,0,0,0,0,0,0,0,0.27,1
158,50,0,1,0,49,48,47,45,44,43,1,0,0,0,0,0,0,0,0,0,0,0,0,49,48,47,45,44,43,1,0,0,0,0,0,0,0,0,0,0,0,0,0.28,1
160,48,0,0,0,47,46,45,44,43,42,0,0,0,0,0,0,0,0,0,0,0,0,0,47,46,45,44,43,42,0,0,0,0,0,0,0,0,0,0,0,0,0,0.00,1
162,46,0,0,0,45,43,42,41,40,39,0,0,0,0,0,0,0,0,0,0,0,0,0,45,43,42,41,40,39,0,0,0,0,0,0,0,0,0,0,0,0,0,0.15,1
164,44,0,1,0,43,42,41,40,39,37,1,0,0,0,0,0,0,0,0,0,0,0,0,43,42,41,40,39,37,1,0,0,0,0,0,0,0,0,0,0,0,0,0.31,1
166,42,0,0,0,41,40,39,38,37,36,0,0,0,0,0,0,0,0,0,0,0,0,0,41,40,39,38,37,36,0,0,0,0,0,0,0,0,0,0,0,0,0,0.00,1
168,40,0,0,0,39,38,37,36,35,34,0,0,0,0,0,0,0,0,0,0,0,0,0,39,38,37,36,35,34,0,0,0,0,0,0,0,0,0,0,0,0,0,0.00,1
170,38,0,2,0,35,34,33,32,31,30,0,0,0,0,0,0,0,0,0,0,0,0,0,35,34,33,32,31,30,0,0,0,0,0,0,0,0,0,0,0,0,0,0.35,1
172,36,0,0,0,35,33,32,31,30,29,0,0,0,0,0,0,0,0,0,0,0,0,0,35,33,32,31,30,29,0,0,0,0,0,0,0,0,0,0,0,0,0,0.18,1
174,34,0,1,0,33,31,30,29,28,27,0,0,0,0,0,0,0,0,0,0,0,0,0,33,31,30,29,28,27,0,0,0,0,0,0,0,0,0,0,0,0,0,0.19,1
176,32,0,0,0,31,30,29,27,26,25,0,0,0,0,0,0,0,0,0,0,0,0,0,31,30,29,27,26,25,0,0,0,0,0,0,0,0,0,0,0,0,0,0.20,1
178,30,0,0,0,29,27,26,25,23,22,0,0,0,0,0,0,0,0,0,0,0,0,0,29,27,26,25,23,22,0,0,0,0,0,0,0,0,0,0,0,0,0,0.42,1
180,28,0,1,0,27,26,25,23,22,20,0,0,0,0,0,0,0,0,0,0,0,0,0,27,26,25,23,22,20,0,0,0,0,0,0,0,0,0,0,0,0,0,0.44,1
182,26,0,0,0,25,24,23,22,21,20,0,0,0,0,0,0,0,0,0,0,0,0,0,25,24,23,22,21,20,0,0,0,0,0,0,0,0,0,0,0,0,0,0.00,1
184,24,0,1,0,23,22,21,20,19,18,1,0,0,0,0,0,0,0,0,0,0,0,0,23,22,21,20,19,18,1,0,0,0,0,0,0,0,0,0,0,0,0,0.50,1
186,22,0,0,0,21,20,19,18,17,16,0,0,0,0,0,0,0,0,0,0,0,0,0,21,20,19,18,17,16,0,0,0,0,0,0,0,0,0,0,0,0,0,0.00,1
188,20,0,1,0,19,18,17,16,14,13,0,0,0,0,0,0,0,0,0,0,0,0,0,19,18,17,16,14,13,0,0,0,0,0,0,0,0,0,0,0,0,0,0.29,1
190,18,0,1,0,17,16,15,13,12,11,0,0,0,0,0,0,0,0,0,0,0,0,0,17,16,15,13,12,11,0,0,0,0,0,0,0,0,0,0,0,0,0,0.31,1
192,16,0,1,0,15,13,12,11,9,8,0,0,0,0,0,0,0,0,0,0,0,0,0,15,13,12,11,9,8,0,0,0,0,0,0,0,0,0,0,0,0,0,0.67,1
194,14,0,1,0,13,12,11,10,9,8,1,0,0,0,0,0,0,0,0,0,0,0,0,13,12,11,10,9,8,1,0,0,0,0,0,0,0,0,0,0,0,0,0.73,1
196,12,0,1,0,11,10,9,8,6,5,0,0,0,0,0,0,0,0,0,0,0,0,0,11,10,9,8,6,5,0,0,0,0,0,0,0,0,0,0,0,0,0,0.41,1
198,10,0,1,0,9,7,6,5,3,2,0,0,0,0,0,0,0,0,0,0,0,0,0,9,7,6,5,3,2,0,0,0,0,0,0,0,0,0,0,0,0,0,0.92,1
200,8,0,1,0,7,6,5,4,2,1,0,0,0,0,0,0,0,0,0,0,0,0,0,7,6,5,4,2,1,0,0,0,0,0,0,0,0,0,0,0,0,0,0.54,1
202,6,0,1,0,5,3,2,1,0,0,0,0,0,0,0,0,0,0,0,0,0,0,0,5,3,2,1,0,0,0,0,0,0,0,0,0,0,0,0,0,0,0,1.25,1
204,4,0,1,0,3,2,1,0,0,0,0,0,0,0,0,0,0,0,0,0,0,0,0,3,2,1,0,0,0,0,0,0,0,0,0,0,0,0,0,0,0,0,1.50,1
206,2,0,0,0,1,0,0,0,0,0,0,0,0,0,0,0,0,0,0,0,0,0,0,1,0,0,0,0,0,0,0,0,0,0,0,0,0,0,0,0,0,0,0.00,1
208,80,0,0,0,79,78,77,76,75,74,0,0,0,0,0,0,0,0,0,0,0,0,0,79,78,77,76,75,74,0,0,0,0,0,0,0,0,0,0,0,0,0,0.00,1
210,78,0,1,0,75,74,73,72,71,70,0,0,0,0,0,0,0,0,0,0,0,0,0,75,74,73,72,71,70,0,0,0,0,0,0,0,0,0,0,0,0,0,0.20,1
212,76,0,0,0,75,73,72,71,70,69,0,0,0,0,0,0,0,0,0,0,0,0,0,75,73,72,71,70,69,0,0,0,0,0,0,0,0,0,0,0,0,0,0.10,1
214,74,0,2,0,73,71,70,69,68,67,0,0,0,0,0,0,0,0,0,0,0,0,0,73,71,70,69,68,67,0,0,0,0,0,0,0,0,0,0,0,0,0,0.10,1
216,72,0,0,0,71,70,69,67,66,65,0,0,0,0,0,0,0,0,0,0,0,0,0,71,70,69,67,66,65,0,0,0,0,0,0,0,0,0,0,0,0,0,0.11,1
218,70,0,0,0,69,67,66,65,63,62,0,0,0,0,0,0,0,0,0,0,0,0,0,69,67,66,65,63,62,0,0,0,0,0,0,0,0,0,0,0,0,0,0.22,1
220,68,0,1,0,67,66,65,63,62,60,0,0,0,0,0,0,0,0,0,0,0,0,0,67,66,65,63,62,60,0,0,0,0,0,0,0,0,0,0,0,0,0,0.22,1
222,66,0,0,0,65,64,63,62,61,60,0,0,0,0,0,0,0,0,0,0,0,0,0,65,64,63,62,61,60,0,0,0,0,0,0,0,0,0,0,0,0,0,0.00,1
224,64,0,1,0,63,62,61,60,59,58,1,0,0,0,0,0,0,0,0,0,0,0,0,63,62,61,60,59,58,1,0,0,0,0,0,0,0,0,0,0,0,0,0.23,1
226,62,0,0,0,61,60,59,58,57,56,0,0,0,0,0,0,0,0,0,0,0,0,0,61,60,59,58,57,56,0,0,0,0,0,0,0,0,0,0,0,0,0,0.00,1
228,60,0,1,0,59,58,57,56,54,53,0,0,0,0,0,0,0,0,0,0,0,0,0,59,58,57,56,54,53,0,0,0,0,0,0,0,0,0,0,0,0,0,0.12,1
230,58,0,1,0,57,56,55,53,52,51,0,0,0,0,0,0,0,0,0,0,0,0,0,57,56,55,53,52,51,0,0,0,0,0,0,0,0,0,0,0,0,0,0.13,1
232,56,0,1,0,55,53,52,51,49,48,0,0,0,0,0,0,0,0,0,0,0,0,0,55,53,52,51,49,48,0,0,0,0,0,0,0,0,0,0,0,0,0,0.26,1
234,54,0,1,0,53,52,51,50,49,47,1,0,0,0,0,0,0,0,0,0,0,0,0,53,52,51,50,49,47,1,0,0,0,0,0,0,0,0,0,0,0,0,0.27,1
236,52,0,1,0,51,50,49,48,46,45,0,0,0,0,0,0,0,0,0,0,0,0,0,51,50,49,48,46,45,0,0,0,0,0,0,0,0,0,0,0,0,0,0.14,1
238,50,0,1,0,49,47,46,45,43,42,0,0,0,0,0,0,0,0,0,0,0,0,0,49,47,46,45,43,42,0,0,0,0,0,0,0,0,0,0,0,0,0,0.28,1
240,48,0,1,0,47,46,45,44,42,41,0,0,0,0,0,0,0,0,0,0,0,0,0,47,46,45,44,42,41,0,0,0,0,0,0,0,0,0,0,0,0,0,0.15,1
242,46,0,1,0,45,43,42,41,39,38,0,0,0,0,0,0,0,0,0,0,0,0,0,45,43,42,41,39,38,0,0,0,0,0,0,0,0,0,0,0,0,0,0.30,1
244,44,0,1,0,43,42,41,40,39,37,1,0,0,0,0,0,0,0,0,0,0,0,0,43,42,41,40,39,37,1,0,0,0,0,0,0,0,0,0,0,0,0,0.31,1
246,42,0,0,0,41,40,39,38,36,35,0,0,0,0,0,0,0,0,0,0,0,0,0,41,40,39,38,36,35,0,0,0,0,0,0,0,0,0,0,0,0,0,0.16,1
248,40,0,0,0,39,38,37,36,35,34,0,0,0,0,0,0,0,0,0,0,0,0,0,39,38,37,36,35,34,0,0,0,0,0,0,0,0,0,0,0,0,0,0.00,1
250,38,0,1,0,36,34,33,32,31,30,0,0,0,0,0,0,0,0,0,0,0,0,0,35,34,33,32,31,30,0,0,0,0,0,0,0,0,0,0,0,0,0,0.35,1
252,36,0,0,0,35,33,32,31,30,29,0,0,0,0,0,0,0,0,0,0,0,0,0,35,33,32,31,30,29,0,0,0,0,0,0,0,0,0,0,0,0,0,0.18,1
254,34,0,2,0,33,32,31,29,28,27,0,0,0,0,0,0,0,0,0,0,0,0,0,33,32,31,29,28,27,0,0,0,0,0,0,0,0,0,0,0,0,0,0.19,1
256,32,0,0,0,31,30,29,28,27,26,0,0,0,0,0,0,0,0,0,0,0,0,0,31,30,29,28,27,26,0,0,0,0,0,0,0,0,0,0,0,0,0,0.00,1
258,30,0,1,0,29,28,27,26,25,23,1,0,0,0,0,0,0,0,0,0,0,0,0,29,28,27,26,25,23,1,0,0,0,0,0,0,0,0,0,0,0,0,0.42,1
260,28,0,0,0,27,26,25,24,23,22,0,0,0,0,0,0,0,0,0,0,0,0,0,27,26,25,24,23,22,0,0,0,0,0,0,0,0,0,0,0,0,0,0.00,1
262,26,0,2,0,25,24,23,21,20,19,0,0,0,0,0,0,0,0,0,0,0,0,0,25,24,23,21,20,19,0,0,0,0,0,0,0,0,0,0,0,0,0,0.24,1
264,24,0,0,0,23,22,21,20,19,18,0,0,0,0,0,0,0,0,0,0,0,0,0,23,22,21,20,19,18,0,0,0,0,0,0,0,0,0,0,0,0,0,0.00,1
266,22,0,1,0,21,20,19,18,17,15,1,0,0,0,0,0,0,0,0,0,0,0,0,21,20,19,18,17,15,1,0,0,0,0,0,0,0,0,0,0,0,0,0.53,1
268,20,0,0,0,19,18,17,16,15,14,0,0,0,0,0,0,0,0,0,0,0,0,0,19,18,17,16,15,14,0,0,0,0,0,0,0,0,0,0,0,0,0,0.00,1
270,18,0,0,0,17,16,15,14,13,12,0,0,0,0,0,0,0,0,0,0,0,0,0,17,16,15,14,13,12,0,0,0,0,0,0,0,0,0,0,0,0,0,0.00,1
272,16,0,1,0,14,12,11,10,9,8,0,0,0,0,0,0,0,0,0,0,0,0,0,13,12,11,10,9,8,0,0,0,0,0,0,0,0,0,0,0,0,0,0.67,1
274,14,0,0,0,13,11,10,9,8,7,0,0,0,0,0,0,0,0,0,0,0,0,0,13,11,10,9,8,7,0,0,0,0,0,0,0,0,0,0,0,0,0,0.37,1
276,12,0,2,0,11,10,9,7,6,5,0,0,0,0,0,0,0,0,0,0,0,0,0,11,10,9,7,6,5,0,0,0,0,0,0,0,0,0,0,0,0,0,0.41,1
278,10,0,0,0,9,8,7,6,5,4,0,0,0,0,0,0,0,0,0,0,0,0,0,9,8,7,6,5,4,0,0,0,0,0,0,0,0,0,0,0,0,0,0.00,1
280,8,0,1,0,7,6,5,4,3,1,0,0,0,0,0,0,0,0,0,0,0,0,0,7,6,5,4,3,1,0,0,0,0,0,0,0,0,0,0,0,0,0,1.06,1
282,6,0,0,0,5,4,3,2,0,0,0,0,0,0,0,0,0,0,0,0,0,0,0,5,4,3,2,0,0,0,0,0,0,0,0,0,0,0,0,0,0,0,0.65,1
284,4,0,2,0,3,2,1,0,0,0,0,0,0,0,0,0,0,0,0,0,0,0,0,3,2,1,0,0,0,0,0,0,0,0,0,0,0,0,0,0,0,0,0.81,1
286,2,0,0,0,1,0,0,0,0,0,0,0,0,0,0,0,0,0,0,0,0,0,0,1,0,0,0,0,0,0,0,0,0,0,0,0,0,0,0,0,0,0,0.00,1
288,34,0,1,0,33,32,31,30,29,27,1,0,0,0,0,0,0,0,0,0,0,0,0,33,32,31,30,29,27,1,0,0,0,0,0,0,0,0,0,0,0,0,0.38,1
290,32,0,0,0,31,30,29,28,26,25,0,0,0,0,0,0,0,0,0,0,0,0,0,31,30,29,28,26,25,0,0,0,0,0,0,0,0,0,0,0,0,0,0.20,1
292,30,0,0,0,29,28,27,26,25,24,0,0,0,0,0,0,0,0,0,0,0,0,0,29,28,27,26,25,24,0,0,0,0,0,0,0,0,0,0,0,0,0,0.00,1
294,28,0,1,0,26,24,23,22,21,20,0,0,0,0,0,0,0,0,0,0,0,0,0,25,24,23,22,21,20,0,0,0,0,0,0,0,0,0,0,0,0,0,0.44,1
296,26,0,0,0,25,23,22,21,20,19,0,0,0,0,0,0,0,0,0,0,0,0,0,25,23,22,21,20,19,0,0,0,0,0,0,0,0,0,0,0,0,0,0.24,1
298,24,0,2,0,23,22,21,19,18,17,0,0,0,0,0,0,0,0,0,0,0,0,0,23,22,21,19,18,17,0,0,0,0,0,0,0,0,0,0,0,0,0,0.25,1
300,22,0,0,0,21,20,19,18,17,16,0,0,0,0,0,0,0,0,0,0,0,0,0,21,20,19,18,17,16,0,0,0,0,0,0,0,0,0,0,0,0,0,0.00,1
302,20,0,1,0,19,18,17,16,15,13,1,0,0,0,0,0,0,0,0,0,0,0,0,19,18,17,16,15,13,1,0,0,0,0,0,0,0,0,0,0,0,0,0.57,1
304,18,0,1,0,17,16,15,14,12,11,0,0,0,0,0,0,0,0,0,0,0,0,0,17,16,15,14,12,11,0,0,0,0,0,0,0,0,0,0,0,0,0,0.31,1
306,16,0,2,0,15,14,13,11,10,9,0,0,0,0,0,0,0,0,0,0,0,0,0,15,14,13,11,10,9,0,0,0,0,0,0,0,0,0,0,0,0,0,0.34,1
308,14,0,0,0,13,12,11,10,9,8,0,0,0,0,0,0,0,0,0,0,0,0,0,13,12,11,10,9,8,0,0,0,0,0,0,0,0,0,0,0,0,0,0.00,1
310,12,0,1,0,11,10,9,8,7,5,1,0,0,0,0,0,0,0,0,0,0,0,0,11,10,9,8,7,5,1,0,0,0,0,0,0,0,0,0,0,0,0,0.82,1
312,10,0,1,0,9,8,7,6,4,3,0,0,0,0,0,0,0,0,0,0,0,0,0,9,8,7,6,4,3,0,0,0,0,0,0,0,0,0,0,0,0,0,0.47,1
314,8,0,0,0,7,6,5,4,3,2,0,0,0,0,0,0,0,0,0,0,0,0,0,7,6,5,4,3,2,0,0,0,0,0,0,0,0,0,0,0,0,0,0.00,1
316,6,0,1,0,5,4,3,1,0,0,0,0,0,0,0,0,0,0,0,0,0,0,0,5,4,3,1,0,0,0,0,0,0,0,0,0,0,0,0,0,0,0,0.65,1
318,4,0,0,0,3,2,1,0,0,0,0,0,0,0,0,0,0,0,0,0,0,0,0,3,2,1,0,0,0,0,0,0,0,0,0,0,0,0,0,0,0,0,0.81,1
320,2,0,1,0,1,0,0,0,0,0,0,0,0,0,0,0,0,0,0,0,0,0,0,1,0,0,0,0,0,0,0,0,0,0,0,0,0,0,0,0,0,0,1.00,1
322,8,0,0,0,7,6,5,4,3,2,0,0,0,0,0,0,0,0,0,0,0,0,0,7,6,5,4,3,2,0,0,0,0,0,0,0,0,0,0,0,0,0,0.00,0
324,6,0,1,0,5,4,3,1,0,0,0,0,0,0,0,0,0,0,0,0,0,0,0,5,4,3,1,0,0,0,0,0,0,0,0,0,0,0,0,0,0,0,0.65,1
326,4,0,0,0,3,2,1,0,0,0,0,0,0,0,0,0,0,0,0,0,0,0,0,3,2,1,0,0,0,0,0,0,0,0,0,0,0,0,0,0,0,0,0.81,1
328,2,0,1,0,1,0,0,0,0,0,0,0,0,0,0,0,0,0,0,0,0,0,0,1,0,0,0,0,0,0,0,0,0,0,0,0,0,0,0,0,0,0,1.00,1
330,8,0,0,0,7,6,5,4,3,2,0,0,0,0,0,0,0,0,0,0,0,0,0,7,6,5,4,3,2,0,0,0,0,0,0,0,0,0,0,0,0,0,0.00,0
332,6,0,1,0,5,4,3,1,0,0,0,0,0,0,0,0,0,0,0,0,0,0,0,5,4,3,1,0,0,0,0,0,0,0,0,0,0,0,0,0,0,0,0.65,1
334,4,0,0,0,3,2,1,0,0,0,0,0,0,0,0,0,0,0,0,0,0,0,0,3,2,1,0,0,0,0,0,0,0,0,0,0,0,0,0,0,0,0,0.81,1
336,2,0,1,0,1,0,0,0,0,0,0,0,0,0,0,0,0,0,0,0,0,0,0,1,0,0,0,0,0,0,0,0,0,0,0,0,0,0,0,0,0,0,1.00,1
338,8,0,0,0,7,6,5,4,3,2,0,0,0,0,0,0,0,0,0,0,0,0,0,7,6,5,4,3,2,0,0,0,0,0,0,0,0,0,0,0,0,0,0.00,0
340,6,0,1,0,5,4,3,1,0,0,0,0,0,0,0,0,0,0,0,0,0,0,0,5,4,3,1,0,0,0,0,0,0,0,0,0,0,0,0,0,0,0,0.65,1
342,4,0,0,0,3,2,1,0,0,0,0,0,0,0,0,0,0,0,0,0,0,0,0,3,2,1,0,0,0,0,0,0,0,0,0,0,0,0,0,0,0,0,0.81,1
344,2,0,1,0,1,0,0,0,0,0,0,0,0,0,0,0,0,0,0,0,0,0,0,1,0,0,0,0,0,0,0,0,0,0,0,0,0,0,0,0,0,0,1.00,1
346,8,0,0,0,7,6,5,4,3,2,0,0,0,0,0,0,0,0,0,0,0,0,0,7,6,5,4,3,2,0,0,0,0,0,0,0,0,0,0,0,0,0,0.00,0
348,6,0,1,0,5,4,3,1,0,0,0,0,0,0,0,0,0,0,0,0,0,0,0,5,4,3,1,0,0,0,0,0,0,0,0,0,0,0,0,0,0,0,0.65,1
350,4,0,0,0,3,2,1,0,0,0,0,0,0,0,0,0,0,0,0,0,0,0,0,3,2,1,0,0,0,0,0,0,0,0,0,0,0,0,0,0,0,0,0.81,1
352,2,0,1,0,1,0,0,0,0,0,0,0,0,0,0,0,0,0,0,0,0,0,0,1,0,0,0,0,0,0,0,0,0,0,0,0,0,0,0,0,0,0,1.00,1
354,8,0,0,0,7,6,5,4,3,2,0,0,0,0,0,0,0,0,0,0,0,0,0,7,6,5,4,3,2,0,0,0,0,0,0,0,0,0,0,0,0,0,0.00,0
356,6,0,1,0,5,4,3,1,0,0,0,0,0,0,0,0,0,0,0,0,0,0,0,5,4,3,1,0,0,0,0,0,0,0,0,0,0,0,0,0,0,0,0.65,1
358,4,0,0,0,3,2,1,0,0,0,0,0,0,0,0,0,0,0,0,0,0,0,0,3,2,1,0,0,0,0,0,0,0,0,0,0,0,0,0,0,0,0,0.81,1
360,2,0,1,0,1,0,0,0,0,0,0,0,0,0,0,0,0,0,0,0,0,0,0,1,0,0,0,0,0,0,0,0,0,0,0,0,0,0,0,0,0,0,1.00,1
362,8,0,0,0,7,6,5,4,3,2,0,0,0,0,0,0,0,0,0,0,0,0,0,7,6,5,4,3,2,0,0,0,0,0,0,0,0,0,0,0,0,0,0.00,0
364,6,0,1,0,5,4,3,1,0,0,0,0,0,0,0,0,0,0,0,0,0,0,0,5,4,3,1,0,0,0,0,0,0,0,0,0,0,0,0,0,0,0,0.65,1
366,4,0,0,0,3,2,1,0,0,0,0,0,0,0,0,0,0,0,0,0,0,0,0,3,2,1,0,0,0,0,0,0,0,0,0,0,0,0,0,0,0,0,0.81,1
368,2,0,1,0,1,0,0,0,0,0,0,0,0,0,0,0,0,0,0,0,0,0,0,1,0,0,0,0,0,0,0,0,0,0,0,0,0,0,0,0,0,0,1.00,1
370,8,0,0,0,7,6,5,4,3,2,0,0,0,0,0,0,0,0,0,0,0,0,0,7,6,5,4,3,2,0,0,0,0,0,0,0,0,0,0,0,0,0,0.00,0
372,6,0,1,0,5,4,3,1,0,0,0,0,0,0,0,0,0,0,0,0,0,0,0,5,4,3,1,0,0,0,0,0,0,0,0,0,0,0,0,0,0,0,0.65,1
374,4,0,0,0,3,2,1,0,0,0,0,0,0,0,0,0,0,0,0,0,0,0,0,3,2,1,0,0,0,0,0,0,0,0,0,0,0,0,0,0,0,0,0.81,1
376,2,0,1,0,1,0,0,0,0,0,0,0,0,0,0,0,0,0,0,0,0,0,0,1,0,0,0,0,0,0,0,0,0,0,0,0,0,0,0,0,0,0,1.00,1
379,8,0,0,0,7,6,5,4,3,2,0,0,0,0,0,0,0,0,0,0,0,0,0,7,6,5,4,3,2,0,0,0,0,0,0,0,0,0,0,0,0,0,0.00,0
381,6,0,1,0,5,4,3,1,0,0,0,0,0,0,0,0,0,0,0,0,0,0,0,5,4,3,1,0,0,0,0,0,0,0,0,0,0,0,0,0,0,0,0.65,1
383,4,0,0,0,3,2,1,0,0,0,0,0,0,0,0,0,0,0,0,0,0,0,0,3,2,1,0,0,0,0,0,0,0,0,0,0,0,0,0,0,0,0,0.81,1
385,2,0,1,0,1,0,0,0,0,0,0,0,0,0,0,0,0,0,0,0,0,0,0,1,0,0,0,0,0,0,0,0,0,0,0,0,0,0,0,0,0,0,1.00,1
387,8,0,0,0,7,6,5,4,3,2,0,0,0,0,0,0,0,0,0,0,0,0,0,7,6,5,4,3,2,0,0,0,0,0,0,0,0,0,0,0,0,0,0.00,0
389,6,0,1,0,5,4,3,1,0,0,0,0,0,0,0,0,0,0,0,0,0,0,0,5,4,3,1,0,0,0,0,0,0,0,0,0,0,0,0,0,0,0,0.65,1
391,4,0,0,0,3,2,1,0,0,0,0,0,0,0,0,0,0,0,0,0,0,0,0,3,2,1,0,0,0,0,0,0,0,0,0,0,0,0,0,0,0,0,0.81,1
394,2,0,1,0,1,0,0,0,0,0,0,0,0,0,0,0,0,0,0,0,0,0,0,1,0,0,0,0,0,0,0,0,0,0,0,0,0,0,0,0,0,0,1.00,1
396,8,0,0,0,7,6,5,4,3,2,0,0,0,0,0,0,0,0,0,0,0,0,0,7,6,5,4,3,2,0,0,0,0,0,0,0,0,0,0,0,0,0,0.00,0
398,6,0,1,0,5,4,3,1,0,0,0,0,0,0,0,0,0,0,0,0,0,0,0,5,4,3,1,0,0,0,0,0,0,0,0,0,0,0,0,0,0,0,0.65,1
400,4,0,0,0,3,2,1,0,0,0,0,0,0,0,0,0,0,0,0,0,0,0,0,3,2,1,0,0,0,0,0,0,0,0,0,0,0,0,0,0,0,0,0.81,1
402,2,0,1,0,1,0,0,0,0,0,0,0,0,0,0,0,0,0,0,0,0,0,0,1,0,0,0,0,0,0,0,0,0,0,0,0,0,0,0,0,0,0,1.00,1
404,8,0,0,0,7,6,5,4,3,2,0,0,0,0,0,0,0,0,0,0,0,0,0,7,6,5,4,3,2,0,0,0,0,0,0,0,0,0,0,0,0,0,0.00,0
406,6,0,1,0,5,4,3,1,0,0,0,0,0,0,0,0,0,0,0,0,0,0,0,5,4,3,1,0,0,0,0,0,0,0,0,0,0,0,0,0,0,0,0.65,1
408,4,0,0,0,3,2,1,0,0,0,0,0,0,0,0,0,0,0,0,0,0,0,0,3,2,1,0,0,0,0,0,0,0,0,0,0,0,0,0,0,0,0,0.81,1
410,2,0,1,0,1,0,0,0,0,0,0,0,0,0,0,0,0,0,0,0,0,0,0,1,0,0,0,0,0,0,0,0,0,0,0,0,0,0,0,0,0,0,1.00,1
412,8,0,0,0,7,6,5,4,3,2,0,0,0,0,0,0,0,0,0,0,0,0,0,7,6,5,4,3,2,0,0,0,0,0,0,0,0,0,0,0,0,0,0.00,0
414,6,0,1,0,5,4,3,1,0,0,0,0,0,0,0,0,0,0,0,0,0,0,0,5,4,3,1,0,0,0,0,0,0,0,0,0,0,0,0,0,0,0,0.65,1
416,4,0,0,0,3,2,1,0,0,0,0,0,0,0,0,0,0,0,0,0,0,0,0,3,2,1,0,0,0,0,0,0,0,0,0,0,0,0,0,0,0,0,0.81,1
418,2,0,1,0,1,0,0,0,0,0,0,0,0,0,0,0,0,0,0,0,0,0,0,1,0,0,0,0,0,0,0,0,0,0,0,0,0,0,0,0,0,0,1.00,1
420,8,0,0,0,7,6,5,4,3,2,0,0,0,0,0,0,0,0,0,0,0,0,0,7,6,5,4,3,2,0,0,0,0,0,0,0,0,0,0,0,0,0,0.00,0
422,6,0,1,0,5,4,3,1,0,0,0,0,0,0,0,0,0,0,0,0,0,0,0,5,4,3,1,0,0,0,0,0,0,0,0,0,0,0,0,0,0,0,0.65,1
424,4,0,0,0,3,2,1,0,0,0,0,0,0,0,0,0,0,0,0,0,0,0,0,3,2,1,0,0,0,0,0,0,0,0,0,0,0,0,0,0,0,0,0.81,1
426,2,0,1,0,1,0,0,0,0,0,0,0,0,0,0,0,0,0,0,0,0,0,0,1,0,0,0,0,0,0,0,0,0,0,0,0,0,0,0,0,0,0,1.00,1
428,80,12,11,0,73,56,44,35,28,23,0,0,0,0,0,0,0,0,0,0,0,0,0,23,22,21,20,19,18,0,0,0,0,0,0,0,0,0,0,0,0,0,1.87,0
430,10,0,0,0,9,8,7,6,5,4,0,0,0,0,0,0,0,0,0,0,0,0,0,9,8,7,6,5,4,0,0,0,0,0,0,0,0,0,0,0,0,0,0.00,0
432,80,0,6,0,74,62,53,45,41,38,0,0,0,0,0,0,0,0,0,0,0,0,0,44,43,41,39,38,37,0,0,0,0,0,0,0,0,0,0,0,0,0,1.59,0
434,80,0,3,0,77,70,67,63,56,53,0,0,0,0,0,0,0,0,0,0,0,0,0,54,46,45,44,41,40,0,0,0,0,0,0,0,0,0,0,0,0,0,0.77,0
436,80,0,0,0,79,78,77,76,75,74,0,0,0,0,0,0,0,0,0,0,0,0,0,79,78,77,76,75,74,0,0,0,0,0,0,0,0,0,0,0,0,0,0.00,0
438,26,0,1,0,23,21,20,19,17,16,0,0,0,0,0,0,0,0,0,0,0,0,0,22,21,20,19,17,16,0,0,0,0,0,0,0,0,0,0,0,0,0,0.47,0
440,80,12,11,0,73,56,44,35,28,23,0,0,0,0,0,0,0,0,0,0,0,0,0,23,22,21,20,19,18,0,0,0,0,0,0,0,0,0,0,0,0,0,1.87,0
442,10,0,0,0,9,8,7,6,5,4,0,0,0,0,0,0,0,0,0,0,0,0,0,9,8,7,6,5,4,0,0,0,0,0,0,0,0,0,0,0,0,0,0.00,0
444,80,6,9,0,77,65,55,52,45,41,0,0,0,0,0,0,0,0,0,0,0,0,0,61,47,46,45,42,41,0,0,0,0,0,0,0,0,0,0,0,0,0,1.18,0
446,22,0,0,0,20,19,18,17,15,14,0,0,0,0,0,0,0,0,0,0,0,0,0,20,19,18,17,15,14,0,0,0,0,0,0,0,0,0,0,0,0,0,0.53,0
448,12,2,1,0,11,9,6,1,0,0,0,0,0,0,0,0,0,0,0,0,0,0,0,11,5,3,1,0,0,0,0,0,0,0,0,0,0,0,0,0,0,0,1.78,0
450,28,6,2,0,27,26,22,14,3,0,0,0,0,0,0,0,0,0,0,0,0,0,0,27,26,14,6,1,0,0,0,0,0,0,0,0,0,0,0,0,0,0,1.30,0
452,34,0,1,0,32,30,28,26,23,22,0,0,0,0,0,0,0,0,0,0,0,0,0,32,29,28,26,23,22,0,0,0,0,0,0,0,0,0,0,0,0,0,0.70,0
454,2,0,0,0,1,0,0,0,0,0,0,0,0,0,0,0,0,0,0,0,0,0,0,1,0,0,0,0,0,0,0,0,0,0,0,0,0,0,0,0,0,0,0.00,0
456,12,0,0,0,11,10,9,8,7,6,0,0,0,0,0,0,0,0,0,0,0,0,0,11,10,9,8,7,6,0,0,0,0,0,0,0,0,0,0,0,0,0,0.00,0
458,16,0,0,0,15,14,13,12,11,10,0,0,0,0,0,0,0,0,0,0,0,0,0,15,14,13,12,11,10,0,0,0,0,0,0,0,0,0,0,0,0,0,0.00,0
460,80,0,6,1,77,67,56,45,31,23,0,0,0,0,0,0,0,0,0,0,0,0,0,47,45,29,16,12,11,0,0,0,0,0,0,0,0,0,0,0,0,0,1.41,0
462,52,0,3,0,46,42,38,34,29,28,0,0,0,0,0,0,0,0,0,0,0,0,0,40,34,33,31,29,28,0,0,0,0,0,0,0,0,0,0,0,0,0,1.04,0
464,64,0,2,0,63,60,56,54,52,51,0,0,0,0,0,0,0,0,0,0,0,0,0,63,57,55,54,52,51,0,0,0,0,0,0,0,0,0,0,0,0,0,0.35,0
466,80,0,3,0,76,72,70,67,64,63,0,0,0,0,0,0,0,0,0,0,0,0,0,71,69,68,67,64,63,0,0,0,0,0,0,0,0,0,0,0,0,0,0.55,0
468,80,0,0,0,79,78,77,76,75,74,0,0,0,0,0,0,0,0,0,0,0,0,0,79,78,77,76,75,74,0,0,0,0,0,0,0,0,0,0,0,0,0,0.00,0
470,80,0,0,0,79,78,77,76,75,74,0,0,0,0,0,0,0,0,0,0,0,0,0,79,78,77,76,75,74,0,0,0,0,0,0,0,0,0,0,0,0,0,0.00,0
472,80,0,0,0,79,78,77,76,75,74,0,0,0,0,0,0,0,0,0,0,0,0,0,79,78,77,76,75,74,0,0,0,0,0,0,0,0,0,0,0,0,0,0.00,0
474,80,0,0,0,79,78,77,76,75,74,0,0,0,0,0,0,0,0,0,0,0,0,0,79,78,77,76,75,74,0,0,0,0,0,0,0,0,0,0,0,0,0,0.00,0
476,32,0,0,0,31,30,29,28,27,26,0,0,0,0,0,0,0,0,0,0,0,0,0,31,30,29,28,27,26,0,0,0,0,0,0,0,0,0,0,0,0,0,0.00,0
478,80,0,2,0,79,77,74,72,70,69,0,0,0,0,0,0,0,0,0,0,0,0,0,79,75,73,72,70,69,0,0,0,0,0,0,0,0,0,0,0,0,0,0.19,0
480,16,0,0,0,15,14,13,12,11,10,0,0,0,0,0,0,0,0,0,0,0,0,0,15,14,13,12,11,10,0,0,0,0,0,0,0,0,0,0,0,0,0,0.00,0
482,80,0,0,0,79,78,77,76,75,74,0,0,0,0,0,0,0,0,0,0,0,0,0,79,78,77,76,75,74,0,0,0,0,0,0,0,0,0,0,0,0,0,0.00,0
484,80,0,0,0,79,78,77,76,75,74,0,0,0,0,0,0,0,0,0,0,0,0,0,79,78,77,76,75,74,0,0,0,0,0,0,0,0,0,0,0,0,0,0.00,0
486,50,0,0,0,49,48,47,46,45,44,0,0,0,0,0,0,0,0,0,0,0,0,0,49,48,47,46,45,44,0,0,0,0,0,0,0,0,0,0,0,0,0,0.00,0
488,4,0,0,0,3,2,1,0,0,0,0,0,0,0,0,0,0,0,0,0,0,0,0,3,2,1,0,0,0,0,0,0,0,0,0,0,0,0,0,0,0,0,0.00,0
490,24,0,0,0,23,12,6,0,0,0,0,0,0,0,0,0,0,0,0,0,0,0,0,23,2,1,0,0,0,0,0,0,0,0,0,0,0,0,0,0,0,0,1.00,0
492,32,0,0,0,31,16,8,0,0,0,0,0,0,0,0,0,0,0,0,0,0,0,0,31,2,1,0,0,0,0,0,0,0,0,0,0,0,0,0,0,0,0,1.00,0
494,80,0,0,0,69,56,47,31,19,14,0,0,0,0,0,0,0,0,0,0,0,0,0,26,20,11,9,7,6,0,0,0,0,0,0,0,0,0,0,0,0,0,1.37,0
496,80,0,0,0,69,56,47,31,19,14,0,0,0,0,0,0,0,0,0,0,0,0,0,26,20,11,9,7,6,0,0,0,0,0,0,0,0,0,0,0,0,0,1.37,0
498,56,0,0,0,45,34,27,16,10,7,0,0,0,0,0,0,0,0,0,0,0,0,0,26,20,11,9,7,6,0,0,0,0,0,0,0,0,0,0,0,0,0,1.49,0
500,80,0,0,0,79,72,69,64,59,56,0,0,0,0,0,0,0,0,0,0,0,0,0,79,28,27,25,23,22,0,0,0,0,0,0,0,0,0,0,0,0,0,0.38,0
502,10,0,0,0,9,8,7,6,5,4,0,0,0,0,0,0,0,0,0,0,0,0,0,9,8,7,6,5,4,0,0,0,0,0,0,0,0,0,0,0,0,0,0.00,0
504,60,0,0,0,59,52,49,44,39,36,0,0,0,0,0,0,0,0,0,0,0,0,0,59,18,17,15,13,12,0,0,0,0,0,0,0,0,0,0,0,0,0,0.47,0
506,8,0,0,0,7,6,5,4,3,2,0,0,0,0,0,0,0,0,0,0,0,0,0,7,6,5,4,3,2,0,0,0,0,0,0,0,0,0,0,0,0,0,0.00,0
508,64,0,5,0,56,48,40,30,8,1,0,0,0,0,0,0,0,0,0,0,0,0,0,13,12,5,4,2,1,0,0,0,0,0,0,0,0,0,0,0,0,0,1.33,0
510,32,0,2,0,29,26,23,19,15,12,0,0,0,0,0,0,0,0,0,0,0,0,0,16,15,14,12,10,9,0,0,0,0,0,0,0,0,0,0,0,0,0,0.73,0
