pkt#,size,#dec,#op,#rung,#2gram,#3gram,#4gram,#5gram,#6gram,#7gram,#8gram,#9gram,#10gram,#11gram,#12gram,#13gram,#14gram,#15gram,#16gram,#17gram,#18gram,#19gram,#20gram,L2gram,L3gram,L4gram,L5gram,L6gram,L7gram,L8gram,L9gram,L10gram,L11gram,L12gram,L13gram,L14gram,L15gram,L16gram,L17gram,L18gram,L19gram,L20gram,entropy,class
1603,2,0,0,0,0,0,0,0,0,0,0,0,0,0,0,0,0,0,0,0,0,0,0,0,0,0,0,0,0,0,0,0,0,0,0,0,0,0,0,0,0,0,1.00,0
1607,78,6,10,1,66,51,40,33,30,28,0,0,0,0,0,0,0,0,0,0,0,0,0,31,30,29,27,25,24,0,0,0,0,0,0,0,0,0,0,0,0,0,2.16,0
1611,80,6,8,0,61,37,21,13,9,6,1,0,0,0,0,0,0,0,0,0,0,0,0,16,10,8,6,5,3,1,0,0,0,0,0,0,0,0,0,0,0,0,3.16,0
1613,80,6,15,0,57,17,1,0,0,0,0,0,0,0,0,0,0,0,0,0,0,0,0,6,3,1,0,0,0,0,0,0,0,0,0,0,0,0,0,0,0,0,2.82,0
1615,80,6,11,0,59,29,18,12,3,0,0,0,0,0,0,0,0,0,0,0,0,0,0,9,6,5,4,2,0,0,0,0,0,0,0,0,0,0,0,0,0,0,3.26,0
1617,80,6,10,0,64,36,24,16,7,1,0,0,0,0,0,0,0,0,0,0,0,0,0,9,7,6,5,3,1,0,0,0,0,0,0,0,0,0,0,0,0,0,3.28,0
1619,80,6,13,0,67,43,32,22,7,1,0,0,0,0,0,0,0,0,0,0,0,0,0,12,7,5,4,2,1,0,0,0,0,0,0,0,0,0,0,0,0,0,2.86,0
1621,44,16,7,0,35,22,13,6,0,0,0,0,0,0,0,0,0,0,0,0,0,0,0,6,5,3,2,0,0,0,0,0,0,0,0,0,0,0,0,0,0,0,2.22,0
1623,64,6,4,0,49,41,34,33,32,30,0,0,0,0,0,0,0,0,0,0,0,0,0,36,35,34,33,32,30,0,0,0,0,0,0,0,0,0,0,0,0,0,2.22,0
1625,80,0,0,0,79,78,77,76,75,74,0,0,0,0,0,0,0,0,0,0,0,0,0,79,78,77,76,75,74,0,0,0,0,0,0,0,0,0,0,0,0,0,0.00,1
1627,78,0,0,0,76,74,73,72,71,70,0,0,0,0,0,0,0,0,0,0,0,0,0,75,74,73,72,71,70,0,0,0,0,0,0,0,0,0,0,0,0,0,0.20,1
1629,76,0,1,0,75,73,72,71,70,69,0,0,0,0,0,0,0,0,0,0,0,0,0,75,73,72,71,70,69,0,0,0,0,0,0,0,0,0,0,0,0,0,0.10,1
1631,74,0,2,0,73,72,71,69,68,67,0,0,0,0,0,0,0,0,0,0,0,0,0,73,72,71,69,68,67,0,0,0,0,0,0,0,0,0,0,0,0,0,0.10,1
1633,72,0,1,0,71,69,68,67,65,64,0,0,0,0,0,0,0,0,0,0,0,0,0,71,69,68,67,65,64,0,0,0,0,0,0,0,0,0,0,0,0,0,0.21,1
1635,70,0,1,0,69,67,66,65,64,62,0,0,0,0,0,0,0,0,0,0,0,0,0,69,67,66,65,64,62,0,0,0,0,0,0,0,0,0,0,0,0,0,0.22,1
1637,68,0,0,0,67,66,65,64,62,61,0,0,0,0,0,0,0,0,0,0,0,0,0,67,66,65,64,62,61,0,0,0,0,0,0,0,0,0,0,0,0,0,0.11,1
1639,66,0,0,0,65,64,63,61,60,59,0,0,0,0,0,0,0,0,0,0,0,0,0,65,64,63,61,60,59,0,0,0,0,0,0,0,0,0,0,0,0,0,0.11,1
1641,64,0,1,0,63,61,60,59,57,56,0,0,0,0,0,0,0,0,0,0,0,0,0,63,61,60,59,57,56,0,0,0,0,0,0,0,0,0,0,0,0,0,0.23,1
1643,62,0,1,0,61,59,58,57,56,55,0,0,0,0,0,0,0,0,0,0,0,0,0,61,59,58,57,56,55,0,0,0,0,0,0,0,0,0,0,0,0,0,0.12,1
1645,60,0,0,0,59,58,57,55,54,53,0,0,0,0,0,0,0,0,0,0,0,0,0,59,58,57,55,54,53,0,0,0,0,0,0,0,0,0,0,0,0,0,0.12,1
1647,58,0,1,0,57,56,55,54,53,52,1,0,0,0,0,0,0,0,0,0,0,0,0,57,56,55,54,53,52,1,0,0,0,0,0,0,0,0,0,0,0,0,0.25,1
1649,56,0,0,0,55,54,53,52,51,50,0,0,0,0,0,0,0,0,0,0,0,0,0,55,54,53,52,51,50,0,0,0,0,0,0,0,0,0,0,0,0,0,0.00,1
1651,54,0,0,0,53,52,51,50,48,47,0,0,0,0,0,0,0,0,0,0,0,0,0,53,52,51,50,48,47,0,0,0,0,0,0,0,0,0,0,0,0,0,0.13,1
1653,52,0,0,0,51,49,48,47,45,44,0,0,0,0,0,0,0,0,0,0,0,0,0,51,49,48,47,45,44,0,0,0,0,0,0,0,0,0,0,0,0,0,0.27,1
1655,50,0,1,0,49,48,47,45,44,42,0,0,0,0,0,0,0,0,0,0,0,0,0,49,48,47,45,44,42,0,0,0,0,0,0,0,0,0,0,0,0,0,0.28,1
1657,48,0,0,0,47,46,45,44,43,42,0,0,0,0,0,0,0,0,0,0,0,0,0,47,46,45,44,43,42,0,0,0,0,0,0,0,0,0,0,0,0,0,0.00,1
1659,46,0,1,0,45,43,42,41,39,38,0,0,0,0,0,0,0,0,0,0,0,0,0,45,43,42,41,39,38,0,0,0,0,0,0,0,0,0,0,0,0,0,0.30,1
1661,44,0,0,0,43,42,41,39,38,37,0,0,0,0,0,0,0,0,0,0,0,0,0,43,42,41,39,38,37,0,0,0,0,0,0,0,0,0,0,0,0,0,0.16,1
1663,42,0,1,0,41,39,38,37,36,35,0,0,0,0,0,0,0,0,0,0,0,0,0,41,39,38,37,36,35,0,0,0,0,0,0,0,0,0,0,0,0,0,0.16,1
1665,40,0,0,0,39,38,37,35,34,33,0,0,0,0,0,0,0,0,0,0,0,0,0,39,38,37,35,34,33,0,0,0,0,0,0,0,0,0,0,0,0,0,0.17,1
1667,38,0,1,0,37,36,35,34,33,32,1,0,0,0,0,0,0,0,0,0,0,0,0,37,36,35,34,33,32,1,0,0,0,0,0,0,0,0,0,0,0,0,0.35,1
1669,36,0,0,0,35,34,33,32,31,30,0,0,0,0,0,0,0,0,0,0,0,0,0,35,34,33,32,31,30,0,0,0,0,0,0,0,0,0,0,0,0,0,0.00,1
1671,34,0,0,0,33,32,31,30,28,27,0,0,0,0,0,0,0,0,0,0,0,0,0,33,32,31,30,28,27,0,0,0,0,0,0,0,0,0,0,0,0,0,0.19,1
1673,32,0,0,0,31,29,28,27,26,25,0,0,0,0,0,0,0,0,0,0,0,0,0,31,29,28,27,26,25,0,0,0,0,0,0,0,0,0,0,0,0,0,0.20,1
1675,30,0,1,0,29,28,27,26,25,23,1,0,0,0,0,0,0,0,0,0,0,0,0,29,28,27,26,25,23,1,0,0,0,0,0,0,0,0,0,0,0,0,0.42,1
1677,28,0,0,0,27,26,25,24,23,22,0,0,0,0,0,0,0,0,0,0,0,0,0,27,26,25,24,23,22,0,0,0,0,0,0,0,0,0,0,0,0,0,0.00,1
1679,26,0,1,0,25,23,22,21,19,18,0,0,0,0,0,0,0,0,0,0,0,0,0,25,23,22,21,19,18,0,0,0,0,0,0,0,0,0,0,0,0,0,0.47,1
1681,24,0,1,0,23,22,21,20,18,17,0,0,0,0,0,0,0,0,0,0,0,0,0,23,22,21,20,18,17,0,0,0,0,0,0,0,0,0,0,0,0,0,0.25,1
1683,22,0,0,0,21,20,19,18,17,16,0,0,0,0,0,0,0,0,0,0,0,0,0,21,20,19,18,17,16,0,0,0,0,0,0,0,0,0,0,0,0,0,0.00,1
1685,20,0,1,0,19,16,15,14,13,12,0,0,0,0,0,0,0,0,0,0,0,0,0,19,16,15,14,13,12,0,0,0,0,0,0,0,0,0,0,0,0,0,0.57,1
1687,18,0,1,0,17,15,14,13,12,11,0,0,0,0,0,0,0,0,0,0,0,0,0,17,15,14,13,12,11,0,0,0,0,0,0,0,0,0,0,0,0,0,0.31,1
1689,16,0,0,0,15,14,13,11,10,9,0,0,0,0,0,0,0,0,0,0,0,0,0,15,14,13,11,10,9,0,0,0,0,0,0,0,0,0,0,0,0,0,0.34,1
1691,14,0,1,0,13,11,10,9,7,6,0,0,0,0,0,0,0,0,0,0,0,0,0,13,11,10,9,7,6,0,0,0,0,0,0,0,0,0,0,0,0,0,0.73,1
1693,12,0,2,0,11,10,9,7,6,5,0,0,0,0,0,0,0,0,0,0,0,0,0,11,10,9,7,6,5,0,0,0,0,0,0,0,0,0,0,0,0,0,0.41,1
1695,10,0,1,0,9,7,6,5,3,2,0,0,0,0,0,0,0,0,0,0,0,0,0,9,7,6,5,3,2,0,0,0,0,0,0,0,0,0,0,0,0,0,0.92,1
1697,8,0,1,0,7,6,5,4,3,2,0,0,0,0,0,0,0,0,0,0,0,0,0,7,6,5,4,3,2,0,0,0,0,0,0,0,0,0,0,0,0,0,1.06,1
1699,6,0,1,0,5,4,3,2,0,0,0,0,0,0,0,0,0,0,0,0,0,0,0,5,4,3,2,0,0,0,0,0,0,0,0,0,0,0,0,0,0,0,0.65,1
1701,4,0,1,0,3,1,0,0,0,0,0,0,0,0,0,0,0,0,0,0,0,0,0,3,1,0,0,0,0,0,0,0,0,0,0,0,0,0,0,0,0,0,1.50,1
1703,2,0,0,0,1,0,0,0,0,0,0,0,0,0,0,0,0,0,0,0,0,0,0,1,0,0,0,0,0,0,0,0,0,0,0,0,0,0,0,0,0,0,1.00,1
1705,80,0,2,0,79,78,77,75,74,73,0,0,0,0,0,0,0,0,0,0,0,0,0,79,78,77,75,74,73,0,0,0,0,0,0,0,0,0,0,0,0,0,0.10,1
1707,78,0,1,0,77,75,74,73,71,70,0,0,0,0,0,0,0,0,0,0,0,0,0,77,75,74,73,71,70,0,0,0,0,0,0,0,0,0,0,0,0,0,0.20,1
1709,76,0,1,0,75,74,73,72,71,69,1,0,0,0,0,0,0,0,0,0,0,0,0,75,74,73,72,71,69,1,0,0,0,0,0,0,0,0,0,0,0,0,0.20,1
1711,74,0,1,0,73,72,71,70,68,67,0,0,0,0,0,0,0,0,0,0,0,0,0,73,72,71,70,68,67,0,0,0,0,0,0,0,0,0,0,0,0,0,0.10,1
1713,72,0,1,0,71,70,69,67,66,65,0,0,0,0,0,0,0,0,0,0,0,0,0,71,70,69,67,66,65,0,0,0,0,0,0,0,0,0,0,0,0,0,0.11,1
1715,70,0,1,0,69,68,67,66,64,63,0,0,0,0,0,0,0,0,0,0,0,0,0,69,68,67,66,64,63,0,0,0,0,0,0,0,0,0,0,0,0,0,0.11,1
1717,68,0,2,0,67,65,64,63,62,61,0,0,0,0,0,0,0,0,0,0,0,0,0,67,65,64,63,62,61,0,0,0,0,0,0,0,0,0,0,0,0,0,0.11,1
1719,66,0,1,0,65,64,63,61,60,59,0,0,0,0,0,0,0,0,0,0,0,0,0,65,64,63,61,60,59,0,0,0,0,0,0,0,0,0,0,0,0,0,0.11,1
1721,64,0,0,0,63,62,60,59,57,56,0,0,0,0,0,0,0,0,0,0,0,0,0,63,62,60,59,57,56,0,0,0,0,0,0,0,0,0,0,0,0,0,0.23,1
1723,62,0,1,0,61,60,59,57,56,54,0,0,0,0,0,0,0,0,0,0,0,0,0,61,60,59,57,56,54,0,0,0,0,0,0,0,0,0,0,0,0,0,0.24,1
1725,60,0,0,0,59,58,57,56,55,54,0,0,0,0,0,0,0,0,0,0,0,0,0,59,58,57,56,55,54,0,0,0,0,0,0,0,0,0,0,0,0,0,0.00,1
1727,58,0,1,0,57,56,55,54,53,52,1,0,0,0,0,0,0,0,0,0,0,0,0,57,56,55,54,53,52,1,0,0,0,0,0,0,0,0,0,0,0,0,0.25,1
1729,56,0,0,0,55,54,53,52,51,50,0,0,0,0,0,0,0,0,0,0,0,0,0,55,54,53,52,51,50,0,0,0,0,0,0,0,0,0,0,0,0,0,0.00,1
1731,54,0,0,0,53,52,51,50,48,47,0,0,0,0,0,0,0,0,0,0,0,0,0,53,52,51,50,48,47,0,0,0,0,0,0,0,0,0,0,0,0,0,0.13,1
1733,52,0,1,0,51,49,48,47,45,44,0,0,0,0,0,0,0,0,0,0,0,0,0,51,49,48,47,45,44,0,0,0,0,0,0,0,0,0,0,0,0,0,0.27,1
1735,50,0,1,0,49,48,47,45,44,43,1,0,0,0,0,0,0,0,0,0,0,0,0,49,48,47,45,44,43,1,0,0,0,0,0,0,0,0,0,0,0,0,0.28,1
1737,48,0,0,0,47,46,45,44,43,42,0,0,0,0,0,0,0,0,0,0,0,0,0,47,46,45,44,43,42,0,0,0,0,0,0,0,0,0,0,0,0,0,0.00,1
1739,46,0,0,0,45,43,42,41,40,39,0,0,0,0,0,0,0,0,0,0,0,0,0,45,43,42,41,40,39,0,0,0,0,0,0,0,0,0,0,0,0,0,0.15,1
1741,44,0,1,0,43,42,41,40,39,37,1,0,0,0,0,0,0,0,0,0,0,0,0,43,42,41,40,39,37,1,0,0,0,0,0,0,0,0,0,0,0,0,0.31,1
1743,42,0,0,0,41,40,39,38,37,36,0,0,0,0,0,0,0,0,0,0,0,0,0,41,40,39,38,37,36,0,0,0,0,0,0,0,0,0,0,0,0,0,0.00,1
1745,40,0,0,0,39,38,37,36,35,34,0,0,0,0,0,0,0,0,0,0,0,0,0,39,38,37,36,35,34,0,0,0,0,0,0,0,0,0,0,0,0,0,0.00,1
1747,38,0,1,0,36,34,33,32,31,30,0,0,0,0,0,0,0,0,0,0,0,0,0,35,34,33,32,31,30,0,0,0,0,0,0,0,0,0,0,0,0,0,0.35,1
1749,36,0,1,0,35,33,32,31,30,29,0,0,0,0,0,0,0,0,0,0,0,0,0,35,33,32,31,30,29,0,0,0,0,0,0,0,0,0,0,0,0,0,0.18,1
1751,34,0,1,0,33,32,31,29,28,27,0,0,0,0,0,0,0,0,0,0,0,0,0,33,32,31,29,28,27,0,0,0,0,0,0,0,0,0,0,0,0,0,0.19,1
1753,32,0,1,0,31,29,28,27,25,24,0,0,0,0,0,0,0,0,0,0,0,0,0,31,29,28,27,25,24,0,0,0,0,0,0,0,0,0,0,0,0,0,0.40,1
1755,30,0,1,0,29,28,27,26,25,23,1,0,0,0,0,0,0,0,0,0,0,0,0,29,28,27,26,25,23,1,0,0,0,0,0,0,0,0,0,0,0,0,0.42,1
1757,28,0,0,0,27,26,25,24,22,21,0,0,0,0,0,0,0,0,0,0,0,0,0,27,26,25,24,22,21,0,0,0,0,0,0,0,0,0,0,0,0,0,0.22,1
1759,26,0,1,0,25,24,23,21,20,19,0,0,0,0,0,0,0,0,0,0,0,0,0,25,24,23,21,20,19,0,0,0,0,0,0,0,0,0,0,0,0,0,0.24,1
1761,24,0,1,0,23,21,20,19,17,16,0,0,0,0,0,0,0,0,0,0,0,0,0,23,21,20,19,17,16,0,0,0,0,0,0,0,0,0,0,0,0,0,0.50,1
1763,22,0,1,0,21,20,19,18,17,16,1,0,0,0,0,0,0,0,0,0,0,0,0,21,20,19,18,17,16,1,0,0,0,0,0,0,0,0,0,0,0,0,0.53,1
1765,20,0,1,0,19,18,17,16,14,13,0,0,0,0,0,0,0,0,0,0,0,0,0,19,18,17,16,14,13,0,0,0,0,0,0,0,0,0,0,0,0,0,0.29,1
1767,18,0,1,0,17,15,14,13,11,10,0,0,0,0,0,0,0,0,0,0,0,0,0,17,15,14,13,11,10,0,0,0,0,0,0,0,0,0,0,0,0,0,0.61,1
1769,16,0,1,0,15,14,13,12,10,9,0,0,0,0,0,0,0,0,0,0,0,0,0,15,14,13,12,10,9,0,0,0,0,0,0,0,0,0,0,0,0,0,0.34,1
1771,14,0,1,0,13,11,10,9,7,6,0,0,0,0,0,0,0,0,0,0,0,0,0,13,11,10,9,7,6,0,0,0,0,0,0,0,0,0,0,0,0,0,0.73,1
1773,12,0,1,0,11,10,9,8,7,6,1,0,0,0,0,0,0,0,0,0,0,0,0,11,10,9,8,7,6,1,0,0,0,0,0,0,0,0,0,0,0,0,0.82,1
1775,10,0,0,0,9,8,7,6,5,4,0,0,0,0,0,0,0,0,0,0,0,0,0,9,8,7,6,5,4,0,0,0,0,0,0,0,0,0,0,0,0,0,0.00,1
1777,8,0,0,0,7,6,5,4,3,2,0,0,0,0,0,0,0,0,0,0,0,0,0,7,6,5,4,3,2,0,0,0,0,0,0,0,0,0,0,0,0,0,0.00,1
1779,6,0,1,0,4,2,1,0,0,0,0,0,0,0,0,0,0,0,0,0,0,0,0,3,2,1,0,0,0,0,0,0,0,0,0,0,0,0,0,0,0,0,1.25,1
1781,4,0,1,0,3,1,0,0,0,0,0,0,0,0,0,0,0,0,0,0,0,0,0,3,1,0,0,0,0,0,0,0,0,0,0,0,0,0,0,0,0,0,0.81,1
1783,2,0,1,0,1,0,0,0,0,0,0,0,0,0,0,0,0,0,0,0,0,0,0,1,0,0,0,0,0,0,0,0,0,0,0,0,0,0,0,0,0,0,1.00,1
1785,80,0,1,0,79,77,76,75,73,72,0,0,0,0,0,0,0,0,0,0,0,0,0,79,77,76,75,73,72,0,0,0,0,0,0,0,0,0,0,0,0,0,0.19,1
1787,78,0,1,0,77,76,75,74,73,72,1,0,0,0,0,0,0,0,0,0,0,0,0,77,76,75,74,73,72,1,0,0,0,0,0,0,0,0,0,0,0,0,0.20,1
1789,76,0,0,0,75,74,73,72,70,69,0,0,0,0,0,0,0,0,0,0,0,0,0,75,74,73,72,70,69,0,0,0,0,0,0,0,0,0,0,0,0,0,0.10,1
1791,74,0,1,0,73,72,71,69,68,67,0,0,0,0,0,0,0,0,0,0,0,0,0,73,72,71,69,68,67,0,0,0,0,0,0,0,0,0,0,0,0,0,0.10,1
1793,72,0,1,0,71,69,68,67,65,64,0,0,0,0,0,0,0,0,0,0,0,0,0,71,69,68,67,65,64,0,0,0,0,0,0,0,0,0,0,0,0,0,0.21,1
1795,70,0,1,0,69,68,67,66,65,63,1,0,0,0,0,0,0,0,0,0,0,0,0,69,68,67,66,65,63,1,0,0,0,0,0,0,0,0,0,0,0,0,0.22,1
1797,68,0,1,0,67,66,65,64,62,61,0,0,0,0,0,0,0,0,0,0,0,0,0,67,66,65,64,62,61,0,0,0,0,0,0,0,0,0,0,0,0,0,0.11,1
1799,66,0,1,0,65,63,62,61,59,58,0,0,0,0,0,0,0,0,0,0,0,0,0,65,63,62,61,59,58,0,0,0,0,0,0,0,0,0,0,0,0,0,0.23,1
1801,64,0,1,0,63,62,61,60,58,57,0,0,0,0,0,0,0,0,0,0,0,0,0,63,62,61,60,58,57,0,0,0,0,0,0,0,0,0,0,0,0,0,0.12,1
1803,62,0,1,0,61,59,58,57,55,54,0,0,0,0,0,0,0,0,0,0,0,0,0,61,59,58,57,55,54,0,0,0,0,0,0,0,0,0,0,0,0,0,0.24,1
1805,60,0,1,0,59,58,57,56,55,53,1,0,0,0,0,0,0,0,0,0,0,0,0,59,58,57,56,55,53,1,0,0,0,0,0,0,0,0,0,0,0,0,0.24,1
1807,58,0,0,0,57,56,55,54,52,51,0,0,0,0,0,0,0,0,0,0,0,0,0,57,56,55,54,52,51,0,0,0,0,0,0,0,0,0,0,0,0,0,0.13,1
1809,56,0,0,0,55,54,53,52,51,50,0,0,0,0,0,0,0,0,0,0,0,0,0,55,54,53,52,51,50,0,0,0,0,0,0,0,0,0,0,0,0,0,0.00,1
1811,54,0,1,0,52,50,49,48,47,46,0,0,0,0,0,0,0,0,0,0,0,0,0,51,50,49,48,47,46,0,0,0,0,0,0,0,0,0,0,0,0,0,0.27,1
1813,52,0,0,0,51,49,48,47,46,45,0,0,0,0,0,0,0,0,0,0,0,0,0,51,49,48,47,46,45,0,0,0,0,0,0,0,0,0,0,0,0,0,0.14,1
1815,50,0,2,0,49,48,47,45,44,43,0,0,0,0,0,0,0,0,0,0,0,0,0,49,48,47,45,44,43,0,0,0,0,0,0,0,0,0,0,0,0,0,0.14,1
1817,48,0,0,0,47,46,45,44,43,42,0,0,0,0,0,0,0,0,0,0,0,0,0,47,46,45,44,43,42,0,0,0,0,0,0,0,0,0,0,0,0,0,0.00,1
1819,46,0,1,0,45,44,43,42,41,39,1,0,0,0,0,0,0,0,0,0,0,0,0,45,44,43,42,41,39,1,0,0,0,0,0,0,0,0,0,0,0,0,0.30,1
1821,44,0,0,0,43,42,41,40,39,38,0,0,0,0,0,0,0,0,0,0,0,0,0,43,42,41,40,39,38,0,0,0,0,0,0,0,0,0,0,0,0,0,0.00,1
1823,42,0,2,0,41,40,39,37,36,35,0,0,0,0,0,0,0,0,0,0,0,0,0,41,40,39,37,36,35,0,0,0,0,0,0,0,0,0,0,0,0,0,0.16,1
1825,40,0,0,0,39,38,37,36,35,34,0,0,0,0,0,0,0,0,0,0,0,0,0,39,38,37,36,35,34,0,0,0,0,0,0,0,0,0,0,0,0,0,0.00,1
1827,38,0,1,0,37,36,35,34,33,31,1,0,0,0,0,0,0,0,0,0,0,0,0,37,36,35,34,33,31,1,0,0,0,0,0,0,0,0,0,0,0,0,0.35,1
1829,36,0,0,0,35,34,33,32,31,30,0,0,0,0,0,0,0,0,0,0,0,0,0,35,34,33,32,31,30,0,0,0,0,0,0,0,0,0,0,0,0,0,0.00,1
1831,34,0,0,0,33,32,31,30,29,28,0,0,0,0,0,0,0,0,0,0,0,0,0,33,32,31,30,29,28,0,0,0,0,0,0,0,0,0,0,0,0,0,0.00,1
1833,32,0,1,0,30,28,27,26,25,24,0,0,0,0,0,0,0,0,0,0,0,0,0,29,28,27,26,25,24,0,0,0,0,0,0,0,0,0,0,0,0,0,0.40,1
1835,30,0,0,0,29,27,26,25,24,23,0,0,0,0,0,0,0,0,0,0,0,0,0,29,27,26,25,24,23,0,0,0,0,0,0,0,0,0,0,0,0,0,0.21,1
1837,28,0,2,0,27,26,25,23,22,21,0,0,0,0,0,0,0,0,0,0,0,0,0,27,26,25,23,22,21,0,0,0,0,0,0,0,0,0,0,0,0,0,0.22,1
1839,26,0,0,0,25,24,23,22,21,20,0,0,0,0,0,0,0,0,0,0,0,0,0,25,24,23,22,21,20,0,0,0,0,0,0,0,0,0,0,0,0,0,0.00,1
1841,24,0,1,0,23,22,21,20,19,17,1,0,0,0,0,0,0,0,0,0,0,0,0,23,22,21,20,19,17,1,0,0,0,0,0,0,0,0,0,0,0,0,0.50,1
1843,22,0,0,0,21,20,19,18,16,15,0,0,0,0,0,0,0,0,0,0,0,0,0,21,20,19,18,16,15,0,0,0,0,0,0,0,0,0,0,0,0,0,0.27,1
1845,20,0,2,0,19,18,17,15,14,13,0,0,0,0,0,0,0,0,0,0,0,0,0,19,18,17,15,14,13,0,0,0,0,0,0,0,0,0,0,0,0,0,0.29,1
1847,18,0,0,0,17,16,15,14,13,12,0,0,0,0,0,0,0,0,0,0,0,0,0,17,16,15,14,13,12,0,0,0,0,0,0,0,0,0,0,0,0,0,0.00,1
1849,16,0,1,0,15,14,13,12,11,9,1,0,0,0,0,0,0,0,0,0,0,0,0,15,14,13,12,11,9,1,0,0,0,0,0,0,0,0,0,0,0,0,0.67,1
1851,14,0,0,0,13,12,11,10,8,7,0,0,0,0,0,0,0,0,0,0,0,0,0,13,12,11,10,8,7,0,0,0,0,0,0,0,0,0,0,0,0,0,0.37,1
1853,12,0,0,0,11,10,9,8,7,6,0,0,0,0,0,0,0,0,0,0,0,0,0,11,10,9,8,7,6,0,0,0,0,0,0,0,0,0,0,0,0,0,0.00,1
1855,10,0,1,0,8,6,5,4,3,2,0,0,0,0,0,0,0,0,0,0,0,0,0,7,6,5,4,3,2,0,0,0,0,0,0,0,0,0,0,0,0,0,0.92,1
1857,8,0,0,0,7,5,4,3,2,1,0,0,0,0,0,0,0,0,0,0,0,0,0,7,5,4,3,2,1,0,0,0,0,0,0,0,0,0,0,0,0,0,0.54,1
1859,6,0,2,0,5,4,3,1,0,0,0,0,0,0,0,0,0,0,0,0,0,0,0,5,4,3,1,0,0,0,0,0,0,0,0,0,0,0,0,0,0,0,0.65,1
1861,4,0,0,0,3,2,1,0,0,0,0,0,0,0,0,0,0,0,0,0,0,0,0,3,2,1,0,0,0,0,0,0,0,0,0,0,0,0,0,0,0,0,0.00,1
1863,2,0,0,0,1,0,0,0,0,0,0,0,0,0,0,0,0,0,0,0,0,0,0,1,0,0,0,0,0,0,0,0,0,0,0,0,0,0,0,0,0,0,1.00,1
1865,18,0,1,0,17,16,15,14,12,11,0,0,0,0,0,0,0,0,0,0,0,0,0,17,16,15,14,12,11,0,0,0,0,0,0,0,0,0,0,0,0,0,0.31,1
1867,16,0,2,0,15,14,13,11,10,9,0,0,0,0,0,0,0,0,0,0,0,0,0,15,14,13,11,10,9,0,0,0,0,0,0,0,0,0,0,0,0,0,0.34,1
1869,14,0,0,0,13,12,11,10,9,8,0,0,0,0,0,0,0,0,0,0,0,0,0,13,12,11,10,9,8,0,0,0,0,0,0,0,0,0,0,0,0,0,0.00,1
1871,12,0,1,0,11,10,9,8,7,5,1,0,0,0,0,0,0,0,0,0,0,0,0,11,10,9,8,7,5,1,0,0,0,0,0,0,0,0,0,0,0,0,0.82,1
1873,10,0,1,0,9,8,7,6,4,3,0,0,0,0,0,0,0,0,0,0,0,0,0,9,8,7,6,4,3,0,0,0,0,0,0,0,0,0,0,0,0,0,0.47,1
1875,8,0,0,0,7,6,5,4,3,2,0,0,0,0,0,0,0,0,0,0,0,0,0,7,6,5,4,3,2,0,0,0,0,0,0,0,0,0,0,0,0,0,0.00,1
1877,6,0,1,0,5,4,3,1,0,0,0,0,0,0,0,0,0,0,0,0,0,0,0,5,4,3,1,0,0,0,0,0,0,0,0,0,0,0,0,0,0,0,0.65,1
1879,4,0,0,0,3,2,1,0,0,0,0,0,0,0,0,0,0,0,0,0,0,0,0,3,2,1,0,0,0,0,0,0,0,0,0,0,0,0,0,0,0,0,0.81,1
1881,2,0,1,0,1,0,0,0,0,0,0,0,0,0,0,0,0,0,0,0,0,0,0,1,0,0,0,0,0,0,0,0,0,0,0,0,0,0,0,0,0,0,1.00,1
1883,8,0,0,0,7,6,5,4,3,2,0,0,0,0,0,0,0,0,0,0,0,0,0,7,6,5,4,3,2,0,0,0,0,0,0,0,0,0,0,0,0,0,0.00,0
1885,6,0,1,0,5,4,3,1,0,0,0,0,0,0,0,0,0,0,0,0,0,0,0,5,4,3,1,0,0,0,0,0,0,0,0,0,0,0,0,0,0,0,0.65,1
1887,4,0,0,0,3,2,1,0,0,0,0,0,0,0,0,0,0,0,0,0,0,0,0,3,2,1,0,0,0,0,0,0,0,0,0,0,0,0,0,0,0,0,0.81,1
1889,2,0,1,0,1,0,0,0,0,0,0,0,0,0,0,0,0,0,0,0,0,0,0,1,0,0,0,0,0,0,0,0,0,0,0,0,0,0,0,0,0,0,1.00,1
1891,8,0,0,0,7,6,5,4,3,2,0,0,0,0,0,0,0,0,0,0,0,0,0,7,6,5,4,3,2,0,0,0,0,0,0,0,0,0,0,0,0,0,0.00,0
1893,6,0,1,0,5,4,3,1,0,0,0,0,0,0,0,0,0,0,0,0,0,0,0,5,4,3,1,0,0,0,0,0,0,0,0,0,0,0,0,0,0,0,0.65,1
1895,4,0,0,0,3,2,1,0,0,0,0,0,0,0,0,0,0,0,0,0,0,0,0,3,2,1,0,0,0,0,0,0,0,0,0,0,0,0,0,0,0,0,0.81,1
1897,2,0,1,0,1,0,0,0,0,0,0,0,0,0,0,0,0,0,0,0,0,0,0,1,0,0,0,0,0,0,0,0,0,0,0,0,0,0,0,0,0,0,1.00,1
1899,8,0,0,0,7,6,5,4,3,2,0,0,0,0,0,0,0,0,0,0,0,0,0,7,6,5,4,3,2,0,0,0,0,0,0,0,0,0,0,0,0,0,0.00,0
1901,6,0,1,0,5,4,3,1,0,0,0,0,0,0,0,0,0,0,0,0,0,0,0,5,4,3,1,0,0,0,0,0,0,0,0,0,0,0,0,0,0,0,0.65,1
1903,4,0,0,0,3,2,1,0,0,0,0,0,0,0,0,0,0,0,0,0,0,0,0,3,2,1,0,0,0,0,0,0,0,0,0,0,0,0,0,0,0,0,0.81,1
1905,2,0,1,0,1,0,0,0,0,0,0,0,0,0,0,0,0,0,0,0,0,0,0,1,0,0,0,0,0,0,0,0,0,0,0,0,0,0,0,0,0,0,1.00,1
1907,8,0,0,0,7,6,5,4,3,2,0,0,0,0,0,0,0,0,0,0,0,0,0,7,6,5,4,3,2,0,0,0,0,0,0,0,0,0,0,0,0,0,0.00,0
1909,6,0,1,0,5,4,3,1,0,0,0,0,0,0,0,0,0,0,0,0,0,0,0,5,4,3,1,0,0,0,0,0,0,0,0,0,0,0,0,0,0,0,0.65,1
1911,4,0,0,0,3,2,1,0,0,0,0,0,0,0,0,0,0,0,0,0,0,0,0,3,2,1,0,0,0,0,0,0,0,0,0,0,0,0,0,0,0,0,0.81,1
1913,2,0,1,0,1,0,0,0,0,0,0,0,0,0,0,0,0,0,0,0,0,0,0,1,0,0,0,0,0,0,0,0,0,0,0,0,0,0,0,0,0,0,1.00,1
1915,8,0,0,0,7,6,5,4,3,2,0,0,0,0,0,0,0,0,0,0,0,0,0,7,6,5,4,3,2,0,0,0,0,0,0,0,0,0,0,0,0,0,0.00,0
1917,6,0,1,0,5,4,3,1,0,0,0,0,0,0,0,0,0,0,0,0,0,0,0,5,4,3,1,0,0,0,0,0,0,0,0,0,0,0,0,0,0,0,0.65,1
1919,4,0,0,0,3,2,1,0,0,0,0,0,0,0,0,0,0,0,0,0,0,0,0,3,2,1,0,0,0,0,0,0,0,0,0,0,0,0,0,0,0,0,0.81,1
1921,2,0,1,0,1,0,0,0,0,0,0,0,0,0,0,0,0,0,0,0,0,0,0,1,0,0,0,0,0,0,0,0,0,0,0,0,0,0,0,0,0,0,1.00,1
1923,8,0,0,0,7,6,5,4,3,2,0,0,0,0,0,0,0,0,0,0,0,0,0,7,6,5,4,3,2,0,0,0,0,0,0,0,0,0,0,0,0,0,0.00,0
1925,6,0,1,0,5,4,3,1,0,0,0,0,0,0,0,0,0,0,0,0,0,0,0,5,4,3,1,0,0,0,0,0,0,0,0,0,0,0,0,0,0,0,0.65,1
1927,4,0,0,0,3,2,1,0,0,0,0,0,0,0,0,0,0,0,0,0,0,0,0,3,2,1,0,0,0,0,0,0,0,0,0,0,0,0,0,0,0,0,0.81,1
1929,2,0,1,0,1,0,0,0,0,0,0,0,0,0,0,0,0,0,0,0,0,0,0,1,0,0,0,0,0,0,0,0,0,0,0,0,0,0,0,0,0,0,1.00,1
1931,8,0,0,0,7,6,5,4,3,2,0,0,0,0,0,0,0,0,0,0,0,0,0,7,6,5,4,3,2,0,0,0,0,0,0,0,0,0,0,0,0,0,0.00,0
1933,6,0,1,0,5,4,3,1,0,0,0,0,0,0,0,0,0,0,0,0,0,0,0,5,4,3,1,0,0,0,0,0,0,0,0,0,0,0,0,0,0,0,0.65,1
1935,4,0,0,0,3,2,1,0,0,0,0,0,0,0,0,0,0,0,0,0,0,0,0,3,2,1,0,0,0,0,0,0,0,0,0,0,0,0,0,0,0,0,0.81,1
1937,2,0,1,0,1,0,0,0,0,0,0,0,0,0,0,0,0,0,0,0,0,0,0,1,0,0,0,0,0,0,0,0,0,0,0,0,0,0,0,0,0,0,1.00,1
1939,8,0,0,0,7,6,5,4,3,2,0,0,0,0,0,0,0,0,0,0,0,0,0,7,6,5,4,3,2,0,0,0,0,0,0,0,0,0,0,0,0,0,0.00,0
1941,6,0,1,0,5,4,3,1,0,0,0,0,0,0,0,0,0,0,0,0,0,0,0,5,4,3,1,0,0,0,0,0,0,0,0,0,0,0,0,0,0,0,0.65,1
1944,4,0,0,0,3,2,1,0,0,0,0,0,0,0,0,0,0,0,0,0,0,0,0,3,2,1,0,0,0,0,0,0,0,0,0,0,0,0,0,0,0,0,0.81,1
1946,2,0,1,0,1,0,0,0,0,0,0,0,0,0,0,0,0,0,0,0,0,0,0,1,0,0,0,0,0,0,0,0,0,0,0,0,0,0,0,0,0,0,1.00,1
1948,8,0,0,0,7,6,5,4,3,2,0,0,0,0,0,0,0,0,0,0,0,0,0,7,6,5,4,3,2,0,0,0,0,0,0,0,0,0,0,0,0,0,0.00,0
1950,6,0,1,0,5,4,3,1,0,0,0,0,0,0,0,0,0,0,0,0,0,0,0,5,4,3,1,0,0,0,0,0,0,0,0,0,0,0,0,0,0,0,0.65,1
1952,4,0,0,0,3,2,1,0,0,0,0,0,0,0,0,0,0,0,0,0,0,0,0,3,2,1,0,0,0,0,0,0,0,0,0,0,0,0,0,0,0,0,0.81,1
1954,2,0,1,0,1,0,0,0,0,0,0,0,0,0,0,0,0,0,0,0,0,0,0,1,0,0,0,0,0,0,0,0,0,0,0,0,0,0,0,0,0,0,1.00,1
1956,8,0,0,0,7,6,5,4,3,2,0,0,0,0,0,0,0,0,0,0,0,0,0,7,6,5,4,3,2,0,0,0,0,0,0,0,0,0,0,0,0,0,0.00,0
1958,6,0,1,0,5,4,3,1,0,0,0,0,0,0,0,0,0,0,0,0,0,0,0,5,4,3,1,0,0,0,0,0,0,0,0,0,0,0,0,0,0,0,0.65,1
1960,4,0,0,0,3,2,1,0,0,0,0,0,0,0,0,0,0,0,0,0,0,0,0,3,2,1,0,0,0,0,0,0,0,0,0,0,0,0,0,0,0,0,0.81,1
1962,2,0,1,0,1,0,0,0,0,0,0,0,0,0,0,0,0,0,0,0,0,0,0,1,0,0,0,0,0,0,0,0,0,0,0,0,0,0,0,0,0,0,1.00,1
1964,8,0,0,0,7,6,5,4,3,2,0,0,0,0,0,0,0,0,0,0,0,0,0,7,6,5,4,3,2,0,0,0,0,0,0,0,0,0,0,0,0,0,0.00,0
1966,6,0,1,0,5,4,3,1,0,0,0,0,0,0,0,0,0,0,0,0,0,0,0,5,4,3,1,0,0,0,0,0,0,0,0,0,0,0,0,0,0,0,0.65,1
1968,4,0,0,0,3,2,1,0,0,0,0,0,0,0,0,0,0,0,0,0,0,0,0,3,2,1,0,0,0,0,0,0,0,0,0,0,0,0,0,0,0,0,0.81,1
1970,2,0,1,0,1,0,0,0,0,0,0,0,0,0,0,0,0,0,0,0,0,0,0,1,0,0,0,0,0,0,0,0,0,0,0,0,0,0,0,0,0,0,1.00,1
1972,8,0,0,0,7,6,5,4,3,2,0,0,0,0,0,0,0,0,0,0,0,0,0,7,6,5,4,3,2,0,0,0,0,0,0,0,0,0,0,0,0,0,0.00,0
1974,6,0,1,0,5,4,3,1,0,0,0,0,0,0,0,0,0,0,0,0,0,0,0,5,4,3,1,0,0,0,0,0,0,0,0,0,0,0,0,0,0,0,0.65,1
1976,4,0,0,0,3,2,1,0,0,0,0,0,0,0,0,0,0,0,0,0,0,0,0,3,2,1,0,0,0,0,0,0,0,0,0,0,0,0,0,0,0,0,0.81,1
1978,2,0,1,0,1,0,0,0,0,0,0,0,0,0,0,0,0,0,0,0,0,0,0,1,0,0,0,0,0,0,0,0,0,0,0,0,0,0,0,0,0,0,1.00,1
1980,8,0,0,0,7,6,5,4,3,2,0,0,0,0,0,0,0,0,0,0,0,0,0,7,6,5,4,3,2,0,0,0,0,0,0,0,0,0,0,0,0,0,0.00,0
1982,6,0,1,0,5,4,3,1,0,0,0,0,0,0,0,0,0,0,0,0,0,0,0,5,4,3,1,0,0,0,0,0,0,0,0,0,0,0,0,0,0,0,0.65,1
1984,4,0,0,0,3,2,1,0,0,0,0,0,0,0,0,0,0,0,0,0,0,0,0,3,2,1,0,0,0,0,0,0,0,0,0,0,0,0,0,0,0,0,0.81,1
1986,2,0,1,0,1,0,0,0,0,0,0,0,0,0,0,0,0,0,0,0,0,0,0,1,0,0,0,0,0,0,0,0,0,0,0,0,0,0,0,0,0,0,1.00,1
1988,80,12,11,0,73,56,44,35,28,23,0,0,0,0,0,0,0,0,0,0,0,0,0,23,22,21,20,19,18,0,0,0,0,0,0,0,0,0,0,0,0,0,1.87,0
1990,10,0,0,0,9,8,7,6,5,4,0,0,0,0,0,0,0,0,0,0,0,0,0,9,8,7,6,5,4,0,0,0,0,0,0,0,0,0,0,0,0,0,0.00,0
1992,80,0,6,0,74,62,53,45,41,38,0,0,0,0,0,0,0,0,0,0,0,0,0,44,43,41,39,38,37,0,0,0,0,0,0,0,0,0,0,0,0,0,1.59,0
1994,80,0,3,0,77,70,67,63,56,53,0,0,0,0,0,0,0,0,0,0,0,0,0,54,46,45,44,41,40,0,0,0,0,0,0,0,0,0,0,0,0,0,0.77,0
1996,80,0,4,0,73,62,57,52,44,40,0,0,0,0,0,0,0,0,0,0,0,0,0,35,33,32,31,29,28,0,0,0,0,0,0,0,0,0,0,0,0,0,1.02,0
1998,26,0,1,0,25,23,21,19,17,16,0,0,0,0,0,0,0,0,0,0,0,0,0,25,21,20,19,17,16,0,0,0,0,0,0,0,0,0,0,0,0,0,0.47,0
2000,80,12,11,0,73,56,44,35,28,23,0,0,0,0,0,0,0,0,0,0,0,0,0,23,22,21,20,19,18,0,0,0,0,0,0,0,0,0,0,0,0,0,1.87,0
2002,10,0,0,0,9,8,7,6,5,4,0,0,0,0,0,0,0,0,0,0,0,0,0,9,8,7,6,5,4,0,0,0,0,0,0,0,0,0,0,0,0,0,0.00,0
2004,80,6,12,0,74,57,45,38,30,28,0,0,0,0,0,0,0,0,0,0,0,0,0,34,33,32,31,29,28,0,0,0,0,0,0,0,0,0,0,0,0,0,1.81,0
2006,22,0,0,0,20,19,18,17,15,14,0,0,0,0,0,0,0,0,0,0,0,0,0,20,19,18,17,15,14,0,0,0,0,0,0,0,0,0,0,0,0,0,0.53,0
2008,12,2,1,0,11,9,6,1,0,0,0,0,0,0,0,0,0,0,0,0,0,0,0,11,5,3,1,0,0,0,0,0,0,0,0,0,0,0,0,0,0,0,1.78,0
2010,28,6,2,0,27,26,22,14,3,0,0,0,0,0,0,0,0,0,0,0,0,0,0,27,26,14,6,1,0,0,0,0,0,0,0,0,0,0,0,0,0,0,1.30,0
2012,34,0,1,0,32,30,28,26,23,22,0,0,0,0,0,0,0,0,0,0,0,0,0,32,29,28,26,23,22,0,0,0,0,0,0,0,0,0,0,0,0,0,0.70,0
2014,2,0,0,0,1,0,0,0,0,0,0,0,0,0,0,0,0,0,0,0,0,0,0,1,0,0,0,0,0,0,0,0,0,0,0,0,0,0,0,0,0,0,0.00,0
2016,12,0,0,0,11,10,9,8,7,6,0,0,0,0,0,0,0,0,0,0,0,0,0,11,10,9,8,7,6,0,0,0,0,0,0,0,0,0,0,0,0,0,0.00,0
2018,16,0,0,0,15,14,13,12,11,10,0,0,0,0,0,0,0,0,0,0,0,0,0,15,14,13,12,11,10,0,0,0,0,0,0,0,0,0,0,0,0,0,0.00,0
2020,80,0,8,0,76,66,54,45,30,23,0,0,0,0,0,0,0,0,0,0,0,0,0,70,31,29,16,12,11,0,0,0,0,0,0,0,0,0,0,0,0,0,1.41,0
2022,52,0,3,0,45,41,37,32,29,28,0,0,0,0,0,0,0,0,0,0,0,0,0,35,34,33,31,29,28,0,0,0,0,0,0,0,0,0,0,0,0,0,1.17,0
2024,64,0,3,0,63,59,54,52,50,49,0,0,0,0,0,0,0,0,0,0,0,0,0,63,55,53,52,50,49,0,0,0,0,0,0,0,0,0,0,0,0,0,0.43,0
2026,80,0,2,0,76,73,71,68,66,65,0,0,0,0,0,0,0,0,0,0,0,0,0,71,70,69,68,66,65,0,0,0,0,0,0,0,0,0,0,0,0,0,0.46,0
2028,80,0,0,0,79,78,77,76,75,74,0,0,0,0,0,0,0,0,0,0,0,0,0,79,78,77,76,75,74,0,0,0,0,0,0,0,0,0,0,0,0,0,0.00,0
2030,80,0,0,0,79,78,77,76,75,74,0,0,0,0,0,0,0,0,0,0,0,0,0,79,78,77,76,75,74,0,0,0,0,0,0,0,0,0,0,0,0,0,0.00,0
2032,80,0,0,0,79,78,77,76,75,74,0,0,0,0,0,0,0,0,0,0,0,0,0,79,78,77,76,75,74,0,0,0,0,0,0,0,0,0,0,0,0,0,0.00,0
2034,80,0,0,0,79,78,77,76,75,74,0,0,0,0,0,0,0,0,0,0,0,0,0,79,78,77,76,75,74,0,0,0,0,0,0,0,0,0,0,0,0,0,0.00,0
2036,32,0,0,0,31,30,29,28,27,26,0,0,0,0,0,0,0,0,0,0,0,0,0,31,30,29,28,27,26,0,0,0,0,0,0,0,0,0,0,0,0,0,0.00,0
2038,80,0,2,0,78,75,74,73,70,69,0,0,0,0,0,0,0,0,0,0,0,0,0,77,75,74,73,70,69,0,0,0,0,0,0,0,0,0,0,0,0,0,0.27,0
2040,16,0,0,0,15,14,13,12,11,10,0,0,0,0,0,0,0,0,0,0,0,0,0,15,14,13,12,11,10,0,0,0,0,0,0,0,0,0,0,0,0,0,0.00,0
2042,80,0,0,0,79,78,77,76,75,74,0,0,0,0,0,0,0,0,0,0,0,0,0,79,78,77,76,75,74,0,0,0,0,0,0,0,0,0,0,0,0,0,0.00,0
2044,80,0,0,0,79,78,77,76,75,74,0,0,0,0,0,0,0,0,0,0,0,0,0,79,78,77,76,75,74,0,0,0,0,0,0,0,0,0,0,0,0,0,0.00,0
2046,50,0,0,0,49,48,47,46,45,44,0,0,0,0,0,0,0,0,0,0,0,0,0,49,48,47,46,45,44,0,0,0,0,0,0,0,0,0,0,0,0,0,0.00,0
2048,4,0,0,0,3,2,1,0,0,0,0,0,0,0,0,0,0,0,0,0,0,0,0,3,2,1,0,0,0,0,0,0,0,0,0,0,0,0,0,0,0,0,0.00,0
2050,24,0,0,0,23,12,6,0,0,0,0,0,0,0,0,0,0,0,0,0,0,0,0,23,2,1,0,0,0,0,0,0,0,0,0,0,0,0,0,0,0,0,1.00,0
2052,32,0,0,0,31,16,8,0,0,0,0,0,0,0,0,0,0,0,0,0,0,0,0,31,2,1,0,0,0,0,0,0,0,0,0,0,0,0,0,0,0,0,1.00,0
2054,80,0,0,0,69,56,47,31,19,14,0,0,0,0,0,0,0,0,0,0,0,0,0,26,20,11,9,7,6,0,0,0,0,0,0,0,0,0,0,0,0,0,1.37,0
2056,80,0,0,0,69,56,47,31,19,14,0,0,0,0,0,0,0,0,0,0,0,0,0,26,20,11,9,7,6,0,0,0,0,0,0,0,0,0,0,0,0,0,1.37,0
2058,56,0,0,0,45,34,27,16,10,7,0,0,0,0,0,0,0,0,0,0,0,0,0,26,20,11,9,7,6,0,0,0,0,0,0,0,0,0,0,0,0,0,1.49,0
2060,80,0,0,0,79,72,69,64,59,56,0,0,0,0,0,0,0,0,0,0,0,0,0,79,28,27,25,23,22,0,0,0,0,0,0,0,0,0,0,0,0,0,0.38,0
2062,10,0,0,0,9,8,7,6,5,4,0,0,0,0,0,0,0,0,0,0,0,0,0,9,8,7,6,5,4,0,0,0,0,0,0,0,0,0,0,0,0,0,0.00,0
2064,60,0,0,0,59,52,49,44,39,36,0,0,0,0,0,0,0,0,0,0,0,0,0,59,18,17,15,13,12,0,0,0,0,0,0,0,0,0,0,0,0,0,0.47,0
2066,8,0,0,0,7,6,5,4,3,2,0,0,0,0,0,0,0,0,0,0,0,0,0,7,6,5,4,3,2,0,0,0,0,0,0,0,0,0,0,0,0,0,0.00,0
2068,64,0,5,0,56,48,40,30,8,1,0,0,0,0,0,0,0,0,0,0,0,0,0,13,12,5,4,2,1,0,0,0,0,0,0,0,0,0,0,0,0,0,1.33,0
2070,32,0,2,0,29,26,23,19,15,12,0,0,0,0,0,0,0,0,0,0,0,0,0,16,15,14,12,10,9,0,0,0,0,0,0,0,0,0,0,0,0,0,0.73,0
2094,80,12,11,0,73,56,44,35,28,23,0,0,0,0,0,0,0,0,0,0,0,0,0,23,22,21,20,19,18,0,0,0,0,0,0,0,0,0,0,0,0,0,1.87,0
2096,10,0,0,0,9,8,7,6,5,4,0,0,0,0,0,0,0,0,0,0,0,0,0,9,8,7,6,5,4,0,0,0,0,0,0,0,0,0,0,0,0,0,0.00,0
2098,80,12,11,0,73,56,44,35,28,23,0,0,0,0,0,0,0,0,0,0,0,0,0,23,22,21,20,19,18,0,0,0,0,0,0,0,0,0,0,0,0,0,1.87,0
2100,10,0,0,0,9,8,7,6,5,4,0,0,0,0,0,0,0,0,0,0,0,0,0,9,8,7,6,5,4,0,0,0,0,0,0,0,0,0,0,0,0,0,0.00,0
2102,80,6,12,0,74,57,45,38,30,28,0,0,0,0,0,0,0,0,0,0,0,0,0,34,33,32,31,29,28,0,0,0,0,0,0,0,0,0,0,0,0,0,1.81,0
2104,22,0,0,0,20,19,18,17,15,14,0,0,0,0,0,0,0,0,0,0,0,0,0,20,19,18,17,15,14,0,0,0,0,0,0,0,0,0,0,0,0,0,0.53,0
2106,80,0,6,0,74,62,53,45,41,38,0,0,0,0,0,0,0,0,0,0,0,0,0,44,43,41,39,38,37,0,0,0,0,0,0,0,0,0,0,0,0,0,1.59,0
2108,80,0,3,0,77,70,67,63,56,53,0,0,0,0,0,0,0,0,0,0,0,0,0,54,46,45,44,41,40,0,0,0,0,0,0,0,0,0,0,0,0,0,0.77,0
2110,80,0,4,0,73,62,57,52,44,40,0,0,0,0,0,0,0,0,0,0,0,0,0,35,33,32,31,29,28,0,0,0,0,0,0,0,0,0,0,0,0,0,1.02,0
2112,26,0,1,0,25,23,21,19,17,16,0,0,0,0,0,0,0,0,0,0,0,0,0,25,21,20,19,17,16,0,0,0,0,0,0,0,0,0,0,0,0,0,0.47,0
