pkt#,size,#dec,#op,#rung,#2gram,#3gram,#4gram,#5gram,#6gram,#7gram,#8gram,#9gram,#10gram,#11gram,#12gram,#13gram,#14gram,#15gram,#16gram,#17gram,#18gram,#19gram,#20gram,L2gram,L3gram,L4gram,L5gram,L6gram,L7gram,L8gram,L9gram,L10gram,L11gram,L12gram,L13gram,L14gram,L15gram,L16gram,L17gram,L18gram,L19gram,L20gram,entropy,class
1105,2,0,0,0,0,0,0,0,0,0,0,0,0,0,0,0,0,0,0,0,0,0,0,0,0,0,0,0,0,0,0,0,0,0,0,0,0,0,0,0,0,0,1.00,0
1107,78,6,11,1,66,51,40,33,30,28,0,0,0,0,0,0,0,0,0,0,0,0,0,31,30,29,27,25,24,0,0,0,0,0,0,0,0,0,0,0,0,0,2.19,0
1109,80,6,12,0,58,35,23,15,9,4,0,0,0,0,0,0,0,0,0,0,0,0,0,12,8,7,5,4,3,0,0,0,0,0,0,0,0,0,0,0,0,0,3.12,0
1111,80,6,7,0,64,33,22,15,6,2,1,0,0,0,0,0,0,0,0,0,0,0,0,9,7,6,5,3,2,1,0,0,0,0,0,0,0,0,0,0,0,0,3.29,0
1113,80,6,1,0,71,47,34,24,11,3,1,0,0,0,0,0,0,0,0,0,0,0,0,9,7,6,5,3,2,1,0,0,0,0,0,0,0,0,0,0,0,0,2.59,0
1115,80,16,13,0,66,42,28,17,3,0,0,0,0,0,0,0,0,0,0,0,0,0,0,15,6,5,4,2,0,0,0,0,0,0,0,0,0,0,0,0,0,0,2.75,0
1117,4,0,0,0,3,2,1,0,0,0,0,0,0,0,0,0,0,0,0,0,0,0,0,3,2,1,0,0,0,0,0,0,0,0,0,0,0,0,0,0,0,0,0.00,0
1119,64,10,4,0,55,44,37,35,34,33,3,2,1,0,0,0,0,0,0,0,0,0,0,41,37,36,35,34,33,3,2,1,0,0,0,0,0,0,0,0,0,0,2.18,0
1121,80,0,0,0,79,78,77,76,75,74,0,0,0,0,0,0,0,0,0,0,0,0,0,79,78,77,76,75,74,0,0,0,0,0,0,0,0,0,0,0,0,0,0.00,1
1123,78,0,1,0,76,74,73,72,71,70,0,0,0,0,0,0,0,0,0,0,0,0,0,75,74,73,72,71,70,0,0,0,0,0,0,0,0,0,0,0,0,0,0.20,1
1125,76,0,1,0,75,74,73,71,70,69,0,0,0,0,0,0,0,0,0,0,0,0,0,75,74,73,71,70,69,0,0,0,0,0,0,0,0,0,0,0,0,0,0.10,1
1127,74,0,2,0,73,72,71,69,68,67,0,0,0,0,0,0,0,0,0,0,0,0,0,73,72,71,69,68,67,0,0,0,0,0,0,0,0,0,0,0,0,0,0.10,1
1129,72,0,1,0,71,69,68,67,65,64,0,0,0,0,0,0,0,0,0,0,0,0,0,71,69,68,67,65,64,0,0,0,0,0,0,0,0,0,0,0,0,0,0.21,1
1131,70,0,1,0,69,67,66,65,64,62,0,0,0,0,0,0,0,0,0,0,0,0,0,69,67,66,65,64,62,0,0,0,0,0,0,0,0,0,0,0,0,0,0.22,1
1133,68,0,0,0,67,66,65,64,62,61,0,0,0,0,0,0,0,0,0,0,0,0,0,67,66,65,64,62,61,0,0,0,0,0,0,0,0,0,0,0,0,0,0.11,1
1135,66,0,1,0,65,63,62,61,60,59,0,0,0,0,0,0,0,0,0,0,0,0,0,65,63,62,61,60,59,0,0,0,0,0,0,0,0,0,0,0,0,0,0.11,1
1137,64,0,0,0,63,62,61,59,58,57,0,0,0,0,0,0,0,0,0,0,0,0,0,63,62,61,59,58,57,0,0,0,0,0,0,0,0,0,0,0,0,0,0.12,1
1139,62,0,1,0,61,60,59,58,57,56,1,0,0,0,0,0,0,0,0,0,0,0,0,61,60,59,58,57,56,1,0,0,0,0,0,0,0,0,0,0,0,0,0.24,1
1141,60,0,0,0,59,58,57,56,55,54,0,0,0,0,0,0,0,0,0,0,0,0,0,59,58,57,56,55,54,0,0,0,0,0,0,0,0,0,0,0,0,0,0.00,1
1143,58,0,0,0,57,56,55,54,53,52,0,0,0,0,0,0,0,0,0,0,0,0,0,57,56,55,54,53,52,0,0,0,0,0,0,0,0,0,0,0,0,0,0.00,1
1145,56,0,0,0,55,53,52,51,49,48,0,0,0,0,0,0,0,0,0,0,0,0,0,55,53,52,51,49,48,0,0,0,0,0,0,0,0,0,0,0,0,0,0.26,1
1147,54,0,0,0,53,52,51,50,49,46,0,0,0,0,0,0,0,0,0,0,0,0,0,53,52,51,50,49,46,0,0,0,0,0,0,0,0,0,0,0,0,0,0.27,1
1149,52,0,0,0,51,50,49,48,47,46,0,0,0,0,0,0,0,0,0,0,0,0,0,51,50,49,48,47,46,0,0,0,0,0,0,0,0,0,0,0,0,0,0.00,1
1151,50,0,0,0,49,48,47,46,45,44,0,0,0,0,0,0,0,0,0,0,0,0,0,49,48,47,46,45,44,0,0,0,0,0,0,0,0,0,0,0,0,0,0.00,1
1153,48,0,2,0,47,44,43,42,41,40,0,0,0,0,0,0,0,0,0,0,0,0,0,47,44,43,42,41,40,0,0,0,0,0,0,0,0,0,0,0,0,0,0.29,1
1155,46,0,1,0,45,43,42,41,40,39,0,0,0,0,0,0,0,0,0,0,0,0,0,45,43,42,41,40,39,0,0,0,0,0,0,0,0,0,0,0,0,0,0.15,1
1157,44,0,2,0,43,42,41,39,38,37,0,0,0,0,0,0,0,0,0,0,0,0,0,43,42,41,39,38,37,0,0,0,0,0,0,0,0,0,0,0,0,0,0.16,1
1159,42,0,1,0,41,39,38,37,35,34,0,0,0,0,0,0,0,0,0,0,0,0,0,41,39,38,37,35,34,0,0,0,0,0,0,0,0,0,0,0,0,0,0.32,1
1161,40,0,1,0,39,37,36,35,34,32,0,0,0,0,0,0,0,0,0,0,0,0,0,39,37,36,35,34,32,0,0,0,0,0,0,0,0,0,0,0,0,0,0.34,1
1163,38,0,0,0,37,36,35,34,32,31,0,0,0,0,0,0,0,0,0,0,0,0,0,37,36,35,34,32,31,0,0,0,0,0,0,0,0,0,0,0,0,0,0.18,1
1165,36,0,0,0,35,34,33,31,30,29,0,0,0,0,0,0,0,0,0,0,0,0,0,35,34,33,31,30,29,0,0,0,0,0,0,0,0,0,0,0,0,0,0.18,1
1167,34,0,1,0,33,31,30,29,27,26,0,0,0,0,0,0,0,0,0,0,0,0,0,33,31,30,29,27,26,0,0,0,0,0,0,0,0,0,0,0,0,0,0.38,1
1169,32,0,1,0,31,29,28,27,26,25,0,0,0,0,0,0,0,0,0,0,0,0,0,31,29,28,27,26,25,0,0,0,0,0,0,0,0,0,0,0,0,0,0.20,1
1171,30,0,0,0,29,28,27,25,24,23,0,0,0,0,0,0,0,0,0,0,0,0,0,29,28,27,25,24,23,0,0,0,0,0,0,0,0,0,0,0,0,0,0.21,1
1173,28,0,1,0,27,26,25,24,22,20,0,0,0,0,0,0,0,0,0,0,0,0,0,27,26,25,24,21,20,0,0,0,0,0,0,0,0,0,0,0,0,0,0.44,1
1175,26,0,0,0,25,24,23,22,21,20,0,0,0,0,0,0,0,0,0,0,0,0,0,25,24,23,22,21,20,0,0,0,0,0,0,0,0,0,0,0,0,0,0.00,1
1177,24,0,0,0,23,22,21,20,19,18,0,0,0,0,0,0,0,0,0,0,0,0,0,23,22,21,20,19,18,0,0,0,0,0,0,0,0,0,0,0,0,0,0.00,1
1179,22,0,0,0,21,19,18,16,15,14,0,0,0,0,0,0,0,0,0,0,0,0,0,21,19,18,16,15,14,0,0,0,0,0,0,0,0,0,0,0,0,0,0.53,1
1181,20,0,0,0,19,18,17,16,15,13,0,0,0,0,0,0,0,0,0,0,0,0,0,19,18,17,16,15,12,0,0,0,0,0,0,0,0,0,0,0,0,0,0.57,1
1183,18,0,0,0,17,16,15,14,13,12,0,0,0,0,0,0,0,0,0,0,0,0,0,17,16,15,14,13,12,0,0,0,0,0,0,0,0,0,0,0,0,0,0.00,1
1185,16,0,1,0,15,13,12,11,9,8,0,0,0,0,0,0,0,0,0,0,0,0,0,15,13,12,11,9,8,0,0,0,0,0,0,0,0,0,0,0,0,0,0.67,1
1187,14,0,0,0,13,12,11,9,8,7,0,0,0,0,0,0,0,0,0,0,0,0,0,13,12,11,9,8,7,0,0,0,0,0,0,0,0,0,0,0,0,0,0.37,1
1189,12,0,1,0,11,9,8,7,6,5,0,0,0,0,0,0,0,0,0,0,0,0,0,11,9,8,7,6,5,0,0,0,0,0,0,0,0,0,0,0,0,0,0.41,1
1191,10,0,0,0,9,8,7,5,4,3,0,0,0,0,0,0,0,0,0,0,0,0,0,9,8,7,5,4,3,0,0,0,0,0,0,0,0,0,0,0,0,0,0.47,1
1193,8,0,1,0,7,6,5,4,2,0,0,0,0,0,0,0,0,0,0,0,0,0,0,7,6,5,4,1,0,0,0,0,0,0,0,0,0,0,0,0,0,0,1.06,1
1195,6,0,0,0,5,4,3,2,1,0,0,0,0,0,0,0,0,0,0,0,0,0,0,5,4,3,2,1,0,0,0,0,0,0,0,0,0,0,0,0,0,0,0.00,1
1197,4,0,0,0,3,2,1,0,0,0,0,0,0,0,0,0,0,0,0,0,0,0,0,3,2,1,0,0,0,0,0,0,0,0,0,0,0,0,0,0,0,0,0.00,1
1199,2,0,0,0,1,0,0,0,0,0,0,0,0,0,0,0,0,0,0,0,0,0,0,1,0,0,0,0,0,0,0,0,0,0,0,0,0,0,0,0,0,0,1.00,1
1201,80,0,0,0,79,78,77,76,75,72,0,0,0,0,0,0,0,0,0,0,0,0,0,79,78,77,76,75,72,0,0,0,0,0,0,0,0,0,0,0,0,0,0.19,1
1203,78,0,0,0,77,76,75,74,73,72,0,0,0,0,0,0,0,0,0,0,0,0,0,77,76,75,74,73,72,0,0,0,0,0,0,0,0,0,0,0,0,0,0.00,1
1205,76,0,1,0,75,73,72,71,69,68,0,0,0,0,0,0,0,0,0,0,0,0,0,75,73,72,71,69,68,0,0,0,0,0,0,0,0,0,0,0,0,0,0.20,1
1207,74,0,1,0,73,72,71,70,68,67,0,0,0,0,0,0,0,0,0,0,0,0,0,73,72,71,70,68,67,0,0,0,0,0,0,0,0,0,0,0,0,0,0.10,1
1209,72,0,0,0,71,70,69,68,67,66,0,0,0,0,0,0,0,0,0,0,0,0,0,71,70,69,68,67,66,0,0,0,0,0,0,0,0,0,0,0,0,0,0.00,1
1211,70,0,0,0,68,66,65,64,63,62,0,0,0,0,0,0,0,0,0,0,0,0,0,67,66,65,64,63,62,0,0,0,0,0,0,0,0,0,0,0,0,0,0.22,1
1213,68,0,2,0,67,65,64,63,62,61,0,0,0,0,0,0,0,0,0,0,0,0,0,67,65,64,63,62,61,0,0,0,0,0,0,0,0,0,0,0,0,0,0.11,1
1215,66,0,2,0,65,64,63,61,60,59,0,0,0,0,0,0,0,0,0,0,0,0,0,65,64,63,61,60,59,0,0,0,0,0,0,0,0,0,0,0,0,0,0.11,1
1217,64,0,0,0,63,62,61,60,58,56,0,0,0,0,0,0,0,0,0,0,0,0,0,63,62,61,60,57,56,0,0,0,0,0,0,0,0,0,0,0,0,0,0.12,1
1219,62,0,0,0,61,60,59,58,57,54,0,0,0,0,0,0,0,0,0,0,0,0,0,61,60,59,58,57,54,0,0,0,0,0,0,0,0,0,0,0,0,0,0.24,1
1221,60,0,0,0,59,58,57,56,55,54,0,0,0,0,0,0,0,0,0,0,0,0,0,59,58,57,56,55,54,0,0,0,0,0,0,0,0,0,0,0,0,0,0.00,1
1223,58,0,2,0,57,55,54,53,51,50,0,0,0,0,0,0,0,0,0,0,0,0,0,57,55,54,53,51,50,0,0,0,0,0,0,0,0,0,0,0,0,0,0.25,1
1225,56,0,1,0,55,53,52,51,49,48,0,0,0,0,0,0,0,0,0,0,0,0,0,55,53,52,51,49,48,0,0,0,0,0,0,0,0,0,0,0,0,0,0.26,1
1227,54,0,0,0,53,52,51,50,49,46,0,0,0,0,0,0,0,0,0,0,0,0,0,53,52,51,50,49,46,0,0,0,0,0,0,0,0,0,0,0,0,0,0.27,1
1229,52,0,0,0,51,50,49,48,47,46,0,0,0,0,0,0,0,0,0,0,0,0,0,51,50,49,48,47,46,0,0,0,0,0,0,0,0,0,0,0,0,0,0.00,1
1231,50,0,2,0,49,47,46,45,44,43,0,0,0,0,0,0,0,0,0,0,0,0,0,49,47,46,45,44,43,0,0,0,0,0,0,0,0,0,0,0,0,0,0.14,1
1233,48,0,0,0,47,45,44,43,42,41,0,0,0,0,0,0,0,0,0,0,0,0,0,47,45,44,43,42,41,0,0,0,0,0,0,0,0,0,0,0,0,0,0.15,1
1235,46,0,0,0,45,43,42,40,39,38,0,0,0,0,0,0,0,0,0,0,0,0,0,45,43,42,40,39,38,0,0,0,0,0,0,0,0,0,0,0,0,0,0.30,1
1237,44,0,0,0,43,42,41,40,39,37,0,0,0,0,0,0,0,0,0,0,0,0,0,43,42,41,40,39,36,0,0,0,0,0,0,0,0,0,0,0,0,0,0.31,1
1239,42,0,0,0,41,40,39,38,37,36,0,0,0,0,0,0,0,0,0,0,0,0,0,41,40,39,38,37,36,0,0,0,0,0,0,0,0,0,0,0,0,0,0.00,1
1241,40,0,1,0,39,38,37,36,34,32,0,0,0,0,0,0,0,0,0,0,0,0,0,39,38,37,36,33,32,0,0,0,0,0,0,0,0,0,0,0,0,0,0.34,1
1243,38,0,1,0,37,36,34,32,31,30,0,0,0,0,0,0,0,0,0,0,0,0,0,37,36,33,32,31,30,0,0,0,0,0,0,0,0,0,0,0,0,0,0.18,1
1245,36,0,0,0,35,34,33,32,31,30,0,0,0,0,0,0,0,0,0,0,0,0,0,35,34,33,32,31,30,0,0,0,0,0,0,0,0,0,0,0,0,0,0.00,1
1247,34,0,0,0,33,31,30,28,27,26,0,0,0,0,0,0,0,0,0,0,0,0,0,33,31,30,28,27,26,0,0,0,0,0,0,0,0,0,0,0,0,0,0.38,1
1249,32,0,0,0,31,30,29,28,27,25,0,0,0,0,0,0,0,0,0,0,0,0,0,31,30,29,28,27,24,0,0,0,0,0,0,0,0,0,0,0,0,0,0.40,1
1251,30,0,0,0,29,28,27,26,25,24,0,0,0,0,0,0,0,0,0,0,0,0,0,29,28,27,26,25,24,0,0,0,0,0,0,0,0,0,0,0,0,0,0.00,1
1253,28,0,0,0,27,26,25,24,23,22,0,0,0,0,0,0,0,0,0,0,0,0,0,27,26,25,24,23,22,0,0,0,0,0,0,0,0,0,0,0,0,0,0.00,1
1255,26,0,1,0,25,22,21,20,19,18,0,0,0,0,0,0,0,0,0,0,0,0,0,25,22,21,20,19,18,0,0,0,0,0,0,0,0,0,0,0,0,0,0.47,1
1257,24,0,2,0,23,21,20,19,18,17,0,0,0,0,0,0,0,0,0,0,0,0,0,23,21,20,19,18,17,0,0,0,0,0,0,0,0,0,0,0,0,0,0.25,1
1259,22,0,2,0,21,20,19,17,16,15,0,0,0,0,0,0,0,0,0,0,0,0,0,21,20,19,17,16,15,0,0,0,0,0,0,0,0,0,0,0,0,0,0.27,1
1261,20,0,0,0,19,18,17,16,14,12,0,0,0,0,0,0,0,0,0,0,0,0,0,19,18,17,16,13,12,0,0,0,0,0,0,0,0,0,0,0,0,0,0.29,1
1263,18,0,0,0,17,16,15,14,13,10,0,0,0,0,0,0,0,0,0,0,0,0,0,17,16,15,14,13,10,0,0,0,0,0,0,0,0,0,0,0,0,0,0.61,1
1265,16,0,0,0,15,14,13,12,10,9,0,0,0,0,0,0,0,0,0,0,0,0,0,15,14,13,12,10,9,0,0,0,0,0,0,0,0,0,0,0,0,0,0.34,1
1267,14,0,2,0,13,11,10,9,7,6,0,0,0,0,0,0,0,0,0,0,0,0,0,13,11,10,9,7,6,0,0,0,0,0,0,0,0,0,0,0,0,0,0.73,1
1269,12,0,1,0,11,9,8,7,5,4,0,0,0,0,0,0,0,0,0,0,0,0,0,11,9,8,7,5,4,0,0,0,0,0,0,0,0,0,0,0,0,0,0.82,1
1271,10,0,0,0,9,8,7,6,5,2,0,0,0,0,0,0,0,0,0,0,0,0,0,9,8,7,6,5,2,0,0,0,0,0,0,0,0,0,0,0,0,0,0.92,1
1273,8,0,0,0,7,6,5,4,2,1,0,0,0,0,0,0,0,0,0,0,0,0,0,7,6,5,4,2,1,0,0,0,0,0,0,0,0,0,0,0,0,0,0.54,1
1275,6,0,2,0,5,3,2,1,0,0,0,0,0,0,0,0,0,0,0,0,0,0,0,5,3,2,1,0,0,0,0,0,0,0,0,0,0,0,0,0,0,0,0.65,1
1277,4,0,0,0,3,1,0,0,0,0,0,0,0,0,0,0,0,0,0,0,0,0,0,3,1,0,0,0,0,0,0,0,0,0,0,0,0,0,0,0,0,0,0.81,1
1279,2,0,0,0,1,0,0,0,0,0,0,0,0,0,0,0,0,0,0,0,0,0,0,1,0,0,0,0,0,0,0,0,0,0,0,0,0,0,0,0,0,0,1.00,1
1281,80,0,0,0,79,78,77,76,75,73,0,0,0,0,0,0,0,0,0,0,0,0,0,79,78,77,76,75,72,0,0,0,0,0,0,0,0,0,0,0,0,0,0.19,1
1283,78,0,0,0,77,76,75,74,73,72,0,0,0,0,0,0,0,0,0,0,0,0,0,77,76,75,74,73,72,0,0,0,0,0,0,0,0,0,0,0,0,0,0.00,1
1285,76,0,1,0,75,74,73,72,70,68,0,0,0,0,0,0,0,0,0,0,0,0,0,75,74,73,72,69,68,0,0,0,0,0,0,0,0,0,0,0,0,0,0.20,1
1287,74,0,0,0,73,72,70,68,67,66,0,0,0,0,0,0,0,0,0,0,0,0,0,73,72,69,68,67,66,0,0,0,0,0,0,0,0,0,0,0,0,0,0.21,1
1289,72,0,0,0,71,70,69,68,67,66,0,0,0,0,0,0,0,0,0,0,0,0,0,71,70,69,68,67,66,0,0,0,0,0,0,0,0,0,0,0,0,0,0.00,1
1291,70,0,0,0,69,67,66,64,63,62,0,0,0,0,0,0,0,0,0,0,0,0,0,69,67,66,64,63,62,0,0,0,0,0,0,0,0,0,0,0,0,0,0.22,1
1293,68,0,0,0,67,66,65,64,63,61,0,0,0,0,0,0,0,0,0,0,0,0,0,67,66,65,64,63,60,0,0,0,0,0,0,0,0,0,0,0,0,0,0.22,1
1295,66,0,0,0,65,64,63,62,61,60,0,0,0,0,0,0,0,0,0,0,0,0,0,65,64,63,62,61,60,0,0,0,0,0,0,0,0,0,0,0,0,0,0.00,1
1297,64,0,0,0,63,62,61,60,59,58,0,0,0,0,0,0,0,0,0,0,0,0,0,63,62,61,60,59,58,0,0,0,0,0,0,0,0,0,0,0,0,0,0.00,1
1299,62,0,1,0,60,58,57,56,55,54,0,0,0,0,0,0,0,0,0,0,0,0,0,59,58,57,56,55,54,0,0,0,0,0,0,0,0,0,0,0,0,0,0.24,1
1301,60,0,2,0,59,57,56,55,54,53,0,0,0,0,0,0,0,0,0,0,0,0,0,59,57,56,55,54,53,0,0,0,0,0,0,0,0,0,0,0,0,0,0.12,1
1303,58,0,2,0,57,56,55,53,52,51,0,0,0,0,0,0,0,0,0,0,0,0,0,57,56,55,53,52,51,0,0,0,0,0,0,0,0,0,0,0,0,0,0.13,1
1305,56,0,0,0,55,54,53,52,50,48,0,0,0,0,0,0,0,0,0,0,0,0,0,55,54,53,52,49,48,0,0,0,0,0,0,0,0,0,0,0,0,0,0.13,1
1307,54,0,0,0,53,52,51,50,49,46,0,0,0,0,0,0,0,0,0,0,0,0,0,53,52,51,50,49,46,0,0,0,0,0,0,0,0,0,0,0,0,0,0.27,1
1309,52,0,1,0,51,50,49,48,46,45,0,0,0,0,0,0,0,0,0,0,0,0,0,51,50,49,48,46,45,0,0,0,0,0,0,0,0,0,0,0,0,0,0.14,1
1311,50,0,2,0,49,47,46,45,43,42,0,0,0,0,0,0,0,0,0,0,0,0,0,49,47,46,45,43,42,0,0,0,0,0,0,0,0,0,0,0,0,0,0.28,1
1313,48,0,1,0,47,45,44,43,41,40,0,0,0,0,0,0,0,0,0,0,0,0,0,47,45,44,43,41,40,0,0,0,0,0,0,0,0,0,0,0,0,0,0.29,1
1315,46,0,0,0,45,44,43,42,41,38,0,0,0,0,0,0,0,0,0,0,0,0,0,45,44,43,42,41,38,0,0,0,0,0,0,0,0,0,0,0,0,0,0.30,1
1317,44,0,1,0,43,42,41,40,38,37,0,0,0,0,0,0,0,0,0,0,0,0,0,43,42,41,40,38,37,0,0,0,0,0,0,0,0,0,0,0,0,0,0.16,1
1319,42,0,2,0,41,39,38,37,36,35,0,0,0,0,0,0,0,0,0,0,0,0,0,41,39,38,37,36,35,0,0,0,0,0,0,0,0,0,0,0,0,0,0.16,1
1321,40,0,0,0,39,37,36,35,34,33,0,0,0,0,0,0,0,0,0,0,0,0,0,39,37,36,35,34,33,0,0,0,0,0,0,0,0,0,0,0,0,0,0.17,1
1323,38,0,0,0,37,35,34,32,31,30,0,0,0,0,0,0,0,0,0,0,0,0,0,37,35,34,32,31,30,0,0,0,0,0,0,0,0,0,0,0,0,0,0.35,1
1325,36,0,0,0,35,34,33,32,31,29,0,0,0,0,0,0,0,0,0,0,0,0,0,35,34,33,32,31,28,0,0,0,0,0,0,0,0,0,0,0,0,0,0.37,1
1327,34,0,0,0,33,32,31,30,29,28,0,0,0,0,0,0,0,0,0,0,0,0,0,33,32,31,30,29,28,0,0,0,0,0,0,0,0,0,0,0,0,0,0.00,1
1329,32,0,1,0,31,30,29,28,26,24,0,0,0,0,0,0,0,0,0,0,0,0,0,31,30,29,28,25,24,0,0,0,0,0,0,0,0,0,0,0,0,0,0.40,1
1331,30,0,0,0,29,28,26,24,23,22,0,0,0,0,0,0,0,0,0,0,0,0,0,29,28,25,24,23,22,0,0,0,0,0,0,0,0,0,0,0,0,0,0.21,1
1333,28,0,0,0,27,26,25,24,23,22,0,0,0,0,0,0,0,0,0,0,0,0,0,27,26,25,24,23,22,0,0,0,0,0,0,0,0,0,0,0,0,0,0.00,1
1335,26,0,0,0,25,23,22,20,19,18,0,0,0,0,0,0,0,0,0,0,0,0,0,25,23,22,20,19,18,0,0,0,0,0,0,0,0,0,0,0,0,0,0.47,1
1337,24,0,0,0,23,22,21,20,19,17,0,0,0,0,0,0,0,0,0,0,0,0,0,23,22,21,20,19,16,0,0,0,0,0,0,0,0,0,0,0,0,0,0.50,1
1339,22,0,0,0,21,20,19,18,17,16,0,0,0,0,0,0,0,0,0,0,0,0,0,21,20,19,18,17,16,0,0,0,0,0,0,0,0,0,0,0,0,0,0.00,1
1341,20,0,0,0,19,18,17,16,15,14,0,0,0,0,0,0,0,0,0,0,0,0,0,19,18,17,16,15,14,0,0,0,0,0,0,0,0,0,0,0,0,0,0.00,1
1343,18,0,1,0,16,14,13,12,11,10,0,0,0,0,0,0,0,0,0,0,0,0,0,15,14,13,12,11,10,0,0,0,0,0,0,0,0,0,0,0,0,0,0.61,1
1345,16,0,1,0,15,14,13,11,10,9,0,0,0,0,0,0,0,0,0,0,0,0,0,15,14,13,11,10,9,0,0,0,0,0,0,0,0,0,0,0,0,0,0.34,1
1347,14,0,2,0,13,12,11,9,8,7,0,0,0,0,0,0,0,0,0,0,0,0,0,13,12,11,9,8,7,0,0,0,0,0,0,0,0,0,0,0,0,0,0.37,1
1349,12,0,0,0,11,10,9,8,6,4,0,0,0,0,0,0,0,0,0,0,0,0,0,11,10,9,8,5,4,0,0,0,0,0,0,0,0,0,0,0,0,0,0.41,1
1351,10,0,0,0,9,8,7,6,5,2,0,0,0,0,0,0,0,0,0,0,0,0,0,9,8,7,6,5,2,0,0,0,0,0,0,0,0,0,0,0,0,0,0.92,1
1353,8,0,1,0,7,6,5,4,2,1,0,0,0,0,0,0,0,0,0,0,0,0,0,7,6,5,4,2,1,0,0,0,0,0,0,0,0,0,0,0,0,0,0.54,1
1355,6,0,2,0,5,3,2,1,0,0,0,0,0,0,0,0,0,0,0,0,0,0,0,5,3,2,1,0,0,0,0,0,0,0,0,0,0,0,0,0,0,0,1.25,1
1357,4,0,1,0,3,1,0,0,0,0,0,0,0,0,0,0,0,0,0,0,0,0,0,3,1,0,0,0,0,0,0,0,0,0,0,0,0,0,0,0,0,0,1.50,1
1359,2,0,0,0,1,0,0,0,0,0,0,0,0,0,0,0,0,0,0,0,0,0,0,1,0,0,0,0,0,0,0,0,0,0,0,0,0,0,0,0,0,0,1.00,1
1361,80,0,1,0,79,78,77,76,74,73,0,0,0,0,0,0,0,0,0,0,0,0,0,79,78,77,76,74,73,0,0,0,0,0,0,0,0,0,0,0,0,0,0.10,1
1363,78,0,2,0,77,76,75,73,72,71,0,0,0,0,0,0,0,0,0,0,0,0,0,77,76,75,73,72,71,0,0,0,0,0,0,0,0,0,0,0,0,0,0.10,1
1365,76,0,1,0,75,73,72,71,69,68,0,0,0,0,0,0,0,0,0,0,0,0,0,75,73,72,71,69,68,0,0,0,0,0,0,0,0,0,0,0,0,0,0.20,1
1367,74,0,0,0,73,72,71,70,69,66,0,0,0,0,0,0,0,0,0,0,0,0,0,73,72,71,70,69,66,0,0,0,0,0,0,0,0,0,0,0,0,0,0.21,1
1369,72,0,1,0,71,70,69,68,66,65,0,0,0,0,0,0,0,0,0,0,0,0,0,71,70,69,68,66,65,0,0,0,0,0,0,0,0,0,0,0,0,0,0.11,1
1371,70,0,0,0,69,68,67,66,65,64,0,0,0,0,0,0,0,0,0,0,0,0,0,69,68,67,66,65,64,0,0,0,0,0,0,0,0,0,0,0,0,0,0.00,1
1373,68,0,2,0,67,64,63,62,61,60,0,0,0,0,0,0,0,0,0,0,0,0,0,67,64,63,62,61,60,0,0,0,0,0,0,0,0,0,0,0,0,0,0.22,1
1375,66,0,2,0,65,64,63,62,60,59,0,0,0,0,0,0,0,0,0,0,0,0,0,65,64,63,62,60,59,0,0,0,0,0,0,0,0,0,0,0,0,0,0.11,1
1378,64,0,2,0,63,62,61,59,58,57,0,0,0,0,0,0,0,0,0,0,0,0,0,63,62,61,59,58,57,0,0,0,0,0,0,0,0,0,0,0,0,0,0.12,1
1380,62,0,1,0,61,59,58,57,55,54,0,0,0,0,0,0,0,0,0,0,0,0,0,61,59,58,57,55,54,0,0,0,0,0,0,0,0,0,0,0,0,0,0.24,1
1382,60,0,0,0,59,58,57,56,55,52,0,0,0,0,0,0,0,0,0,0,0,0,0,59,58,57,56,55,52,0,0,0,0,0,0,0,0,0,0,0,0,0,0.24,1
1384,58,0,1,0,57,56,55,54,52,51,0,0,0,0,0,0,0,0,0,0,0,0,0,57,56,55,54,52,51,0,0,0,0,0,0,0,0,0,0,0,0,0,0.13,1
1386,56,0,1,0,55,53,52,51,50,49,0,0,0,0,0,0,0,0,0,0,0,0,0,55,53,52,51,50,49,0,0,0,0,0,0,0,0,0,0,0,0,0,0.13,1
1388,54,0,0,0,53,51,50,49,48,47,0,0,0,0,0,0,0,0,0,0,0,0,0,53,51,50,49,48,47,0,0,0,0,0,0,0,0,0,0,0,0,0,0.13,1
1390,52,0,0,0,51,49,48,46,45,44,0,0,0,0,0,0,0,0,0,0,0,0,0,51,49,48,46,45,44,0,0,0,0,0,0,0,0,0,0,0,0,0,0.27,1
1392,50,0,0,0,49,48,47,46,45,43,0,0,0,0,0,0,0,0,0,0,0,0,0,49,48,47,46,45,42,0,0,0,0,0,0,0,0,0,0,0,0,0,0.28,1
1394,48,0,0,0,47,46,45,44,43,42,0,0,0,0,0,0,0,0,0,0,0,0,0,47,46,45,44,43,42,0,0,0,0,0,0,0,0,0,0,0,0,0,0.00,1
1396,46,0,0,0,45,43,42,40,39,38,0,0,0,0,0,0,0,0,0,0,0,0,0,45,43,42,40,39,38,0,0,0,0,0,0,0,0,0,0,0,0,0,0.30,1
1398,44,0,0,0,43,42,41,40,39,36,0,0,0,0,0,0,0,0,0,0,0,0,0,43,42,41,40,39,36,0,0,0,0,0,0,0,0,0,0,0,0,0,0.31,1
1400,42,0,0,0,41,40,39,38,37,36,0,0,0,0,0,0,0,0,0,0,0,0,0,41,40,39,38,37,36,0,0,0,0,0,0,0,0,0,0,0,0,0,0.00,1
1402,40,0,0,0,39,37,36,34,33,32,0,0,0,0,0,0,0,0,0,0,0,0,0,39,37,36,34,33,32,0,0,0,0,0,0,0,0,0,0,0,0,0,0.34,1
1404,38,0,0,0,37,36,35,34,33,30,0,0,0,0,0,0,0,0,0,0,0,0,0,37,36,35,34,33,30,0,0,0,0,0,0,0,0,0,0,0,0,0,0.35,1
1406,36,0,0,0,35,34,33,32,31,30,0,0,0,0,0,0,0,0,0,0,0,0,0,35,34,33,32,31,30,0,0,0,0,0,0,0,0,0,0,0,0,0,0.00,1
1408,34,0,0,0,33,32,31,30,29,28,0,0,0,0,0,0,0,0,0,0,0,0,0,33,32,31,30,29,28,0,0,0,0,0,0,0,0,0,0,0,0,0,0.00,1
1410,32,0,1,0,31,28,27,26,25,24,0,0,0,0,0,0,0,0,0,0,0,0,0,31,28,27,26,25,24,0,0,0,0,0,0,0,0,0,0,0,0,0,0.40,1
1412,30,0,0,0,29,27,26,25,24,23,0,0,0,0,0,0,0,0,0,0,0,0,0,29,27,26,25,24,23,0,0,0,0,0,0,0,0,0,0,0,0,0,0.21,1
1414,28,0,2,0,27,26,25,23,22,21,0,0,0,0,0,0,0,0,0,0,0,0,0,27,26,25,23,22,21,0,0,0,0,0,0,0,0,0,0,0,0,0,0.22,1
1416,26,0,0,0,25,24,23,22,20,18,0,0,0,0,0,0,0,0,0,0,0,0,0,25,24,23,22,19,18,0,0,0,0,0,0,0,0,0,0,0,0,0,0.24,1
1418,24,0,0,0,23,22,21,20,19,16,0,0,0,0,0,0,0,0,0,0,0,0,0,23,22,21,20,19,16,0,0,0,0,0,0,0,0,0,0,0,0,0,0.50,1
1420,22,0,1,0,21,20,19,18,16,15,0,0,0,0,0,0,0,0,0,0,0,0,0,21,20,19,18,16,15,0,0,0,0,0,0,0,0,0,0,0,0,0,0.27,1
1422,20,0,2,0,19,18,17,15,14,13,0,0,0,0,0,0,0,0,0,0,0,0,0,19,18,17,15,14,13,0,0,0,0,0,0,0,0,0,0,0,0,0,0.29,1
1424,18,0,0,0,17,16,15,14,13,12,0,0,0,0,0,0,0,0,0,0,0,0,0,17,16,15,14,13,12,0,0,0,0,0,0,0,0,0,0,0,0,0,0.00,1
1426,16,0,0,0,15,14,13,12,11,9,0,0,0,0,0,0,0,0,0,0,0,0,0,15,14,13,12,11,8,0,0,0,0,0,0,0,0,0,0,0,0,0,0.67,1
1428,14,0,0,0,13,12,11,10,9,8,0,0,0,0,0,0,0,0,0,0,0,0,0,13,12,11,10,9,8,0,0,0,0,0,0,0,0,0,0,0,0,0,0.00,1
1430,12,0,0,0,11,10,9,8,7,6,0,0,0,0,0,0,0,0,0,0,0,0,0,11,10,9,8,7,6,0,0,0,0,0,0,0,0,0,0,0,0,0,0.00,1
1432,10,0,1,0,8,6,5,4,3,2,0,0,0,0,0,0,0,0,0,0,0,0,0,7,6,5,4,3,2,0,0,0,0,0,0,0,0,0,0,0,0,0,0.92,1
1434,8,0,0,0,7,5,4,3,2,1,0,0,0,0,0,0,0,0,0,0,0,0,0,7,5,4,3,2,1,0,0,0,0,0,0,0,0,0,0,0,0,0,0.54,1
1436,6,0,2,0,5,4,3,1,0,0,0,0,0,0,0,0,0,0,0,0,0,0,0,5,4,3,1,0,0,0,0,0,0,0,0,0,0,0,0,0,0,0,0.65,1
1438,4,0,1,0,3,1,0,0,0,0,0,0,0,0,0,0,0,0,0,0,0,0,0,3,1,0,0,0,0,0,0,0,0,0,0,0,0,0,0,0,0,0,1.50,1
1440,2,0,0,0,1,0,0,0,0,0,0,0,0,0,0,0,0,0,0,0,0,0,0,1,0,0,0,0,0,0,0,0,0,0,0,0,0,0,0,0,0,0,1.00,1
1442,78,0,1,0,77,76,75,74,72,71,0,0,0,0,0,0,0,0,0,0,0,0,0,77,76,75,74,72,71,0,0,0,0,0,0,0,0,0,0,0,0,0,0.10,1
1444,76,0,2,0,75,73,72,71,70,69,0,0,0,0,0,0,0,0,0,0,0,0,0,75,73,72,71,70,69,0,0,0,0,0,0,0,0,0,0,0,0,0,0.10,1
1446,74,0,0,0,73,72,71,69,68,67,0,0,0,0,0,0,0,0,0,0,0,0,0,73,72,71,69,68,67,0,0,0,0,0,0,0,0,0,0,0,0,0,0.10,1
1448,72,0,0,0,71,69,68,66,65,64,0,0,0,0,0,0,0,0,0,0,0,0,0,71,69,68,66,65,64,0,0,0,0,0,0,0,0,0,0,0,0,0,0.21,1
1450,70,0,0,0,69,68,67,66,65,62,0,0,0,0,0,0,0,0,0,0,0,0,0,69,68,67,66,65,62,0,0,0,0,0,0,0,0,0,0,0,0,0,0.22,1
1452,68,0,0,0,67,66,65,64,63,62,0,0,0,0,0,0,0,0,0,0,0,0,0,67,66,65,64,63,62,0,0,0,0,0,0,0,0,0,0,0,0,0,0.00,1
1454,66,0,1,0,65,64,63,62,60,58,0,0,0,0,0,0,0,0,0,0,0,0,0,65,64,63,62,59,58,0,0,0,0,0,0,0,0,0,0,0,0,0,0.23,1
1456,64,0,0,0,63,62,61,60,59,58,0,0,0,0,0,0,0,0,0,0,0,0,0,63,62,61,60,59,58,0,0,0,0,0,0,0,0,0,0,0,0,0,0.00,1
1458,62,0,0,0,61,60,59,58,57,56,0,0,0,0,0,0,0,0,0,0,0,0,0,61,60,59,58,57,56,0,0,0,0,0,0,0,0,0,0,0,0,0,0.00,1
1460,60,0,1,0,59,58,57,55,54,53,0,0,0,0,0,0,0,0,0,0,0,0,0,59,58,57,55,54,53,0,0,0,0,0,0,0,0,0,0,0,0,0,0.12,1
1462,58,0,0,0,57,56,55,54,53,52,0,0,0,0,0,0,0,0,0,0,0,0,0,57,56,55,54,53,52,0,0,0,0,0,0,0,0,0,0,0,0,0,0.00,1
1464,56,0,0,0,55,54,53,52,51,49,0,0,0,0,0,0,0,0,0,0,0,0,0,55,54,53,52,51,48,0,0,0,0,0,0,0,0,0,0,0,0,0,0.26,1
1466,54,0,0,0,53,52,51,50,49,48,0,0,0,0,0,0,0,0,0,0,0,0,0,53,52,51,50,49,48,0,0,0,0,0,0,0,0,0,0,0,0,0,0.00,1
1468,52,0,0,0,51,50,49,48,47,46,0,0,0,0,0,0,0,0,0,0,0,0,0,51,50,49,48,47,46,0,0,0,0,0,0,0,0,0,0,0,0,0,0.00,1
1470,50,0,0,0,49,47,46,44,43,42,0,0,0,0,0,0,0,0,0,0,0,0,0,49,47,46,44,43,42,0,0,0,0,0,0,0,0,0,0,0,0,0,0.28,1
1472,48,0,2,0,47,45,44,43,42,41,0,0,0,0,0,0,0,0,0,0,0,0,0,47,45,44,43,42,41,0,0,0,0,0,0,0,0,0,0,0,0,0,0.15,1
1474,46,0,2,0,45,44,43,41,40,39,0,0,0,0,0,0,0,0,0,0,0,0,0,45,44,43,41,40,39,0,0,0,0,0,0,0,0,0,0,0,0,0,0.15,1
1476,44,0,0,0,43,42,41,40,38,36,0,0,0,0,0,0,0,0,0,0,0,0,0,43,42,41,40,37,36,0,0,0,0,0,0,0,0,0,0,0,0,0,0.16,1
1478,42,0,0,0,41,40,39,38,37,34,0,0,0,0,0,0,0,0,0,0,0,0,0,41,40,39,38,37,34,0,0,0,0,0,0,0,0,0,0,0,0,0,0.32,1
1480,40,0,1,0,39,38,37,36,34,33,0,0,0,0,0,0,0,0,0,0,0,0,0,39,38,37,36,34,33,0,0,0,0,0,0,0,0,0,0,0,0,0,0.17,1
1482,38,0,2,0,37,35,34,33,31,30,0,0,0,0,0,0,0,0,0,0,0,0,0,37,35,34,33,31,30,0,0,0,0,0,0,0,0,0,0,0,0,0,0.35,1
1484,36,0,1,0,35,33,32,31,29,28,0,0,0,0,0,0,0,0,0,0,0,0,0,35,33,32,31,29,28,0,0,0,0,0,0,0,0,0,0,0,0,0,0.37,1
1486,34,0,0,0,33,32,31,30,29,26,0,0,0,0,0,0,0,0,0,0,0,0,0,33,32,31,30,29,26,0,0,0,0,0,0,0,0,0,0,0,0,0,0.38,1
1488,32,0,1,0,31,30,29,28,26,25,0,0,0,0,0,0,0,0,0,0,0,0,0,31,30,29,28,26,25,0,0,0,0,0,0,0,0,0,0,0,0,0,0.20,1
1490,30,0,1,0,29,27,26,25,24,23,0,0,0,0,0,0,0,0,0,0,0,0,0,29,27,26,25,24,23,0,0,0,0,0,0,0,0,0,0,0,0,0,0.21,1
1492,28,0,0,0,27,25,24,23,22,21,0,0,0,0,0,0,0,0,0,0,0,0,0,27,25,24,23,22,21,0,0,0,0,0,0,0,0,0,0,0,0,0,0.22,1
1494,26,0,0,0,25,23,22,20,19,18,0,0,0,0,0,0,0,0,0,0,0,0,0,25,23,22,20,19,18,0,0,0,0,0,0,0,0,0,0,0,0,0,0.47,1
1496,24,0,0,0,23,22,21,20,19,17,0,0,0,0,0,0,0,0,0,0,0,0,0,23,22,21,20,19,16,0,0,0,0,0,0,0,0,0,0,0,0,0,0.50,1
1498,22,0,0,0,21,20,19,18,17,16,0,0,0,0,0,0,0,0,0,0,0,0,0,21,20,19,18,17,16,0,0,0,0,0,0,0,0,0,0,0,0,0,0.00,1
1500,20,0,0,0,19,17,16,14,13,12,0,0,0,0,0,0,0,0,0,0,0,0,0,19,17,16,14,13,12,0,0,0,0,0,0,0,0,0,0,0,0,0,0.57,1
1502,18,0,0,0,17,16,15,14,13,10,0,0,0,0,0,0,0,0,0,0,0,0,0,17,16,15,14,13,10,0,0,0,0,0,0,0,0,0,0,0,0,0,0.61,1
1504,16,0,0,0,15,14,13,12,11,10,0,0,0,0,0,0,0,0,0,0,0,0,0,15,14,13,12,11,10,0,0,0,0,0,0,0,0,0,0,0,0,0,0.00,1
1506,14,0,0,0,13,11,10,8,7,6,0,0,0,0,0,0,0,0,0,0,0,0,0,13,11,10,8,7,6,0,0,0,0,0,0,0,0,0,0,0,0,0,0.73,1
1508,12,0,0,0,11,10,9,8,7,5,0,0,0,0,0,0,0,0,0,0,0,0,0,11,10,9,8,7,4,0,0,0,0,0,0,0,0,0,0,0,0,0,0.82,1
1510,10,0,0,0,9,8,7,6,5,4,0,0,0,0,0,0,0,0,0,0,0,0,0,9,8,7,6,5,4,0,0,0,0,0,0,0,0,0,0,0,0,0,0.00,1
1512,8,0,0,0,7,6,5,4,3,2,0,0,0,0,0,0,0,0,0,0,0,0,0,7,6,5,4,3,2,0,0,0,0,0,0,0,0,0,0,0,0,0,0.00,1
1514,6,0,1,0,5,4,3,1,0,0,0,0,0,0,0,0,0,0,0,0,0,0,0,5,4,3,1,0,0,0,0,0,0,0,0,0,0,0,0,0,0,0,0.65,1
1516,4,0,0,0,3,2,1,0,0,0,0,0,0,0,0,0,0,0,0,0,0,0,0,3,2,1,0,0,0,0,0,0,0,0,0,0,0,0,0,0,0,0,0.81,1
1518,2,0,1,0,1,0,0,0,0,0,0,0,0,0,0,0,0,0,0,0,0,0,0,1,0,0,0,0,0,0,0,0,0,0,0,0,0,0,0,0,0,0,1.00,1
1520,80,12,11,0,73,56,44,35,28,23,0,0,0,0,0,0,0,0,0,0,0,0,0,23,22,21,20,19,18,0,0,0,0,0,0,0,0,0,0,0,0,0,1.87,0
1522,10,0,0,0,9,8,7,6,5,4,0,0,0,0,0,0,0,0,0,0,0,0,0,9,8,7,6,5,4,0,0,0,0,0,0,0,0,0,0,0,0,0,0.00,0
1524,80,0,6,0,74,62,53,45,41,38,0,0,0,0,0,0,0,0,0,0,0,0,0,44,43,41,39,38,37,0,0,0,0,0,0,0,0,0,0,0,0,0,1.59,0
1526,80,0,3,0,77,70,67,63,56,53,0,0,0,0,0,0,0,0,0,0,0,0,0,54,46,45,44,41,40,0,0,0,0,0,0,0,0,0,0,0,0,0,0.77,0
1528,80,0,4,0,73,62,57,52,44,40,0,0,0,0,0,0,0,0,0,0,0,0,0,35,33,32,31,29,28,0,0,0,0,0,0,0,0,0,0,0,0,0,1.02,0
1530,26,0,1,0,25,23,21,19,17,16,0,0,0,0,0,0,0,0,0,0,0,0,0,25,21,20,19,17,16,0,0,0,0,0,0,0,0,0,0,0,0,0,0.47,0
1532,80,12,11,0,73,56,44,35,28,23,0,0,0,0,0,0,0,0,0,0,0,0,0,23,22,21,20,19,18,0,0,0,0,0,0,0,0,0,0,0,0,0,1.87,0
1534,10,0,0,0,9,8,7,6,5,4,0,0,0,0,0,0,0,0,0,0,0,0,0,9,8,7,6,5,4,0,0,0,0,0,0,0,0,0,0,0,0,0,0.00,0
1536,80,6,12,0,74,57,45,38,30,28,0,0,0,0,0,0,0,0,0,0,0,0,0,34,33,32,31,29,28,0,0,0,0,0,0,0,0,0,0,0,0,0,1.81,0
1538,22,0,0,0,20,19,18,17,15,14,0,0,0,0,0,0,0,0,0,0,0,0,0,20,19,18,17,15,14,0,0,0,0,0,0,0,0,0,0,0,0,0,0.53,0
1540,12,2,1,0,11,9,6,1,0,0,0,0,0,0,0,0,0,0,0,0,0,0,0,11,5,3,1,0,0,0,0,0,0,0,0,0,0,0,0,0,0,0,1.78,0
1542,28,6,2,0,27,26,22,14,3,0,0,0,0,0,0,0,0,0,0,0,0,0,0,27,26,14,6,1,0,0,0,0,0,0,0,0,0,0,0,0,0,0,1.30,0
1544,34,0,1,0,32,30,28,26,23,22,0,0,0,0,0,0,0,0,0,0,0,0,0,32,29,28,26,23,22,0,0,0,0,0,0,0,0,0,0,0,0,0,0.70,0
1546,2,0,0,0,1,0,0,0,0,0,0,0,0,0,0,0,0,0,0,0,0,0,0,1,0,0,0,0,0,0,0,0,0,0,0,0,0,0,0,0,0,0,0.00,0
1548,12,0,0,0,11,10,9,8,7,6,0,0,0,0,0,0,0,0,0,0,0,0,0,11,10,9,8,7,6,0,0,0,0,0,0,0,0,0,0,0,0,0,0.00,0
1550,16,0,0,0,15,14,13,12,11,10,0,0,0,0,0,0,0,0,0,0,0,0,0,15,14,13,12,11,10,0,0,0,0,0,0,0,0,0,0,0,0,0,0.00,0
1552,80,0,3,0,75,66,60,51,42,38,0,0,0,0,0,0,0,0,0,0,0,0,0,69,45,33,31,30,29,0,0,0,0,0,0,0,0,0,0,0,0,0,1.02,0
1554,52,0,3,0,45,41,37,32,29,28,0,0,0,0,0,0,0,0,0,0,0,0,0,35,34,33,31,29,28,0,0,0,0,0,0,0,0,0,0,0,0,0,1.17,0
1556,2,0,0,0,1,0,0,0,0,0,0,0,0,0,0,0,0,0,0,0,0,0,0,1,0,0,0,0,0,0,0,0,0,0,0,0,0,0,0,0,0,0,1.00,0
1558,6,0,0,0,5,4,3,2,1,0,0,0,0,0,0,0,0,0,0,0,0,0,0,5,4,3,2,1,0,0,0,0,0,0,0,0,0,0,0,0,0,0,0.00,0
1560,6,0,0,0,5,4,3,2,1,0,0,0,0,0,0,0,0,0,0,0,0,0,0,5,4,3,2,1,0,0,0,0,0,0,0,0,0,0,0,0,0,0,0.00,0
1562,6,0,0,0,5,4,3,2,1,0,0,0,0,0,0,0,0,0,0,0,0,0,0,5,4,3,2,1,0,0,0,0,0,0,0,0,0,0,0,0,0,0,0.00,0
1564,2,0,0,0,1,0,0,0,0,0,0,0,0,0,0,0,0,0,0,0,0,0,0,1,0,0,0,0,0,0,0,0,0,0,0,0,0,0,0,0,0,0,0.00,0
1566,8,0,0,0,7,6,5,4,3,2,0,0,0,0,0,0,0,0,0,0,0,0,0,7,6,5,4,3,2,0,0,0,0,0,0,0,0,0,0,0,0,0,0.00,0
1568,4,0,0,0,3,2,1,0,0,0,0,0,0,0,0,0,0,0,0,0,0,0,0,3,2,1,0,0,0,0,0,0,0,0,0,0,0,0,0,0,0,0,0.81,0
1570,24,0,0,0,23,12,6,0,0,0,0,0,0,0,0,0,0,0,0,0,0,0,0,23,2,1,0,0,0,0,0,0,0,0,0,0,0,0,0,0,0,0,1.00,0
1572,32,0,0,0,31,16,8,0,0,0,0,0,0,0,0,0,0,0,0,0,0,0,0,31,2,1,0,0,0,0,0,0,0,0,0,0,0,0,0,0,0,0,1.00,0
1574,80,0,0,0,69,56,47,31,19,14,0,0,0,0,0,0,0,0,0,0,0,0,0,26,20,11,9,7,6,0,0,0,0,0,0,0,0,0,0,0,0,0,1.37,0
1576,80,0,0,0,69,56,47,31,19,14,0,0,0,0,0,0,0,0,0,0,0,0,0,26,20,11,9,7,6,0,0,0,0,0,0,0,0,0,0,0,0,0,1.37,0
1578,56,0,0,0,45,34,27,16,10,7,0,0,0,0,0,0,0,0,0,0,0,0,0,26,20,11,9,7,6,0,0,0,0,0,0,0,0,0,0,0,0,0,1.49,0
1580,80,0,0,0,79,72,69,64,59,56,0,0,0,0,0,0,0,0,0,0,0,0,0,79,28,27,25,23,22,0,0,0,0,0,0,0,0,0,0,0,0,0,0.38,0
1582,10,0,0,0,9,8,7,6,5,4,0,0,0,0,0,0,0,0,0,0,0,0,0,9,8,7,6,5,4,0,0,0,0,0,0,0,0,0,0,0,0,0,0.00,0
1584,60,0,0,0,59,52,49,44,39,36,0,0,0,0,0,0,0,0,0,0,0,0,0,59,18,17,15,13,12,0,0,0,0,0,0,0,0,0,0,0,0,0,0.47,0
1586,8,0,0,0,7,6,5,4,3,2,0,0,0,0,0,0,0,0,0,0,0,0,0,7,6,5,4,3,2,0,0,0,0,0,0,0,0,0,0,0,0,0,0.00,0
1588,64,0,5,0,56,48,40,30,8,1,0,0,0,0,0,0,0,0,0,0,0,0,0,13,12,5,4,2,1,0,0,0,0,0,0,0,0,0,0,0,0,0,1.33,0
1590,32,0,2,0,29,26,23,19,15,12,0,0,0,0,0,0,0,0,0,0,0,0,0,16,15,14,12,10,9,0,0,0,0,0,0,0,0,0,0,0,0,0,0.73,0
1614,80,12,11,0,73,56,44,35,28,23,0,0,0,0,0,0,0,0,0,0,0,0,0,23,22,21,20,19,18,0,0,0,0,0,0,0,0,0,0,0,0,0,1.87,0
1616,10,0,0,0,9,8,7,6,5,4,0,0,0,0,0,0,0,0,0,0,0,0,0,9,8,7,6,5,4,0,0,0,0,0,0,0,0,0,0,0,0,0,0.00,0
1618,80,12,11,0,73,56,44,35,28,23,0,0,0,0,0,0,0,0,0,0,0,0,0,23,22,21,20,19,18,0,0,0,0,0,0,0,0,0,0,0,0,0,1.87,0
1620,10,0,0,0,9,8,7,6,5,4,0,0,0,0,0,0,0,0,0,0,0,0,0,9,8,7,6,5,4,0,0,0,0,0,0,0,0,0,0,0,0,0,0.00,0
1622,80,6,12,0,74,57,45,38,30,28,0,0,0,0,0,0,0,0,0,0,0,0,0,34,33,32,31,29,28,0,0,0,0,0,0,0,0,0,0,0,0,0,1.81,0
1624,22,0,0,0,20,19,18,17,15,14,0,0,0,0,0,0,0,0,0,0,0,0,0,20,19,18,17,15,14,0,0,0,0,0,0,0,0,0,0,0,0,0,0.53,0
1626,80,0,6,0,74,62,53,45,41,38,0,0,0,0,0,0,0,0,0,0,0,0,0,44,43,41,39,38,37,0,0,0,0,0,0,0,0,0,0,0,0,0,1.59,0
1628,80,0,3,0,77,70,67,63,56,53,0,0,0,0,0,0,0,0,0,0,0,0,0,54,46,45,44,41,40,0,0,0,0,0,0,0,0,0,0,0,0,0,0.77,0
1630,80,0,4,0,73,62,57,52,44,40,0,0,0,0,0,0,0,0,0,0,0,0,0,35,33,32,31,29,28,0,0,0,0,0,0,0,0,0,0,0,0,0,1.02,0
1632,26,0,1,0,25,23,21,19,17,16,0,0,0,0,0,0,0,0,0,0,0,0,0,25,21,20,19,17,16,0,0,0,0,0,0,0,0,0,0,0,0,0,0.47,0
