pkt#,size,#dec,#op,#rung,#2gram,#3gram,#4gram,#5gram,#6gram,#7gram,#8gram,#9gram,#10gram,#11gram,#12gram,#13gram,#14gram,#15gram,#16gram,#17gram,#18gram,#19gram,#20gram,L2gram,L3gram,L4gram,L5gram,L6gram,L7gram,L8gram,L9gram,L10gram,L11gram,L12gram,L13gram,L14gram,L15gram,L16gram,L17gram,L18gram,L19gram,L20gram,entropy,class
1613,2,0,0,0,0,0,0,0,0,0,0,0,0,0,0,0,0,0,0,0,0,0,0,0,0,0,0,0,0,0,0,0,0,0,0,0,0,0,0,0,0,0,1.00,0
1615,78,6,11,1,66,51,40,33,30,28,0,0,0,0,0,0,0,0,0,0,0,0,0,31,30,29,27,25,24,0,0,0,0,0,0,0,0,0,0,0,0,0,2.19,0
1617,80,6,12,0,58,35,23,15,9,4,0,0,0,0,0,0,0,0,0,0,0,0,0,12,8,7,5,4,3,0,0,0,0,0,0,0,0,0,0,0,0,0,3.12,0
1619,80,6,7,0,64,33,22,15,6,2,1,0,0,0,0,0,0,0,0,0,0,0,0,9,7,6,5,3,2,1,0,0,0,0,0,0,0,0,0,0,0,0,3.29,0
1621,80,6,1,0,71,47,34,24,11,3,1,0,0,0,0,0,0,0,0,0,0,0,0,9,7,6,5,3,2,1,0,0,0,0,0,0,0,0,0,0,0,0,2.59,0
1623,80,16,13,0,66,42,28,17,3,0,0,0,0,0,0,0,0,0,0,0,0,0,0,15,6,5,4,2,0,0,0,0,0,0,0,0,0,0,0,0,0,0,2.75,0
1625,4,0,0,0,3,2,1,0,0,0,0,0,0,0,0,0,0,0,0,0,0,0,0,3,2,1,0,0,0,0,0,0,0,0,0,0,0,0,0,0,0,0,0.00,0
1627,64,10,4,0,55,44,37,35,34,33,3,2,1,0,0,0,0,0,0,0,0,0,0,41,37,36,35,34,33,3,2,1,0,0,0,0,0,0,0,0,0,0,2.18,0
1629,80,0,0,0,79,78,77,76,75,74,0,0,0,0,0,0,0,0,0,0,0,0,0,79,78,77,76,75,74,0,0,0,0,0,0,0,0,0,0,0,0,0,0.00,1
1631,78,0,1,0,76,74,73,72,71,70,0,0,0,0,0,0,0,0,0,0,0,0,0,75,74,73,72,71,70,0,0,0,0,0,0,0,0,0,0,0,0,0,0.20,1
1633,76,0,1,0,75,74,73,71,70,69,0,0,0,0,0,0,0,0,0,0,0,0,0,75,74,73,71,70,69,0,0,0,0,0,0,0,0,0,0,0,0,0,0.10,1
1635,74,0,2,0,73,72,71,69,68,67,0,0,0,0,0,0,0,0,0,0,0,0,0,73,72,71,69,68,67,0,0,0,0,0,0,0,0,0,0,0,0,0,0.10,1
1637,72,0,1,0,71,69,68,67,65,64,0,0,0,0,0,0,0,0,0,0,0,0,0,71,69,68,67,65,64,0,0,0,0,0,0,0,0,0,0,0,0,0,0.21,1
1639,70,0,1,0,69,67,66,65,64,62,0,0,0,0,0,0,0,0,0,0,0,0,0,69,67,66,65,64,62,0,0,0,0,0,0,0,0,0,0,0,0,0,0.22,1
1641,68,0,0,0,67,66,65,64,62,61,0,0,0,0,0,0,0,0,0,0,0,0,0,67,66,65,64,62,61,0,0,0,0,0,0,0,0,0,0,0,0,0,0.11,1
1643,66,0,1,0,65,63,62,61,60,59,0,0,0,0,0,0,0,0,0,0,0,0,0,65,63,62,61,60,59,0,0,0,0,0,0,0,0,0,0,0,0,0,0.11,1
1645,64,0,0,0,63,62,61,59,58,57,0,0,0,0,0,0,0,0,0,0,0,0,0,63,62,61,59,58,57,0,0,0,0,0,0,0,0,0,0,0,0,0,0.12,1
1647,62,0,1,0,61,60,59,58,57,56,1,0,0,0,0,0,0,0,0,0,0,0,0,61,60,59,58,57,56,1,0,0,0,0,0,0,0,0,0,0,0,0,0.24,1
1649,60,0,0,0,59,58,57,56,55,54,0,0,0,0,0,0,0,0,0,0,0,0,0,59,58,57,56,55,54,0,0,0,0,0,0,0,0,0,0,0,0,0,0.00,1
1651,58,0,0,0,57,56,55,54,53,52,0,0,0,0,0,0,0,0,0,0,0,0,0,57,56,55,54,53,52,0,0,0,0,0,0,0,0,0,0,0,0,0,0.00,1
1653,56,0,0,0,55,53,52,51,49,48,0,0,0,0,0,0,0,0,0,0,0,0,0,55,53,52,51,49,48,0,0,0,0,0,0,0,0,0,0,0,0,0,0.26,1
1655,54,0,0,0,53,52,51,50,49,46,0,0,0,0,0,0,0,0,0,0,0,0,0,53,52,51,50,49,46,0,0,0,0,0,0,0,0,0,0,0,0,0,0.27,1
1657,52,0,0,0,51,50,49,48,47,46,0,0,0,0,0,0,0,0,0,0,0,0,0,51,50,49,48,47,46,0,0,0,0,0,0,0,0,0,0,0,0,0,0.00,1
1659,50,0,0,0,49,48,47,46,45,44,0,0,0,0,0,0,0,0,0,0,0,0,0,49,48,47,46,45,44,0,0,0,0,0,0,0,0,0,0,0,0,0,0.00,1
1661,48,0,2,0,47,44,43,42,41,40,0,0,0,0,0,0,0,0,0,0,0,0,0,47,44,43,42,41,40,0,0,0,0,0,0,0,0,0,0,0,0,0,0.29,1
1663,46,0,1,0,45,43,42,41,40,39,0,0,0,0,0,0,0,0,0,0,0,0,0,45,43,42,41,40,39,0,0,0,0,0,0,0,0,0,0,0,0,0,0.15,1
1665,44,0,2,0,43,42,41,39,38,37,0,0,0,0,0,0,0,0,0,0,0,0,0,43,42,41,39,38,37,0,0,0,0,0,0,0,0,0,0,0,0,0,0.16,1
1667,42,0,1,0,41,39,38,37,35,34,0,0,0,0,0,0,0,0,0,0,0,0,0,41,39,38,37,35,34,0,0,0,0,0,0,0,0,0,0,0,0,0,0.32,1
1669,40,0,1,0,39,37,36,35,34,32,0,0,0,0,0,0,0,0,0,0,0,0,0,39,37,36,35,34,32,0,0,0,0,0,0,0,0,0,0,0,0,0,0.34,1
1671,38,0,0,0,37,36,35,34,32,31,0,0,0,0,0,0,0,0,0,0,0,0,0,37,36,35,34,32,31,0,0,0,0,0,0,0,0,0,0,0,0,0,0.18,1
1673,36,0,0,0,35,34,33,31,30,29,0,0,0,0,0,0,0,0,0,0,0,0,0,35,34,33,31,30,29,0,0,0,0,0,0,0,0,0,0,0,0,0,0.18,1
1675,34,0,1,0,33,31,30,29,27,26,0,0,0,0,0,0,0,0,0,0,0,0,0,33,31,30,29,27,26,0,0,0,0,0,0,0,0,0,0,0,0,0,0.38,1
1677,32,0,1,0,31,29,28,27,26,25,0,0,0,0,0,0,0,0,0,0,0,0,0,31,29,28,27,26,25,0,0,0,0,0,0,0,0,0,0,0,0,0,0.20,1
1679,30,0,0,0,29,28,27,25,24,23,0,0,0,0,0,0,0,0,0,0,0,0,0,29,28,27,25,24,23,0,0,0,0,0,0,0,0,0,0,0,0,0,0.21,1
1681,28,0,1,0,27,26,25,24,22,20,0,0,0,0,0,0,0,0,0,0,0,0,0,27,26,25,24,21,20,0,0,0,0,0,0,0,0,0,0,0,0,0,0.44,1
1683,26,0,0,0,25,24,23,22,21,20,0,0,0,0,0,0,0,0,0,0,0,0,0,25,24,23,22,21,20,0,0,0,0,0,0,0,0,0,0,0,0,0,0.00,1
1685,24,0,0,0,23,22,21,20,19,18,0,0,0,0,0,0,0,0,0,0,0,0,0,23,22,21,20,19,18,0,0,0,0,0,0,0,0,0,0,0,0,0,0.00,1
1687,22,0,0,0,21,19,18,16,15,14,0,0,0,0,0,0,0,0,0,0,0,0,0,21,19,18,16,15,14,0,0,0,0,0,0,0,0,0,0,0,0,0,0.53,1
1689,20,0,0,0,19,18,17,16,15,13,0,0,0,0,0,0,0,0,0,0,0,0,0,19,18,17,16,15,12,0,0,0,0,0,0,0,0,0,0,0,0,0,0.57,1
1691,18,0,0,0,17,16,15,14,13,12,0,0,0,0,0,0,0,0,0,0,0,0,0,17,16,15,14,13,12,0,0,0,0,0,0,0,0,0,0,0,0,0,0.00,1
1693,16,0,1,0,15,13,12,11,9,8,0,0,0,0,0,0,0,0,0,0,0,0,0,15,13,12,11,9,8,0,0,0,0,0,0,0,0,0,0,0,0,0,0.67,1
1695,14,0,0,0,13,12,11,9,8,7,0,0,0,0,0,0,0,0,0,0,0,0,0,13,12,11,9,8,7,0,0,0,0,0,0,0,0,0,0,0,0,0,0.37,1
1697,12,0,1,0,11,9,8,7,6,5,0,0,0,0,0,0,0,0,0,0,0,0,0,11,9,8,7,6,5,0,0,0,0,0,0,0,0,0,0,0,0,0,0.41,1
1699,10,0,0,0,9,8,7,5,4,3,0,0,0,0,0,0,0,0,0,0,0,0,0,9,8,7,5,4,3,0,0,0,0,0,0,0,0,0,0,0,0,0,0.47,1
1701,8,0,1,0,7,6,5,4,2,0,0,0,0,0,0,0,0,0,0,0,0,0,0,7,6,5,4,1,0,0,0,0,0,0,0,0,0,0,0,0,0,0,1.06,1
1703,6,0,0,0,5,4,3,2,1,0,0,0,0,0,0,0,0,0,0,0,0,0,0,5,4,3,2,1,0,0,0,0,0,0,0,0,0,0,0,0,0,0,0.00,1
1705,4,0,0,0,3,2,1,0,0,0,0,0,0,0,0,0,0,0,0,0,0,0,0,3,2,1,0,0,0,0,0,0,0,0,0,0,0,0,0,0,0,0,0.00,1
1707,2,0,0,0,1,0,0,0,0,0,0,0,0,0,0,0,0,0,0,0,0,0,0,1,0,0,0,0,0,0,0,0,0,0,0,0,0,0,0,0,0,0,1.00,1
1709,80,0,0,0,79,78,77,76,75,72,0,0,0,0,0,0,0,0,0,0,0,0,0,79,78,77,76,75,72,0,0,0,0,0,0,0,0,0,0,0,0,0,0.19,1
1711,78,0,0,0,77,76,75,74,73,72,0,0,0,0,0,0,0,0,0,0,0,0,0,77,76,75,74,73,72,0,0,0,0,0,0,0,0,0,0,0,0,0,0.00,1
1713,76,0,1,0,75,73,72,71,69,68,0,0,0,0,0,0,0,0,0,0,0,0,0,75,73,72,71,69,68,0,0,0,0,0,0,0,0,0,0,0,0,0,0.20,1
1715,74,0,1,0,73,72,71,70,68,67,0,0,0,0,0,0,0,0,0,0,0,0,0,73,72,71,70,68,67,0,0,0,0,0,0,0,0,0,0,0,0,0,0.10,1
1717,72,0,0,0,71,70,69,68,67,66,0,0,0,0,0,0,0,0,0,0,0,0,0,71,70,69,68,67,66,0,0,0,0,0,0,0,0,0,0,0,0,0,0.00,1
1719,70,0,0,0,68,66,65,64,63,62,0,0,0,0,0,0,0,0,0,0,0,0,0,67,66,65,64,63,62,0,0,0,0,0,0,0,0,0,0,0,0,0,0.22,1
1721,68,0,2,0,67,65,64,63,62,61,0,0,0,0,0,0,0,0,0,0,0,0,0,67,65,64,63,62,61,0,0,0,0,0,0,0,0,0,0,0,0,0,0.11,1
1723,66,0,2,0,65,64,63,61,60,59,0,0,0,0,0,0,0,0,0,0,0,0,0,65,64,63,61,60,59,0,0,0,0,0,0,0,0,0,0,0,0,0,0.11,1
1725,64,0,0,0,63,62,61,60,58,56,0,0,0,0,0,0,0,0,0,0,0,0,0,63,62,61,60,57,56,0,0,0,0,0,0,0,0,0,0,0,0,0,0.12,1
1727,62,0,0,0,61,60,59,58,57,54,0,0,0,0,0,0,0,0,0,0,0,0,0,61,60,59,58,57,54,0,0,0,0,0,0,0,0,0,0,0,0,0,0.24,1
1729,60,0,0,0,59,58,57,56,55,54,0,0,0,0,0,0,0,0,0,0,0,0,0,59,58,57,56,55,54,0,0,0,0,0,0,0,0,0,0,0,0,0,0.00,1
1731,58,0,2,0,57,55,54,53,51,50,0,0,0,0,0,0,0,0,0,0,0,0,0,57,55,54,53,51,50,0,0,0,0,0,0,0,0,0,0,0,0,0,0.25,1
1733,56,0,1,0,55,53,52,51,49,48,0,0,0,0,0,0,0,0,0,0,0,0,0,55,53,52,51,49,48,0,0,0,0,0,0,0,0,0,0,0,0,0,0.26,1
1735,54,0,0,0,53,52,51,50,49,46,0,0,0,0,0,0,0,0,0,0,0,0,0,53,52,51,50,49,46,0,0,0,0,0,0,0,0,0,0,0,0,0,0.27,1
1737,52,0,0,0,51,50,49,48,47,46,0,0,0,0,0,0,0,0,0,0,0,0,0,51,50,49,48,47,46,0,0,0,0,0,0,0,0,0,0,0,0,0,0.00,1
1739,50,0,2,0,49,47,46,45,44,43,0,0,0,0,0,0,0,0,0,0,0,0,0,49,47,46,45,44,43,0,0,0,0,0,0,0,0,0,0,0,0,0,0.14,1
1741,48,0,0,0,47,45,44,43,42,41,0,0,0,0,0,0,0,0,0,0,0,0,0,47,45,44,43,42,41,0,0,0,0,0,0,0,0,0,0,0,0,0,0.15,1
1743,46,0,0,0,45,43,42,40,39,38,0,0,0,0,0,0,0,0,0,0,0,0,0,45,43,42,40,39,38,0,0,0,0,0,0,0,0,0,0,0,0,0,0.30,1
1745,44,0,0,0,43,42,41,40,39,37,0,0,0,0,0,0,0,0,0,0,0,0,0,43,42,41,40,39,36,0,0,0,0,0,0,0,0,0,0,0,0,0,0.31,1
1747,42,0,0,0,41,40,39,38,37,36,0,0,0,0,0,0,0,0,0,0,0,0,0,41,40,39,38,37,36,0,0,0,0,0,0,0,0,0,0,0,0,0,0.00,1
1749,40,0,1,0,39,38,37,36,34,32,0,0,0,0,0,0,0,0,0,0,0,0,0,39,38,37,36,33,32,0,0,0,0,0,0,0,0,0,0,0,0,0,0.34,1
1751,38,0,1,0,37,36,34,32,31,30,0,0,0,0,0,0,0,0,0,0,0,0,0,37,36,33,32,31,30,0,0,0,0,0,0,0,0,0,0,0,0,0,0.18,1
1753,36,0,0,0,35,34,33,32,31,30,0,0,0,0,0,0,0,0,0,0,0,0,0,35,34,33,32,31,30,0,0,0,0,0,0,0,0,0,0,0,0,0,0.00,1
1755,34,0,0,0,33,31,30,28,27,26,0,0,0,0,0,0,0,0,0,0,0,0,0,33,31,30,28,27,26,0,0,0,0,0,0,0,0,0,0,0,0,0,0.38,1
1757,32,0,0,0,31,30,29,28,27,25,0,0,0,0,0,0,0,0,0,0,0,0,0,31,30,29,28,27,24,0,0,0,0,0,0,0,0,0,0,0,0,0,0.40,1
1759,30,0,0,0,29,28,27,26,25,24,0,0,0,0,0,0,0,0,0,0,0,0,0,29,28,27,26,25,24,0,0,0,0,0,0,0,0,0,0,0,0,0,0.00,1
1761,28,0,0,0,27,26,25,24,23,22,0,0,0,0,0,0,0,0,0,0,0,0,0,27,26,25,24,23,22,0,0,0,0,0,0,0,0,0,0,0,0,0,0.00,1
1763,26,0,1,0,25,22,21,20,19,18,0,0,0,0,0,0,0,0,0,0,0,0,0,25,22,21,20,19,18,0,0,0,0,0,0,0,0,0,0,0,0,0,0.47,1
1765,24,0,2,0,23,21,20,19,18,17,0,0,0,0,0,0,0,0,0,0,0,0,0,23,21,20,19,18,17,0,0,0,0,0,0,0,0,0,0,0,0,0,0.25,1
1767,22,0,2,0,21,20,19,17,16,15,0,0,0,0,0,0,0,0,0,0,0,0,0,21,20,19,17,16,15,0,0,0,0,0,0,0,0,0,0,0,0,0,0.27,1
1769,20,0,0,0,19,18,17,16,14,12,0,0,0,0,0,0,0,0,0,0,0,0,0,19,18,17,16,13,12,0,0,0,0,0,0,0,0,0,0,0,0,0,0.29,1
1771,18,0,0,0,17,16,15,14,13,10,0,0,0,0,0,0,0,0,0,0,0,0,0,17,16,15,14,13,10,0,0,0,0,0,0,0,0,0,0,0,0,0,0.61,1
1773,16,0,0,0,15,14,13,12,10,9,0,0,0,0,0,0,0,0,0,0,0,0,0,15,14,13,12,10,9,0,0,0,0,0,0,0,0,0,0,0,0,0,0.34,1
1775,14,0,2,0,13,11,10,9,7,6,0,0,0,0,0,0,0,0,0,0,0,0,0,13,11,10,9,7,6,0,0,0,0,0,0,0,0,0,0,0,0,0,0.73,1
1777,12,0,1,0,11,9,8,7,5,4,0,0,0,0,0,0,0,0,0,0,0,0,0,11,9,8,7,5,4,0,0,0,0,0,0,0,0,0,0,0,0,0,0.82,1
1781,10,0,0,0,9,8,7,6,5,2,0,0,0,0,0,0,0,0,0,0,0,0,0,9,8,7,6,5,2,0,0,0,0,0,0,0,0,0,0,0,0,0,0.92,1
1783,8,0,0,0,7,6,5,4,2,1,0,0,0,0,0,0,0,0,0,0,0,0,0,7,6,5,4,2,1,0,0,0,0,0,0,0,0,0,0,0,0,0,0.54,1
1785,6,0,2,0,5,3,2,1,0,0,0,0,0,0,0,0,0,0,0,0,0,0,0,5,3,2,1,0,0,0,0,0,0,0,0,0,0,0,0,0,0,0,0.65,1
1787,4,0,0,0,3,1,0,0,0,0,0,0,0,0,0,0,0,0,0,0,0,0,0,3,1,0,0,0,0,0,0,0,0,0,0,0,0,0,0,0,0,0,0.81,1
1789,2,0,0,0,1,0,0,0,0,0,0,0,0,0,0,0,0,0,0,0,0,0,0,1,0,0,0,0,0,0,0,0,0,0,0,0,0,0,0,0,0,0,1.00,1
1791,80,0,0,0,79,78,77,76,75,73,0,0,0,0,0,0,0,0,0,0,0,0,0,79,78,77,76,75,72,0,0,0,0,0,0,0,0,0,0,0,0,0,0.19,1
1793,78,0,0,0,77,76,75,74,73,72,0,0,0,0,0,0,0,0,0,0,0,0,0,77,76,75,74,73,72,0,0,0,0,0,0,0,0,0,0,0,0,0,0.00,1
1795,76,0,1,0,75,74,73,72,70,68,0,0,0,0,0,0,0,0,0,0,0,0,0,75,74,73,72,69,68,0,0,0,0,0,0,0,0,0,0,0,0,0,0.20,1
1797,74,0,0,0,73,72,70,68,67,66,0,0,0,0,0,0,0,0,0,0,0,0,0,73,72,69,68,67,66,0,0,0,0,0,0,0,0,0,0,0,0,0,0.21,1
1799,72,0,0,0,71,70,69,68,67,66,0,0,0,0,0,0,0,0,0,0,0,0,0,71,70,69,68,67,66,0,0,0,0,0,0,0,0,0,0,0,0,0,0.00,1
1801,70,0,0,0,69,67,66,64,63,62,0,0,0,0,0,0,0,0,0,0,0,0,0,69,67,66,64,63,62,0,0,0,0,0,0,0,0,0,0,0,0,0,0.22,1
1803,68,0,0,0,67,66,65,64,63,61,0,0,0,0,0,0,0,0,0,0,0,0,0,67,66,65,64,63,60,0,0,0,0,0,0,0,0,0,0,0,0,0,0.22,1
1805,66,0,0,0,65,64,63,62,61,60,0,0,0,0,0,0,0,0,0,0,0,0,0,65,64,63,62,61,60,0,0,0,0,0,0,0,0,0,0,0,0,0,0.00,1
1807,64,0,0,0,63,62,61,60,59,58,0,0,0,0,0,0,0,0,0,0,0,0,0,63,62,61,60,59,58,0,0,0,0,0,0,0,0,0,0,0,0,0,0.00,1
1809,62,0,1,0,60,58,57,56,55,54,0,0,0,0,0,0,0,0,0,0,0,0,0,59,58,57,56,55,54,0,0,0,0,0,0,0,0,0,0,0,0,0,0.24,1
1811,60,0,2,0,59,57,56,55,54,53,0,0,0,0,0,0,0,0,0,0,0,0,0,59,57,56,55,54,53,0,0,0,0,0,0,0,0,0,0,0,0,0,0.12,1
1813,58,0,2,0,57,56,55,53,52,51,0,0,0,0,0,0,0,0,0,0,0,0,0,57,56,55,53,52,51,0,0,0,0,0,0,0,0,0,0,0,0,0,0.13,1
1815,56,0,0,0,55,54,53,52,50,48,0,0,0,0,0,0,0,0,0,0,0,0,0,55,54,53,52,49,48,0,0,0,0,0,0,0,0,0,0,0,0,0,0.13,1
1817,54,0,0,0,53,52,51,50,49,46,0,0,0,0,0,0,0,0,0,0,0,0,0,53,52,51,50,49,46,0,0,0,0,0,0,0,0,0,0,0,0,0,0.27,1
1819,52,0,1,0,51,50,49,48,46,45,0,0,0,0,0,0,0,0,0,0,0,0,0,51,50,49,48,46,45,0,0,0,0,0,0,0,0,0,0,0,0,0,0.14,1
1821,50,0,2,0,49,47,46,45,43,42,0,0,0,0,0,0,0,0,0,0,0,0,0,49,47,46,45,43,42,0,0,0,0,0,0,0,0,0,0,0,0,0,0.28,1
1823,48,0,1,0,47,45,44,43,41,40,0,0,0,0,0,0,0,0,0,0,0,0,0,47,45,44,43,41,40,0,0,0,0,0,0,0,0,0,0,0,0,0,0.29,1
1825,46,0,0,0,45,44,43,42,41,38,0,0,0,0,0,0,0,0,0,0,0,0,0,45,44,43,42,41,38,0,0,0,0,0,0,0,0,0,0,0,0,0,0.30,1
1827,44,0,1,0,43,42,41,40,38,37,0,0,0,0,0,0,0,0,0,0,0,0,0,43,42,41,40,38,37,0,0,0,0,0,0,0,0,0,0,0,0,0,0.16,1
1829,42,0,2,0,41,39,38,37,36,35,0,0,0,0,0,0,0,0,0,0,0,0,0,41,39,38,37,36,35,0,0,0,0,0,0,0,0,0,0,0,0,0,0.16,1
1832,40,0,0,0,39,37,36,35,34,33,0,0,0,0,0,0,0,0,0,0,0,0,0,39,37,36,35,34,33,0,0,0,0,0,0,0,0,0,0,0,0,0,0.17,1
1834,38,0,0,0,37,35,34,32,31,30,0,0,0,0,0,0,0,0,0,0,0,0,0,37,35,34,32,31,30,0,0,0,0,0,0,0,0,0,0,0,0,0,0.35,1
1836,36,0,0,0,35,34,33,32,31,29,0,0,0,0,0,0,0,0,0,0,0,0,0,35,34,33,32,31,28,0,0,0,0,0,0,0,0,0,0,0,0,0,0.37,1
1838,34,0,0,0,33,32,31,30,29,28,0,0,0,0,0,0,0,0,0,0,0,0,0,33,32,31,30,29,28,0,0,0,0,0,0,0,0,0,0,0,0,0,0.00,1
1840,32,0,1,0,31,30,29,28,26,24,0,0,0,0,0,0,0,0,0,0,0,0,0,31,30,29,28,25,24,0,0,0,0,0,0,0,0,0,0,0,0,0,0.40,1
1842,30,0,0,0,29,28,26,24,23,22,0,0,0,0,0,0,0,0,0,0,0,0,0,29,28,25,24,23,22,0,0,0,0,0,0,0,0,0,0,0,0,0,0.21,1
1844,28,0,0,0,27,26,25,24,23,22,0,0,0,0,0,0,0,0,0,0,0,0,0,27,26,25,24,23,22,0,0,0,0,0,0,0,0,0,0,0,0,0,0.00,1
1846,26,0,0,0,25,23,22,20,19,18,0,0,0,0,0,0,0,0,0,0,0,0,0,25,23,22,20,19,18,0,0,0,0,0,0,0,0,0,0,0,0,0,0.47,1
1848,24,0,0,0,23,22,21,20,19,17,0,0,0,0,0,0,0,0,0,0,0,0,0,23,22,21,20,19,16,0,0,0,0,0,0,0,0,0,0,0,0,0,0.50,1
1850,22,0,0,0,21,20,19,18,17,16,0,0,0,0,0,0,0,0,0,0,0,0,0,21,20,19,18,17,16,0,0,0,0,0,0,0,0,0,0,0,0,0,0.00,1
1852,20,0,0,0,19,18,17,16,15,14,0,0,0,0,0,0,0,0,0,0,0,0,0,19,18,17,16,15,14,0,0,0,0,0,0,0,0,0,0,0,0,0,0.00,1
1854,18,0,1,0,16,14,13,12,11,10,0,0,0,0,0,0,0,0,0,0,0,0,0,15,14,13,12,11,10,0,0,0,0,0,0,0,0,0,0,0,0,0,0.61,1
1856,16,0,1,0,15,14,13,11,10,9,0,0,0,0,0,0,0,0,0,0,0,0,0,15,14,13,11,10,9,0,0,0,0,0,0,0,0,0,0,0,0,0,0.34,1
1858,14,0,2,0,13,12,11,9,8,7,0,0,0,0,0,0,0,0,0,0,0,0,0,13,12,11,9,8,7,0,0,0,0,0,0,0,0,0,0,0,0,0,0.37,1
1860,12,0,0,0,11,10,9,8,6,4,0,0,0,0,0,0,0,0,0,0,0,0,0,11,10,9,8,5,4,0,0,0,0,0,0,0,0,0,0,0,0,0,0.41,1
1862,10,0,0,0,9,8,7,6,5,2,0,0,0,0,0,0,0,0,0,0,0,0,0,9,8,7,6,5,2,0,0,0,0,0,0,0,0,0,0,0,0,0,0.92,1
1864,8,0,1,0,7,6,5,4,2,1,0,0,0,0,0,0,0,0,0,0,0,0,0,7,6,5,4,2,1,0,0,0,0,0,0,0,0,0,0,0,0,0,0.54,1
1866,6,0,2,0,5,3,2,1,0,0,0,0,0,0,0,0,0,0,0,0,0,0,0,5,3,2,1,0,0,0,0,0,0,0,0,0,0,0,0,0,0,0,1.25,1
1868,4,0,1,0,3,1,0,0,0,0,0,0,0,0,0,0,0,0,0,0,0,0,0,3,1,0,0,0,0,0,0,0,0,0,0,0,0,0,0,0,0,0,1.50,1
1870,2,0,0,0,1,0,0,0,0,0,0,0,0,0,0,0,0,0,0,0,0,0,0,1,0,0,0,0,0,0,0,0,0,0,0,0,0,0,0,0,0,0,1.00,1
1872,80,0,1,0,79,78,77,76,74,73,0,0,0,0,0,0,0,0,0,0,0,0,0,79,78,77,76,74,73,0,0,0,0,0,0,0,0,0,0,0,0,0,0.10,1
1874,78,0,2,0,77,76,75,73,72,71,0,0,0,0,0,0,0,0,0,0,0,0,0,77,76,75,73,72,71,0,0,0,0,0,0,0,0,0,0,0,0,0,0.10,1
1876,76,0,1,0,75,73,72,71,69,68,0,0,0,0,0,0,0,0,0,0,0,0,0,75,73,72,71,69,68,0,0,0,0,0,0,0,0,0,0,0,0,0,0.20,1
1878,74,0,0,0,73,72,71,70,69,66,0,0,0,0,0,0,0,0,0,0,0,0,0,73,72,71,70,69,66,0,0,0,0,0,0,0,0,0,0,0,0,0,0.21,1
1880,72,0,1,0,71,70,69,68,66,65,0,0,0,0,0,0,0,0,0,0,0,0,0,71,70,69,68,66,65,0,0,0,0,0,0,0,0,0,0,0,0,0,0.11,1
1882,70,0,0,0,69,68,67,66,65,64,0,0,0,0,0,0,0,0,0,0,0,0,0,69,68,67,66,65,64,0,0,0,0,0,0,0,0,0,0,0,0,0,0.00,1
1884,68,0,2,0,67,64,63,62,61,60,0,0,0,0,0,0,0,0,0,0,0,0,0,67,64,63,62,61,60,0,0,0,0,0,0,0,0,0,0,0,0,0,0.22,1
1886,66,0,2,0,65,64,63,62,60,59,0,0,0,0,0,0,0,0,0,0,0,0,0,65,64,63,62,60,59,0,0,0,0,0,0,0,0,0,0,0,0,0,0.11,1
1888,64,0,2,0,63,62,61,59,58,57,0,0,0,0,0,0,0,0,0,0,0,0,0,63,62,61,59,58,57,0,0,0,0,0,0,0,0,0,0,0,0,0,0.12,1
1890,62,0,1,0,61,59,58,57,55,54,0,0,0,0,0,0,0,0,0,0,0,0,0,61,59,58,57,55,54,0,0,0,0,0,0,0,0,0,0,0,0,0,0.24,1
1892,60,0,0,0,59,58,57,56,55,52,0,0,0,0,0,0,0,0,0,0,0,0,0,59,58,57,56,55,52,0,0,0,0,0,0,0,0,0,0,0,0,0,0.24,1
1894,58,0,1,0,57,56,55,54,52,51,0,0,0,0,0,0,0,0,0,0,0,0,0,57,56,55,54,52,51,0,0,0,0,0,0,0,0,0,0,0,0,0,0.13,1
1896,56,0,1,0,55,53,52,51,50,49,0,0,0,0,0,0,0,0,0,0,0,0,0,55,53,52,51,50,49,0,0,0,0,0,0,0,0,0,0,0,0,0,0.13,1
1898,54,0,0,0,53,51,50,49,48,47,0,0,0,0,0,0,0,0,0,0,0,0,0,53,51,50,49,48,47,0,0,0,0,0,0,0,0,0,0,0,0,0,0.13,1
1900,52,0,0,0,51,49,48,46,45,44,0,0,0,0,0,0,0,0,0,0,0,0,0,51,49,48,46,45,44,0,0,0,0,0,0,0,0,0,0,0,0,0,0.27,1
1902,50,0,0,0,49,48,47,46,45,43,0,0,0,0,0,0,0,0,0,0,0,0,0,49,48,47,46,45,42,0,0,0,0,0,0,0,0,0,0,0,0,0,0.28,1
1904,48,0,0,0,47,46,45,44,43,42,0,0,0,0,0,0,0,0,0,0,0,0,0,47,46,45,44,43,42,0,0,0,0,0,0,0,0,0,0,0,0,0,0.00,1
1906,46,0,0,0,45,43,42,40,39,38,0,0,0,0,0,0,0,0,0,0,0,0,0,45,43,42,40,39,38,0,0,0,0,0,0,0,0,0,0,0,0,0,0.30,1
1908,44,0,0,0,43,42,41,40,39,36,0,0,0,0,0,0,0,0,0,0,0,0,0,43,42,41,40,39,36,0,0,0,0,0,0,0,0,0,0,0,0,0,0.31,1
1910,42,0,0,0,41,40,39,38,37,36,0,0,0,0,0,0,0,0,0,0,0,0,0,41,40,39,38,37,36,0,0,0,0,0,0,0,0,0,0,0,0,0,0.00,1
1912,40,0,0,0,39,37,36,34,33,32,0,0,0,0,0,0,0,0,0,0,0,0,0,39,37,36,34,33,32,0,0,0,0,0,0,0,0,0,0,0,0,0,0.34,1
1914,38,0,0,0,37,36,35,34,33,30,0,0,0,0,0,0,0,0,0,0,0,0,0,37,36,35,34,33,30,0,0,0,0,0,0,0,0,0,0,0,0,0,0.35,1
1916,36,0,0,0,35,34,33,32,31,30,0,0,0,0,0,0,0,0,0,0,0,0,0,35,34,33,32,31,30,0,0,0,0,0,0,0,0,0,0,0,0,0,0.00,1
1918,34,0,0,0,33,32,31,30,29,28,0,0,0,0,0,0,0,0,0,0,0,0,0,33,32,31,30,29,28,0,0,0,0,0,0,0,0,0,0,0,0,0,0.00,1
1920,32,0,1,0,31,28,27,26,25,24,0,0,0,0,0,0,0,0,0,0,0,0,0,31,28,27,26,25,24,0,0,0,0,0,0,0,0,0,0,0,0,0,0.40,1
1922,30,0,0,0,29,27,26,25,24,23,0,0,0,0,0,0,0,0,0,0,0,0,0,29,27,26,25,24,23,0,0,0,0,0,0,0,0,0,0,0,0,0,0.21,1
1924,28,0,2,0,27,26,25,23,22,21,0,0,0,0,0,0,0,0,0,0,0,0,0,27,26,25,23,22,21,0,0,0,0,0,0,0,0,0,0,0,0,0,0.22,1
1926,26,0,0,0,25,24,23,22,20,18,0,0,0,0,0,0,0,0,0,0,0,0,0,25,24,23,22,19,18,0,0,0,0,0,0,0,0,0,0,0,0,0,0.24,1
1928,24,0,0,0,23,22,21,20,19,16,0,0,0,0,0,0,0,0,0,0,0,0,0,23,22,21,20,19,16,0,0,0,0,0,0,0,0,0,0,0,0,0,0.50,1
1930,22,0,1,0,21,20,19,18,16,15,0,0,0,0,0,0,0,0,0,0,0,0,0,21,20,19,18,16,15,0,0,0,0,0,0,0,0,0,0,0,0,0,0.27,1
1932,20,0,2,0,19,18,17,15,14,13,0,0,0,0,0,0,0,0,0,0,0,0,0,19,18,17,15,14,13,0,0,0,0,0,0,0,0,0,0,0,0,0,0.29,1
1934,18,0,0,0,17,16,15,14,13,12,0,0,0,0,0,0,0,0,0,0,0,0,0,17,16,15,14,13,12,0,0,0,0,0,0,0,0,0,0,0,0,0,0.00,1
1936,16,0,0,0,15,14,13,12,11,9,0,0,0,0,0,0,0,0,0,0,0,0,0,15,14,13,12,11,8,0,0,0,0,0,0,0,0,0,0,0,0,0,0.67,1
1938,14,0,0,0,13,12,11,10,9,8,0,0,0,0,0,0,0,0,0,0,0,0,0,13,12,11,10,9,8,0,0,0,0,0,0,0,0,0,0,0,0,0,0.00,1
1940,12,0,0,0,11,10,9,8,7,6,0,0,0,0,0,0,0,0,0,0,0,0,0,11,10,9,8,7,6,0,0,0,0,0,0,0,0,0,0,0,0,0,0.00,1
1942,10,0,1,0,8,6,5,4,3,2,0,0,0,0,0,0,0,0,0,0,0,0,0,7,6,5,4,3,2,0,0,0,0,0,0,0,0,0,0,0,0,0,0.92,1
1944,8,0,0,0,7,5,4,3,2,1,0,0,0,0,0,0,0,0,0,0,0,0,0,7,5,4,3,2,1,0,0,0,0,0,0,0,0,0,0,0,0,0,0.54,1
1946,6,0,2,0,5,4,3,1,0,0,0,0,0,0,0,0,0,0,0,0,0,0,0,5,4,3,1,0,0,0,0,0,0,0,0,0,0,0,0,0,0,0,0.65,1
1948,4,0,1,0,3,1,0,0,0,0,0,0,0,0,0,0,0,0,0,0,0,0,0,3,1,0,0,0,0,0,0,0,0,0,0,0,0,0,0,0,0,0,1.50,1
1950,2,0,0,0,1,0,0,0,0,0,0,0,0,0,0,0,0,0,0,0,0,0,0,1,0,0,0,0,0,0,0,0,0,0,0,0,0,0,0,0,0,0,1.00,1
1952,78,0,1,0,77,76,75,74,72,71,0,0,0,0,0,0,0,0,0,0,0,0,0,77,76,75,74,72,71,0,0,0,0,0,0,0,0,0,0,0,0,0,0.10,1
1954,76,0,2,0,75,73,72,71,70,69,0,0,0,0,0,0,0,0,0,0,0,0,0,75,73,72,71,70,69,0,0,0,0,0,0,0,0,0,0,0,0,0,0.10,1
1956,74,0,0,0,73,72,71,69,68,67,0,0,0,0,0,0,0,0,0,0,0,0,0,73,72,71,69,68,67,0,0,0,0,0,0,0,0,0,0,0,0,0,0.10,1
1958,72,0,0,0,71,69,68,66,65,64,0,0,0,0,0,0,0,0,0,0,0,0,0,71,69,68,66,65,64,0,0,0,0,0,0,0,0,0,0,0,0,0,0.21,1
1960,70,0,0,0,69,68,67,66,65,62,0,0,0,0,0,0,0,0,0,0,0,0,0,69,68,67,66,65,62,0,0,0,0,0,0,0,0,0,0,0,0,0,0.22,1
1962,68,0,0,0,67,66,65,64,63,62,0,0,0,0,0,0,0,0,0,0,0,0,0,67,66,65,64,63,62,0,0,0,0,0,0,0,0,0,0,0,0,0,0.00,1
1964,66,0,1,0,65,64,63,62,60,58,0,0,0,0,0,0,0,0,0,0,0,0,0,65,64,63,62,59,58,0,0,0,0,0,0,0,0,0,0,0,0,0,0.23,1
1966,64,0,0,0,63,62,61,60,59,58,0,0,0,0,0,0,0,0,0,0,0,0,0,63,62,61,60,59,58,0,0,0,0,0,0,0,0,0,0,0,0,0,0.00,1
1968,62,0,0,0,61,60,59,58,57,56,0,0,0,0,0,0,0,0,0,0,0,0,0,61,60,59,58,57,56,0,0,0,0,0,0,0,0,0,0,0,0,0,0.00,1
1970,60,0,1,0,59,58,57,55,54,53,0,0,0,0,0,0,0,0,0,0,0,0,0,59,58,57,55,54,53,0,0,0,0,0,0,0,0,0,0,0,0,0,0.12,1
1972,58,0,0,0,57,56,55,54,53,52,0,0,0,0,0,0,0,0,0,0,0,0,0,57,56,55,54,53,52,0,0,0,0,0,0,0,0,0,0,0,0,0,0.00,1
1974,56,0,0,0,55,54,53,52,51,49,0,0,0,0,0,0,0,0,0,0,0,0,0,55,54,53,52,51,48,0,0,0,0,0,0,0,0,0,0,0,0,0,0.26,1
1976,54,0,0,0,53,52,51,50,49,48,0,0,0,0,0,0,0,0,0,0,0,0,0,53,52,51,50,49,48,0,0,0,0,0,0,0,0,0,0,0,0,0,0.00,1
1978,52,0,0,0,51,50,49,48,47,46,0,0,0,0,0,0,0,0,0,0,0,0,0,51,50,49,48,47,46,0,0,0,0,0,0,0,0,0,0,0,0,0,0.00,1
1980,50,0,0,0,49,47,46,44,43,42,0,0,0,0,0,0,0,0,0,0,0,0,0,49,47,46,44,43,42,0,0,0,0,0,0,0,0,0,0,0,0,0,0.28,1
1982,48,0,2,0,47,45,44,43,42,41,0,0,0,0,0,0,0,0,0,0,0,0,0,47,45,44,43,42,41,0,0,0,0,0,0,0,0,0,0,0,0,0,0.15,1
1984,46,0,2,0,45,44,43,41,40,39,0,0,0,0,0,0,0,0,0,0,0,0,0,45,44,43,41,40,39,0,0,0,0,0,0,0,0,0,0,0,0,0,0.15,1
1986,44,0,0,0,43,42,41,40,38,36,0,0,0,0,0,0,0,0,0,0,0,0,0,43,42,41,40,37,36,0,0,0,0,0,0,0,0,0,0,0,0,0,0.16,1
1988,42,0,0,0,41,40,39,38,37,34,0,0,0,0,0,0,0,0,0,0,0,0,0,41,40,39,38,37,34,0,0,0,0,0,0,0,0,0,0,0,0,0,0.32,1
1990,40,0,1,0,39,38,37,36,34,33,0,0,0,0,0,0,0,0,0,0,0,0,0,39,38,37,36,34,33,0,0,0,0,0,0,0,0,0,0,0,0,0,0.17,1
1992,38,0,2,0,37,35,34,33,31,30,0,0,0,0,0,0,0,0,0,0,0,0,0,37,35,34,33,31,30,0,0,0,0,0,0,0,0,0,0,0,0,0,0.35,1
1994,36,0,1,0,35,33,32,31,29,28,0,0,0,0,0,0,0,0,0,0,0,0,0,35,33,32,31,29,28,0,0,0,0,0,0,0,0,0,0,0,0,0,0.37,1
1996,34,0,0,0,33,32,31,30,29,26,0,0,0,0,0,0,0,0,0,0,0,0,0,33,32,31,30,29,26,0,0,0,0,0,0,0,0,0,0,0,0,0,0.38,1
1998,32,0,1,0,31,30,29,28,26,25,0,0,0,0,0,0,0,0,0,0,0,0,0,31,30,29,28,26,25,0,0,0,0,0,0,0,0,0,0,0,0,0,0.20,1
2000,30,0,1,0,29,27,26,25,24,23,0,0,0,0,0,0,0,0,0,0,0,0,0,29,27,26,25,24,23,0,0,0,0,0,0,0,0,0,0,0,0,0,0.21,1
2002,28,0,0,0,27,25,24,23,22,21,0,0,0,0,0,0,0,0,0,0,0,0,0,27,25,24,23,22,21,0,0,0,0,0,0,0,0,0,0,0,0,0,0.22,1
2004,26,0,0,0,25,23,22,20,19,18,0,0,0,0,0,0,0,0,0,0,0,0,0,25,23,22,20,19,18,0,0,0,0,0,0,0,0,0,0,0,0,0,0.47,1
2006,24,0,0,0,23,22,21,20,19,17,0,0,0,0,0,0,0,0,0,0,0,0,0,23,22,21,20,19,16,0,0,0,0,0,0,0,0,0,0,0,0,0,0.50,1
2008,22,0,0,0,21,20,19,18,17,16,0,0,0,0,0,0,0,0,0,0,0,0,0,21,20,19,18,17,16,0,0,0,0,0,0,0,0,0,0,0,0,0,0.00,1
2010,20,0,0,0,19,17,16,14,13,12,0,0,0,0,0,0,0,0,0,0,0,0,0,19,17,16,14,13,12,0,0,0,0,0,0,0,0,0,0,0,0,0,0.57,1
2012,18,0,0,0,17,16,15,14,13,10,0,0,0,0,0,0,0,0,0,0,0,0,0,17,16,15,14,13,10,0,0,0,0,0,0,0,0,0,0,0,0,0,0.61,1
2014,16,0,0,0,15,14,13,12,11,10,0,0,0,0,0,0,0,0,0,0,0,0,0,15,14,13,12,11,10,0,0,0,0,0,0,0,0,0,0,0,0,0,0.00,1
2016,14,0,0,0,13,11,10,8,7,6,0,0,0,0,0,0,0,0,0,0,0,0,0,13,11,10,8,7,6,0,0,0,0,0,0,0,0,0,0,0,0,0,0.73,1
2018,12,0,0,0,11,10,9,8,7,5,0,0,0,0,0,0,0,0,0,0,0,0,0,11,10,9,8,7,4,0,0,0,0,0,0,0,0,0,0,0,0,0,0.82,1
2020,10,0,0,0,9,8,7,6,5,4,0,0,0,0,0,0,0,0,0,0,0,0,0,9,8,7,6,5,4,0,0,0,0,0,0,0,0,0,0,0,0,0,0.00,1
2022,8,0,0,0,7,6,5,4,3,2,0,0,0,0,0,0,0,0,0,0,0,0,0,7,6,5,4,3,2,0,0,0,0,0,0,0,0,0,0,0,0,0,0.00,1
2024,6,0,1,0,5,4,3,1,0,0,0,0,0,0,0,0,0,0,0,0,0,0,0,5,4,3,1,0,0,0,0,0,0,0,0,0,0,0,0,0,0,0,0.65,1
2026,4,0,0,0,3,2,1,0,0,0,0,0,0,0,0,0,0,0,0,0,0,0,0,3,2,1,0,0,0,0,0,0,0,0,0,0,0,0,0,0,0,0,0.81,1
2028,2,0,1,0,1,0,0,0,0,0,0,0,0,0,0,0,0,0,0,0,0,0,0,1,0,0,0,0,0,0,0,0,0,0,0,0,0,0,0,0,0,0,1.00,1
2030,80,12,11,0,73,56,44,35,28,23,0,0,0,0,0,0,0,0,0,0,0,0,0,23,22,21,20,19,18,0,0,0,0,0,0,0,0,0,0,0,0,0,1.87,0
2032,10,0,0,0,9,8,7,6,5,4,0,0,0,0,0,0,0,0,0,0,0,0,0,9,8,7,6,5,4,0,0,0,0,0,0,0,0,0,0,0,0,0,0.00,0
2034,80,0,6,0,74,62,53,45,41,38,0,0,0,0,0,0,0,0,0,0,0,0,0,44,43,41,39,38,37,0,0,0,0,0,0,0,0,0,0,0,0,0,1.59,0
2036,80,0,3,0,77,70,67,63,56,53,0,0,0,0,0,0,0,0,0,0,0,0,0,54,46,45,44,41,40,0,0,0,0,0,0,0,0,0,0,0,0,0,0.77,0
2038,80,0,4,0,73,62,57,52,44,40,0,0,0,0,0,0,0,0,0,0,0,0,0,35,33,32,31,29,28,0,0,0,0,0,0,0,0,0,0,0,0,0,1.02,0
2040,26,0,1,0,25,23,21,19,17,16,0,0,0,0,0,0,0,0,0,0,0,0,0,25,21,20,19,17,16,0,0,0,0,0,0,0,0,0,0,0,0,0,0.47,0
2042,80,12,11,0,73,56,44,35,28,23,0,0,0,0,0,0,0,0,0,0,0,0,0,23,22,21,20,19,18,0,0,0,0,0,0,0,0,0,0,0,0,0,1.87,0
2044,10,0,0,0,9,8,7,6,5,4,0,0,0,0,0,0,0,0,0,0,0,0,0,9,8,7,6,5,4,0,0,0,0,0,0,0,0,0,0,0,0,0,0.00,0
2046,80,6,12,0,74,57,45,38,30,28,0,0,0,0,0,0,0,0,0,0,0,0,0,34,33,32,31,29,28,0,0,0,0,0,0,0,0,0,0,0,0,0,1.81,0
2048,22,0,0,0,20,19,18,17,15,14,0,0,0,0,0,0,0,0,0,0,0,0,0,20,19,18,17,15,14,0,0,0,0,0,0,0,0,0,0,0,0,0,0.53,0
2050,12,2,1,0,11,9,6,1,0,0,0,0,0,0,0,0,0,0,0,0,0,0,0,11,5,3,1,0,0,0,0,0,0,0,0,0,0,0,0,0,0,0,1.78,0
2052,28,6,2,0,27,26,22,14,3,0,0,0,0,0,0,0,0,0,0,0,0,0,0,27,26,14,6,1,0,0,0,0,0,0,0,0,0,0,0,0,0,0,1.30,0
2054,34,0,1,0,32,30,28,26,23,22,0,0,0,0,0,0,0,0,0,0,0,0,0,32,29,28,26,23,22,0,0,0,0,0,0,0,0,0,0,0,0,0,0.70,0
2056,2,0,0,0,1,0,0,0,0,0,0,0,0,0,0,0,0,0,0,0,0,0,0,1,0,0,0,0,0,0,0,0,0,0,0,0,0,0,0,0,0,0,0.00,0
2058,12,0,0,0,11,10,9,8,7,6,0,0,0,0,0,0,0,0,0,0,0,0,0,11,10,9,8,7,6,0,0,0,0,0,0,0,0,0,0,0,0,0,0.00,0
2060,16,0,0,0,15,14,13,12,11,10,0,0,0,0,0,0,0,0,0,0,0,0,0,15,14,13,12,11,10,0,0,0,0,0,0,0,0,0,0,0,0,0,0.00,0
2062,80,6,4,0,75,66,58,51,41,36,0,0,0,0,0,0,0,0,0,0,0,0,0,69,33,31,30,28,27,0,0,0,0,0,0,0,0,0,0,0,0,0,1.05,0
2064,52,0,3,0,45,41,37,32,29,28,0,0,0,0,0,0,0,0,0,0,0,0,0,35,34,33,31,29,28,0,0,0,0,0,0,0,0,0,0,0,0,0,1.17,0
2066,2,0,0,0,1,0,0,0,0,0,0,0,0,0,0,0,0,0,0,0,0,0,0,1,0,0,0,0,0,0,0,0,0,0,0,0,0,0,0,0,0,0,1.00,0
2068,6,0,0,0,5,4,3,2,1,0,0,0,0,0,0,0,0,0,0,0,0,0,0,5,4,3,2,1,0,0,0,0,0,0,0,0,0,0,0,0,0,0,0.00,0
2070,6,0,0,0,5,4,3,2,1,0,0,0,0,0,0,0,0,0,0,0,0,0,0,5,4,3,2,1,0,0,0,0,0,0,0,0,0,0,0,0,0,0,0.00,0
2072,6,0,0,0,5,4,3,2,1,0,0,0,0,0,0,0,0,0,0,0,0,0,0,5,4,3,2,1,0,0,0,0,0,0,0,0,0,0,0,0,0,0,0.00,0
2074,2,0,0,0,1,0,0,0,0,0,0,0,0,0,0,0,0,0,0,0,0,0,0,1,0,0,0,0,0,0,0,0,0,0,0,0,0,0,0,0,0,0,0.00,0
2076,8,0,1,0,7,6,4,0,0,0,0,0,0,0,0,0,0,0,0,0,0,0,0,7,6,3,0,0,0,0,0,0,0,0,0,0,0,0,0,0,0,0,0.81,0
2078,4,0,0,0,3,2,1,0,0,0,0,0,0,0,0,0,0,0,0,0,0,0,0,3,2,1,0,0,0,0,0,0,0,0,0,0,0,0,0,0,0,0,0.81,0
2080,24,0,0,0,23,12,6,0,0,0,0,0,0,0,0,0,0,0,0,0,0,0,0,23,2,1,0,0,0,0,0,0,0,0,0,0,0,0,0,0,0,0,1.00,0
2082,32,0,0,0,31,16,8,0,0,0,0,0,0,0,0,0,0,0,0,0,0,0,0,31,2,1,0,0,0,0,0,0,0,0,0,0,0,0,0,0,0,0,1.00,0
2084,80,0,0,0,69,56,47,31,19,14,0,0,0,0,0,0,0,0,0,0,0,0,0,26,20,11,9,7,6,0,0,0,0,0,0,0,0,0,0,0,0,0,1.37,0
2086,80,0,0,0,69,56,47,31,19,14,0,0,0,0,0,0,0,0,0,0,0,0,0,26,20,11,9,7,6,0,0,0,0,0,0,0,0,0,0,0,0,0,1.37,0
2088,56,0,0,0,45,34,27,16,10,7,0,0,0,0,0,0,0,0,0,0,0,0,0,26,20,11,9,7,6,0,0,0,0,0,0,0,0,0,0,0,0,0,1.49,0
2090,80,0,0,0,79,72,69,64,59,56,0,0,0,0,0,0,0,0,0,0,0,0,0,79,28,27,25,23,22,0,0,0,0,0,0,0,0,0,0,0,0,0,0.38,0
2092,10,0,0,0,9,8,7,6,5,4,0,0,0,0,0,0,0,0,0,0,0,0,0,9,8,7,6,5,4,0,0,0,0,0,0,0,0,0,0,0,0,0,0.00,0
2094,60,0,0,0,59,52,49,44,39,36,0,0,0,0,0,0,0,0,0,0,0,0,0,59,18,17,15,13,12,0,0,0,0,0,0,0,0,0,0,0,0,0,0.47,0
2096,8,0,0,0,7,6,5,4,3,2,0,0,0,0,0,0,0,0,0,0,0,0,0,7,6,5,4,3,2,0,0,0,0,0,0,0,0,0,0,0,0,0,0.00,0
2098,64,0,5,0,56,48,40,30,8,1,0,0,0,0,0,0,0,0,0,0,0,0,0,13,12,5,4,2,1,0,0,0,0,0,0,0,0,0,0,0,0,0,1.33,0
2100,32,0,2,0,29,26,23,19,15,12,0,0,0,0,0,0,0,0,0,0,0,0,0,16,15,14,12,10,9,0,0,0,0,0,0,0,0,0,0,0,0,0,0.73,0
2124,80,12,11,0,73,56,44,35,28,23,0,0,0,0,0,0,0,0,0,0,0,0,0,23,22,21,20,19,18,0,0,0,0,0,0,0,0,0,0,0,0,0,1.87,0
2126,10,0,0,0,9,8,7,6,5,4,0,0,0,0,0,0,0,0,0,0,0,0,0,9,8,7,6,5,4,0,0,0,0,0,0,0,0,0,0,0,0,0,0.00,0
2128,80,12,11,0,73,56,44,35,28,23,0,0,0,0,0,0,0,0,0,0,0,0,0,23,22,21,20,19,18,0,0,0,0,0,0,0,0,0,0,0,0,0,1.87,0
2130,10,0,0,0,9,8,7,6,5,4,0,0,0,0,0,0,0,0,0,0,0,0,0,9,8,7,6,5,4,0,0,0,0,0,0,0,0,0,0,0,0,0,0.00,0
2132,80,6,12,0,74,57,45,38,30,28,0,0,0,0,0,0,0,0,0,0,0,0,0,34,33,32,31,29,28,0,0,0,0,0,0,0,0,0,0,0,0,0,1.81,0
2134,22,0,0,0,20,19,18,17,15,14,0,0,0,0,0,0,0,0,0,0,0,0,0,20,19,18,17,15,14,0,0,0,0,0,0,0,0,0,0,0,0,0,0.53,0
2136,80,0,6,0,74,62,53,45,41,38,0,0,0,0,0,0,0,0,0,0,0,0,0,44,43,41,39,38,37,0,0,0,0,0,0,0,0,0,0,0,0,0,1.59,0
2138,80,0,3,0,77,70,67,63,56,53,0,0,0,0,0,0,0,0,0,0,0,0,0,54,46,45,44,41,40,0,0,0,0,0,0,0,0,0,0,0,0,0,0.77,0
2140,80,0,4,0,73,62,57,52,44,40,0,0,0,0,0,0,0,0,0,0,0,0,0,35,33,32,31,29,28,0,0,0,0,0,0,0,0,0,0,0,0,0,1.02,0
2142,26,0,1,0,25,23,21,19,17,16,0,0,0,0,0,0,0,0,0,0,0,0,0,25,21,20,19,17,16,0,0,0,0,0,0,0,0,0,0,0,0,0,0.47,0
