pkt#,size,#dec,#op,#rung,#2gram,#3gram,#4gram,#5gram,#6gram,#7gram,#8gram,#9gram,#10gram,#11gram,#12gram,#13gram,#14gram,#15gram,#16gram,#17gram,#18gram,#19gram,#20gram,L2gram,L3gram,L4gram,L5gram,L6gram,L7gram,L8gram,L9gram,L10gram,L11gram,L12gram,L13gram,L14gram,L15gram,L16gram,L17gram,L18gram,L19gram,L20gram,entropy,class
18,82,0,0,0,80,79,78,77,75,74,0,0,0,0,0,0,0,0,0,0,0,0,0,80,79,78,77,75,74,0,0,0,0,0,0,0,0,0,0,0,0,0,0.19,0
21,158,0,10,1,146,131,119,111,107,104,0,0,0,0,0,0,0,0,0,0,0,0,0,82,80,79,78,77,76,0,0,0,0,0,0,0,0,0,0,0,0,0,1.26,0
24,160,6,10,1,143,115,101,90,83,78,1,0,0,0,0,0,0,0,0,0,0,0,0,82,81,80,77,76,75,1,0,0,0,0,0,0,0,0,0,0,0,0,1.80,0
27,240,6,17,0,208,150,124,106,90,79,1,0,0,0,0,0,0,0,0,0,0,0,0,83,80,79,77,76,74,1,0,0,0,0,0,0,0,0,0,0,0,0,2.53,0
31,240,6,8,1,217,161,136,119,95,78,1,0,0,0,0,0,0,0,0,0,0,0,0,93,79,78,77,76,74,1,0,0,0,0,0,0,0,0,0,0,0,0,2.39,0
34,234,16,15,0,213,165,140,120,93,80,0,0,0,0,0,0,0,0,0,0,0,0,0,84,83,81,80,79,78,0,0,0,0,0,0,0,0,0,0,0,0,0,2.11,0
37,144,0,1,0,133,123,116,114,113,110,0,0,0,0,0,0,0,0,0,0,0,0,0,117,116,115,114,113,110,0,0,0,0,0,0,0,0,0,0,0,0,0,1.17,0
40,160,74,16,2,159,157,155,153,151,149,73,72,71,70,69,68,67,66,65,64,63,62,61,159,79,78,77,76,75,73,72,71,70,69,68,67,66,65,64,63,62,61,2.24,1
43,240,154,32,3,239,238,236,234,231,226,150,147,143,140,138,136,134,132,130,128,126,124,122,239,238,159,158,155,78,77,74,71,70,69,68,67,66,65,64,63,62,61,2.90,1
46,186,104,21,0,185,183,181,178,174,171,94,91,88,86,84,82,80,78,76,74,72,70,68,185,104,103,78,77,76,75,72,71,70,69,68,67,66,65,64,63,62,61,2.59,1
49,160,12,11,0,153,136,124,115,108,103,0,0,0,0,0,0,0,0,0,0,0,0,0,103,102,101,100,99,98,0,0,0,0,0,0,0,0,0,0,0,0,0,1.08,0
52,170,12,11,0,163,146,134,125,118,113,0,0,0,0,0,0,0,0,0,0,0,0,0,113,112,111,110,109,108,0,0,0,0,0,0,0,0,0,0,0,0,0,1.03,0
55,160,0,6,0,154,142,133,125,121,118,0,0,0,0,0,0,0,0,0,0,0,0,0,124,123,121,119,118,117,0,0,0,0,0,0,0,0,0,0,0,0,0,0.91,0
58,240,0,9,0,232,214,203,192,182,177,0,0,0,0,0,0,0,0,0,0,0,0,0,103,99,98,97,94,93,0,0,0,0,0,0,0,0,0,0,0,0,0,0.92,0
61,240,0,7,0,231,214,207,199,185,179,0,0,0,0,0,0,0,0,0,0,0,0,0,90,89,88,87,85,84,0,0,0,0,0,0,0,0,0,0,0,0,0,0.73,0
64,186,0,5,0,179,167,161,155,145,138,0,0,0,0,0,0,0,0,0,0,0,0,0,116,82,81,80,79,76,0,0,0,0,0,0,0,0,0,0,0,0,0,0.63,0
67,160,12,11,0,153,136,124,115,108,103,0,0,0,0,0,0,0,0,0,0,0,0,0,103,102,101,100,99,98,0,0,0,0,0,0,0,0,0,0,0,0,0,1.08,0
70,170,12,11,0,163,146,134,125,118,113,0,0,0,0,0,0,0,0,0,0,0,0,0,113,112,111,110,109,108,0,0,0,0,0,0,0,0,0,0,0,0,0,1.03,0
73,160,6,12,0,154,137,125,118,110,108,0,0,0,0,0,0,0,0,0,0,0,0,0,114,113,112,111,109,108,0,0,0,0,0,0,0,0,0,0,0,0,0,1.06,0
76,182,6,13,0,175,156,143,135,125,122,0,0,0,0,0,0,0,0,0,0,0,0,0,80,78,77,76,75,74,0,0,0,0,0,0,0,0,0,0,0,0,0,1.05,0
79,92,2,1,0,91,87,83,77,75,74,0,0,0,0,0,0,0,0,0,0,0,0,0,91,78,77,76,75,74,0,0,0,0,0,0,0,0,0,0,0,0,0,0.41,0
82,108,6,2,0,107,106,102,93,80,76,0,0,0,0,0,0,0,0,0,0,0,0,0,107,106,80,79,77,76,0,0,0,0,0,0,0,0,0,0,0,0,0,0.45,0
85,114,0,1,0,112,109,106,103,99,97,0,0,0,0,0,0,0,0,0,0,0,0,0,112,79,78,77,76,75,0,0,0,0,0,0,0,0,0,0,0,0,0,0.27,0
88,82,0,0,0,81,80,79,78,77,76,0,0,0,0,0,0,0,0,0,0,0,0,0,81,80,79,78,77,76,0,0,0,0,0,0,0,0,0,0,0,0,0,0.00,0
91,92,0,0,0,91,90,89,88,87,86,0,0,0,0,0,0,0,0,0,0,0,0,0,91,90,89,88,87,86,0,0,0,0,0,0,0,0,0,0,0,0,0,0.00,0
94,96,0,0,0,95,94,93,92,91,90,0,0,0,0,0,0,0,0,0,0,0,0,0,95,94,93,92,91,90,0,0,0,0,0,0,0,0,0,0,0,0,0,0.00,0
97,160,0,1,1,158,152,149,145,139,136,0,0,0,0,0,0,0,0,0,0,0,0,0,156,132,131,130,129,128,0,0,0,0,0,0,0,0,0,0,0,0,0,0.28,0
100,212,0,4,1,205,196,190,182,170,166,0,0,0,0,0,0,0,0,0,0,0,0,0,117,88,87,85,83,82,0,0,0,0,0,0,0,0,0,0,0,0,0,0.56,0
103,82,0,1,0,81,80,78,76,75,74,0,0,0,0,0,0,0,0,0,0,0,0,0,81,80,77,76,75,74,0,0,0,0,0,0,0,0,0,0,0,0,0,0.10,0
106,86,0,0,0,85,84,83,82,81,80,0,0,0,0,0,0,0,0,0,0,0,0,0,85,84,83,82,81,80,0,0,0,0,0,0,0,0,0,0,0,0,0,0.00,0
109,86,0,0,0,85,84,83,82,81,80,0,0,0,0,0,0,0,0,0,0,0,0,0,85,84,83,82,81,80,0,0,0,0,0,0,0,0,0,0,0,0,0,0.00,0
112,86,0,0,0,85,84,83,82,81,80,0,0,0,0,0,0,0,0,0,0,0,0,0,85,84,83,82,81,80,0,0,0,0,0,0,0,0,0,0,0,0,0,0.00,0
115,82,0,0,0,81,80,79,78,77,76,0,0,0,0,0,0,0,0,0,0,0,0,0,81,80,79,78,77,76,0,0,0,0,0,0,0,0,0,0,0,0,0,0.00,0
118,84,0,0,0,83,82,81,80,79,78,0,0,0,0,0,0,0,0,0,0,0,0,0,83,82,81,80,79,78,0,0,0,0,0,0,0,0,0,0,0,0,0,0.00,0
121,104,0,0,0,103,90,83,76,75,74,0,0,0,0,0,0,0,0,0,0,0,0,0,103,78,77,76,75,74,0,0,0,0,0,0,0,0,0,0,0,0,0,0.52,0
124,112,0,0,0,111,94,85,76,75,74,0,0,0,0,0,0,0,0,0,0,0,0,0,111,78,77,76,75,74,0,0,0,0,0,0,0,0,0,0,0,0,0,0.59,0
127,160,0,0,0,149,136,126,109,95,89,0,0,0,0,0,0,0,0,0,0,0,0,0,97,92,79,78,76,75,0,0,0,0,0,0,0,0,0,0,0,0,0,0.85,0
130,240,0,0,0,219,192,173,140,114,103,0,0,0,0,0,0,0,0,0,0,0,0,0,105,78,77,76,75,74,0,0,0,0,0,0,0,0,0,0,0,0,0,1.04,0
133,216,0,0,0,195,170,154,127,109,101,0,0,0,0,0,0,0,0,0,0,0,0,0,89,84,83,82,81,80,0,0,0,0,0,0,0,0,0,0,0,0,0,1.05,0
136,160,0,0,0,159,152,149,144,139,136,0,0,0,0,0,0,0,0,0,0,0,0,0,159,96,95,94,93,92,0,0,0,0,0,0,0,0,0,0,0,0,0,0.23,0
139,170,0,0,0,169,162,159,154,149,146,0,0,0,0,0,0,0,0,0,0,0,0,0,169,106,105,104,103,102,0,0,0,0,0,0,0,0,0,0,0,0,0,0.22,0
142,140,0,0,0,139,132,129,124,119,116,0,0,0,0,0,0,0,0,0,0,0,0,0,139,96,95,94,93,92,0,0,0,0,0,0,0,0,0,0,0,0,0,0.26,0
145,88,0,0,0,87,86,85,84,83,82,0,0,0,0,0,0,0,0,0,0,0,0,0,87,86,85,84,83,82,0,0,0,0,0,0,0,0,0,0,0,0,0,0.00,0
148,144,0,6,1,136,128,119,108,84,76,0,0,0,0,0,0,0,0,0,0,0,0,0,81,80,79,78,76,75,0,0,0,0,0,0,0,0,0,0,0,0,0,0.72,0
151,112,0,2,0,109,106,103,99,94,90,0,0,0,0,0,0,0,0,0,0,0,0,0,92,91,83,82,78,77,0,0,0,0,0,0,0,0,0,0,0,0,0,0.28,0
226,160,12,11,0,153,136,124,115,108,103,0,0,0,0,0,0,0,0,0,0,0,0,0,103,102,101,100,99,98,0,0,0,0,0,0,0,0,0,0,0,0,0,1.08,0
229,170,12,11,0,163,146,134,125,118,113,0,0,0,0,0,0,0,0,0,0,0,0,0,113,112,111,110,109,108,0,0,0,0,0,0,0,0,0,0,0,0,0,1.03,0
232,160,12,11,0,153,136,124,115,108,103,0,0,0,0,0,0,0,0,0,0,0,0,0,103,102,101,100,99,98,0,0,0,0,0,0,0,0,0,0,0,0,0,1.08,0
235,170,12,11,0,163,146,134,125,118,113,0,0,0,0,0,0,0,0,0,0,0,0,0,113,112,111,110,109,108,0,0,0,0,0,0,0,0,0,0,0,0,0,1.03,0
238,160,6,13,0,153,134,121,113,103,100,0,0,0,0,0,0,0,0,0,0,0,0,0,58,56,55,54,53,52,0,0,0,0,0,0,0,0,0,0,0,0,0,1.16,0
241,182,6,13,0,175,156,143,135,125,122,0,0,0,0,0,0,0,0,0,0,0,0,0,80,78,77,76,75,74,0,0,0,0,0,0,0,0,0,0,0,0,0,1.05,0
244,160,0,9,0,152,134,123,112,102,97,0,0,0,0,0,0,0,0,0,0,0,0,0,99,91,89,87,84,83,0,0,0,0,0,0,0,0,0,0,0,0,0,1.28,0
247,240,0,13,0,226,198,183,168,151,143,0,0,0,0,0,0,0,0,0,0,0,0,0,99,91,89,87,84,83,0,0,0,0,0,0,0,0,0,0,0,0,0,1.33,0
250,240,0,8,0,231,213,205,196,180,171,0,0,0,0,0,0,0,0,0,0,0,0,0,90,56,55,54,53,50,0,0,0,0,0,0,0,0,0,0,0,0,0,0.81,0
253,186,0,5,0,179,167,161,155,145,138,0,0,0,0,0,0,0,0,0,0,0,0,0,116,82,81,80,79,76,0,0,0,0,0,0,0,0,0,0,0,0,0,0.63,0
