pkt#,size,#dec,#op,#rung,#2gram,#3gram,#4gram,#5gram,#6gram,#7gram,#8gram,#9gram,#10gram,#11gram,#12gram,#13gram,#14gram,#15gram,#16gram,#17gram,#18gram,#19gram,#20gram,L2gram,L3gram,L4gram,L5gram,L6gram,L7gram,L8gram,L9gram,L10gram,L11gram,L12gram,L13gram,L14gram,L15gram,L16gram,L17gram,L18gram,L19gram,L20gram,entropy,class
1430,82,0,1,0,80,79,78,77,75,74,0,0,0,0,0,0,0,0,0,0,0,0,0,80,79,78,77,75,74,0,0,0,0,0,0,0,0,0,0,0,0,0,0.19,0
1433,158,6,9,1,145,130,119,111,107,104,0,0,0,0,0,0,0,0,0,0,0,0,0,82,80,79,78,77,76,0,0,0,0,0,0,0,0,0,0,0,0,0,1.24,0
1436,160,6,10,0,141,116,98,92,85,79,1,0,0,0,0,0,0,0,0,0,0,0,0,80,79,77,76,75,74,1,0,0,0,0,0,0,0,0,0,0,0,0,1.92,0
1439,240,6,22,0,190,127,98,92,85,79,1,0,0,0,0,0,0,0,0,0,0,0,0,79,78,77,76,75,74,1,0,0,0,0,0,0,0,0,0,0,0,0,2.73,0
1442,240,10,21,0,183,115,94,88,77,74,0,0,0,0,0,0,0,0,0,0,0,0,0,80,79,78,77,75,74,0,0,0,0,0,0,0,0,0,0,0,0,0,2.67,0
1445,240,10,18,0,199,141,118,103,83,75,1,0,0,0,0,0,0,0,0,0,0,0,0,83,80,79,78,77,75,1,0,0,0,0,0,0,0,0,0,0,0,0,2.69,0
1448,240,6,14,0,218,173,151,132,106,88,0,0,0,0,0,0,0,0,0,0,0,0,0,120,82,81,80,79,78,0,0,0,0,0,0,0,0,0,0,0,0,0,2.07,0
1451,240,16,18,1,223,182,160,140,109,90,0,0,0,0,0,0,0,0,0,0,0,0,0,80,79,77,76,75,74,0,0,0,0,0,0,0,0,0,0,0,0,0,1.74,0
1454,184,16,17,1,169,138,121,107,88,81,0,0,0,0,0,0,0,0,0,0,0,0,0,84,83,81,80,79,78,0,0,0,0,0,0,0,0,0,0,0,0,0,1.65,0
1457,144,0,3,0,131,121,115,113,112,110,0,0,0,0,0,0,0,0,0,0,0,0,0,121,116,114,113,112,110,0,0,0,0,0,0,0,0,0,0,0,0,0,1.17,0
1460,160,68,11,2,158,156,154,152,150,148,73,72,71,70,69,68,67,66,65,64,63,62,61,79,78,77,76,75,74,73,72,71,70,69,68,67,66,65,64,63,62,61,2.56,1
1463,240,158,23,5,238,236,234,230,226,223,146,144,142,140,138,136,134,132,130,128,126,124,122,159,158,157,77,76,75,73,72,71,70,69,68,67,66,65,64,63,62,61,3.27,1
1466,240,156,33,0,239,237,235,233,229,226,150,148,146,144,142,139,137,135,132,129,126,124,122,239,158,157,156,79,78,77,76,75,74,73,71,70,69,65,64,63,62,61,3.16,1
1469,240,152,35,1,239,238,237,235,231,227,148,144,142,140,138,136,134,132,130,128,126,124,122,239,238,237,158,77,76,73,72,71,70,69,68,67,66,65,64,63,62,61,3.07,1
1472,240,146,29,4,239,237,234,231,228,225,148,146,144,140,138,136,134,132,130,128,126,124,122,239,158,79,78,77,76,75,74,73,70,69,68,67,66,65,64,63,62,61,3.19,1
1475,240,152,28,3,239,238,236,234,232,228,152,149,146,144,141,138,136,134,131,128,126,124,122,239,238,159,158,157,80,79,76,75,74,71,70,69,68,65,64,63,62,61,2.99,1
1478,240,144,30,0,239,238,237,234,232,230,153,150,148,146,143,140,137,134,131,128,126,124,122,239,238,237,156,155,154,79,78,77,76,69,68,67,66,65,64,63,62,61,2.69,1
1481,240,158,30,0,239,237,235,231,226,223,146,144,142,140,138,136,134,132,130,128,126,124,122,239,159,158,77,76,75,73,72,71,70,69,68,67,66,65,64,63,62,61,2.63,1
1484,240,146,28,0,239,237,235,232,228,225,149,147,145,143,140,137,134,132,130,128,126,124,122,239,158,157,79,78,77,76,75,74,73,69,68,67,66,65,64,63,62,61,2.74,1
1487,240,154,29,0,239,238,237,234,231,227,150,147,145,143,141,139,137,135,133,131,128,125,122,239,238,237,79,78,77,76,75,74,73,72,71,70,69,68,67,63,62,61,3.00,1
1490,240,152,34,0,239,237,235,232,229,226,150,147,144,142,140,137,134,132,130,128,126,124,122,239,159,158,79,78,77,76,75,73,72,71,68,67,66,65,64,63,62,61,3.12,1
1493,240,148,37,4,239,238,237,234,231,229,153,151,148,146,144,141,138,135,132,129,126,124,122,239,238,237,156,155,154,153,78,77,76,75,68,67,66,65,64,63,62,61,3.08,1
1496,240,146,35,0,238,236,234,229,225,222,146,144,142,140,138,136,134,132,130,128,126,124,122,159,158,157,76,75,74,73,72,71,70,69,68,67,66,65,64,63,62,61,3.07,1
1499,240,134,29,6,238,234,231,228,225,222,146,144,142,140,138,136,134,132,130,128,126,124,122,159,78,77,76,75,74,73,72,71,70,69,68,67,66,65,64,63,62,61,3.10,1
1502,240,152,26,5,238,236,232,229,225,222,146,144,142,140,138,136,134,132,130,128,126,124,122,159,158,78,77,75,74,73,72,71,70,69,68,67,66,65,64,63,62,61,2.90,1
1505,240,138,26,4,239,237,235,231,228,225,148,145,142,140,138,136,134,132,130,128,126,124,122,239,158,157,79,78,77,73,72,71,70,69,68,67,66,65,64,63,62,61,2.78,1
1508,240,148,27,5,239,237,235,232,229,226,148,146,144,141,139,137,135,132,130,128,126,124,122,239,159,158,79,78,77,75,74,73,71,70,69,68,66,65,64,63,62,61,2.91,1
1511,240,152,33,3,239,238,237,235,232,227,149,146,144,141,138,136,134,132,130,128,126,124,122,239,238,237,156,79,76,75,74,73,70,69,68,67,66,65,64,63,62,61,3.01,1
1514,240,152,37,0,239,238,237,234,230,226,149,146,143,141,138,136,134,132,130,128,126,124,122,239,238,237,79,77,76,75,73,72,71,69,68,67,66,65,64,63,62,61,2.98,1
1517,240,148,36,3,239,238,237,236,235,233,153,151,149,147,144,141,138,135,132,129,127,124,122,239,238,237,236,235,155,79,78,77,76,70,69,68,67,66,65,64,62,61,3.02,1
1520,166,80,17,0,165,163,161,159,157,155,79,78,77,76,75,74,73,72,71,70,69,67,65,165,84,83,82,81,80,79,78,77,76,75,74,73,72,71,70,69,62,61,2.40,1
1523,88,6,1,1,87,85,83,81,79,77,1,0,0,0,0,0,0,0,0,0,0,0,0,87,79,78,77,76,75,1,0,0,0,0,0,0,0,0,0,0,0,0,0.27,0
1526,88,6,1,1,87,85,83,81,79,77,1,0,0,0,0,0,0,0,0,0,0,0,0,87,79,78,77,76,75,1,0,0,0,0,0,0,0,0,0,0,0,0,0.27,0
1529,88,6,1,1,87,85,83,81,79,77,1,0,0,0,0,0,0,0,0,0,0,0,0,87,79,78,77,76,75,1,0,0,0,0,0,0,0,0,0,0,0,0,0.27,0
1532,160,68,13,1,159,158,157,156,154,152,76,74,72,70,69,68,67,66,65,64,63,62,61,159,158,157,156,78,77,76,72,71,70,69,68,67,66,65,64,63,62,61,2.33,1
1535,240,78,31,3,239,238,237,235,233,231,156,154,153,152,149,145,142,140,138,135,132,129,126,239,238,237,158,157,156,155,154,153,152,77,76,75,74,73,64,63,62,61,3.01,1
1538,240,114,30,3,239,236,233,230,226,223,146,144,142,140,138,136,134,132,130,128,126,124,122,239,79,78,77,76,75,73,72,71,70,69,68,67,66,65,64,63,62,61,3.01,1
1541,190,66,19,0,189,187,185,182,179,176,99,97,94,91,88,86,84,82,80,78,76,74,72,189,108,107,77,76,75,73,72,71,70,69,68,67,66,65,64,63,62,61,2.50,1
1544,160,68,11,1,159,158,157,156,154,151,75,74,73,72,71,69,67,66,65,64,63,62,61,159,158,157,156,78,76,75,74,73,72,71,68,67,66,65,64,63,62,61,2.38,1
1547,240,74,26,3,239,238,237,235,233,231,156,154,153,152,149,145,142,140,138,135,132,129,126,239,238,237,158,157,156,155,154,153,152,77,76,75,74,73,64,63,62,61,3.08,1
1550,240,114,27,3,239,236,233,230,226,223,146,144,142,140,138,136,134,132,130,128,126,124,122,239,79,78,77,76,75,73,72,71,70,69,68,67,66,65,64,63,62,61,3.07,1
1553,190,62,18,0,189,187,185,182,179,176,99,97,94,91,88,86,84,82,80,78,76,74,72,189,108,107,77,76,75,73,72,71,70,69,68,67,66,65,64,63,62,61,2.56,1
1556,88,6,1,1,87,85,83,81,79,77,1,0,0,0,0,0,0,0,0,0,0,0,0,87,79,78,77,76,75,1,0,0,0,0,0,0,0,0,0,0,0,0,0.27,0
1559,88,6,1,1,87,85,83,81,79,77,1,0,0,0,0,0,0,0,0,0,0,0,0,87,79,78,77,76,75,1,0,0,0,0,0,0,0,0,0,0,0,0,0.27,0
1562,88,6,1,1,87,85,83,81,79,77,1,0,0,0,0,0,0,0,0,0,0,0,0,87,79,78,77,76,75,1,0,0,0,0,0,0,0,0,0,0,0,0,0.27,0
1565,88,6,1,1,87,85,83,81,79,77,1,0,0,0,0,0,0,0,0,0,0,0,0,87,79,78,77,76,75,1,0,0,0,0,0,0,0,0,0,0,0,0,0.27,0
1568,88,6,1,1,87,85,83,81,79,77,1,0,0,0,0,0,0,0,0,0,0,0,0,87,79,78,77,76,75,1,0,0,0,0,0,0,0,0,0,0,0,0,0.27,0
1571,88,6,1,1,87,85,83,81,79,77,1,0,0,0,0,0,0,0,0,0,0,0,0,87,79,78,77,76,75,1,0,0,0,0,0,0,0,0,0,0,0,0,0.27,0
1574,88,6,1,1,87,85,83,81,79,77,1,0,0,0,0,0,0,0,0,0,0,0,0,87,79,78,77,76,75,1,0,0,0,0,0,0,0,0,0,0,0,0,0.27,0
1577,88,6,1,1,87,85,83,81,79,77,1,0,0,0,0,0,0,0,0,0,0,0,0,87,79,78,77,76,75,1,0,0,0,0,0,0,0,0,0,0,0,0,0.27,0
1580,160,12,11,0,153,136,124,115,108,103,0,0,0,0,0,0,0,0,0,0,0,0,0,103,102,101,100,99,98,0,0,0,0,0,0,0,0,0,0,0,0,0,1.08,0
1583,170,12,11,0,163,146,134,125,118,113,0,0,0,0,0,0,0,0,0,0,0,0,0,113,112,111,110,109,108,0,0,0,0,0,0,0,0,0,0,0,0,0,1.03,0
1586,160,0,6,0,154,142,133,125,121,118,0,0,0,0,0,0,0,0,0,0,0,0,0,124,123,121,119,118,117,0,0,0,0,0,0,0,0,0,0,0,0,0,0.91,0
1589,240,0,9,0,232,214,203,192,182,177,0,0,0,0,0,0,0,0,0,0,0,0,0,103,99,98,97,94,93,0,0,0,0,0,0,0,0,0,0,0,0,0,0.92,0
1592,240,0,7,0,231,214,207,199,185,179,0,0,0,0,0,0,0,0,0,0,0,0,0,90,89,88,87,85,84,0,0,0,0,0,0,0,0,0,0,0,0,0,0.73,0
1595,186,0,5,0,179,167,161,155,145,138,0,0,0,0,0,0,0,0,0,0,0,0,0,116,82,81,80,79,76,0,0,0,0,0,0,0,0,0,0,0,0,0,0.63,0
1598,160,12,11,0,153,136,124,115,108,103,0,0,0,0,0,0,0,0,0,0,0,0,0,103,102,101,100,99,98,0,0,0,0,0,0,0,0,0,0,0,0,0,1.08,0
1601,170,12,11,0,163,146,134,125,118,113,0,0,0,0,0,0,0,0,0,0,0,0,0,113,112,111,110,109,108,0,0,0,0,0,0,0,0,0,0,0,0,0,1.03,0
1604,160,6,12,0,154,137,125,118,110,108,0,0,0,0,0,0,0,0,0,0,0,0,0,114,113,112,111,109,108,0,0,0,0,0,0,0,0,0,0,0,0,0,1.06,0
1607,182,6,13,0,175,156,143,135,125,122,0,0,0,0,0,0,0,0,0,0,0,0,0,80,78,77,76,75,74,0,0,0,0,0,0,0,0,0,0,0,0,0,1.05,0
1610,92,2,1,0,91,87,83,77,75,74,0,0,0,0,0,0,0,0,0,0,0,0,0,91,78,77,76,75,74,0,0,0,0,0,0,0,0,0,0,0,0,0,0.41,0
1613,108,6,2,0,107,106,102,93,80,76,0,0,0,0,0,0,0,0,0,0,0,0,0,107,106,80,79,77,76,0,0,0,0,0,0,0,0,0,0,0,0,0,0.45,0
1616,114,0,1,0,112,109,106,103,99,97,0,0,0,0,0,0,0,0,0,0,0,0,0,112,79,78,77,76,75,0,0,0,0,0,0,0,0,0,0,0,0,0,0.27,0
1619,82,0,0,0,81,80,79,78,77,76,0,0,0,0,0,0,0,0,0,0,0,0,0,81,80,79,78,77,76,0,0,0,0,0,0,0,0,0,0,0,0,0,0.00,0
1622,92,0,0,0,91,90,89,88,87,86,0,0,0,0,0,0,0,0,0,0,0,0,0,91,90,89,88,87,86,0,0,0,0,0,0,0,0,0,0,0,0,0,0.00,0
1625,96,0,0,0,95,94,93,92,91,90,0,0,0,0,0,0,0,0,0,0,0,0,0,95,94,93,92,91,90,0,0,0,0,0,0,0,0,0,0,0,0,0,0.00,0
1628,160,6,3,1,155,148,143,134,122,114,0,0,0,0,0,0,0,0,0,0,0,0,0,149,132,113,85,84,83,0,0,0,0,0,0,0,0,0,0,0,0,0,0.55,0
1631,212,6,7,1,201,190,181,168,153,144,0,0,0,0,0,0,0,0,0,0,0,0,0,105,88,80,79,77,76,0,0,0,0,0,0,0,0,0,0,0,0,0,0.86,0
1636,144,6,0,0,143,142,141,139,135,131,0,0,0,0,0,0,0,0,0,0,0,0,0,143,142,141,122,121,120,0,0,0,0,0,0,0,0,0,0,0,0,0,0.06,0
1644,160,8,8,0,149,138,130,113,92,85,1,0,0,0,0,0,0,0,0,0,0,0,0,88,86,78,77,75,74,1,0,0,0,0,0,0,0,0,0,0,0,0,1.10,0
1647,240,8,8,0,229,218,210,193,172,165,1,0,0,0,0,0,0,0,0,0,0,0,0,168,166,158,157,155,154,1,0,0,0,0,0,0,0,0,0,0,0,0,0.80,0
1650,240,0,0,0,239,238,237,236,235,234,0,0,0,0,0,0,0,0,0,0,0,0,0,239,238,237,236,235,234,0,0,0,0,0,0,0,0,0,0,0,0,0,0.00,0
1653,160,6,2,0,157,154,151,146,141,139,0,0,0,0,0,0,0,0,0,0,0,0,0,137,136,135,134,132,131,0,0,0,0,0,0,0,0,0,0,0,0,0,0.27,0
1656,240,6,2,0,237,234,231,226,221,219,0,0,0,0,0,0,0,0,0,0,0,0,0,217,216,215,214,212,211,0,0,0,0,0,0,0,0,0,0,0,0,0,0.19,0
1659,192,0,0,0,191,190,189,188,187,186,0,0,0,0,0,0,0,0,0,0,0,0,0,191,190,189,188,187,186,0,0,0,0,0,0,0,0,0,0,0,0,0,0.00,0
1662,160,0,0,0,159,158,157,156,155,154,0,0,0,0,0,0,0,0,0,0,0,0,0,159,158,157,156,155,154,0,0,0,0,0,0,0,0,0,0,0,0,0,0.00,0
1665,176,0,0,0,175,174,173,172,171,170,0,0,0,0,0,0,0,0,0,0,0,0,0,175,174,173,172,171,170,0,0,0,0,0,0,0,0,0,0,0,0,0,0.00,0
1668,160,6,3,1,157,152,145,138,133,130,0,0,0,0,0,0,0,0,0,0,0,0,0,98,97,96,95,93,92,0,0,0,0,0,0,0,0,0,0,0,0,0,0.44,0
1671,240,8,5,2,237,231,222,210,202,196,2,0,0,0,0,0,0,0,0,0,0,0,0,178,108,97,94,93,92,1,0,0,0,0,0,0,0,0,0,0,0,0,0.43,0
1674,210,8,7,1,208,200,195,185,178,172,2,0,0,0,0,0,0,0,0,0,0,0,0,118,83,82,81,80,79,1,0,0,0,0,0,0,0,0,0,0,0,0,0.37,0
1677,84,0,0,0,83,82,81,80,79,78,0,0,0,0,0,0,0,0,0,0,0,0,0,83,82,81,80,79,78,0,0,0,0,0,0,0,0,0,0,0,0,0,0.00,0
1680,146,0,7,0,134,121,114,112,109,107,0,0,0,0,0,0,0,0,0,0,0,0,0,80,79,78,77,76,75,0,0,0,0,0,0,0,0,0,0,0,0,0,0.92,0
1683,104,0,0,0,103,90,83,76,75,74,0,0,0,0,0,0,0,0,0,0,0,0,0,103,78,77,76,75,74,0,0,0,0,0,0,0,0,0,0,0,0,0,0.52,0
1686,112,0,0,0,111,94,85,76,75,74,0,0,0,0,0,0,0,0,0,0,0,0,0,111,78,77,76,75,74,0,0,0,0,0,0,0,0,0,0,0,0,0,0.59,0
1689,160,0,0,0,149,136,126,109,95,89,0,0,0,0,0,0,0,0,0,0,0,0,0,97,92,79,78,76,75,0,0,0,0,0,0,0,0,0,0,0,0,0,0.85,0
1692,240,0,0,0,219,192,173,140,114,103,0,0,0,0,0,0,0,0,0,0,0,0,0,105,78,77,76,75,74,0,0,0,0,0,0,0,0,0,0,0,0,0,1.04,0
1695,216,0,0,0,195,170,154,127,109,101,0,0,0,0,0,0,0,0,0,0,0,0,0,89,84,83,82,81,80,0,0,0,0,0,0,0,0,0,0,0,0,0,1.05,0
1698,160,0,0,0,159,152,149,144,139,136,0,0,0,0,0,0,0,0,0,0,0,0,0,159,96,95,94,93,92,0,0,0,0,0,0,0,0,0,0,0,0,0,0.23,0
1701,170,0,0,0,169,162,159,154,149,146,0,0,0,0,0,0,0,0,0,0,0,0,0,169,106,105,104,103,102,0,0,0,0,0,0,0,0,0,0,0,0,0,0.22,0
1704,140,0,0,0,139,132,129,124,119,116,0,0,0,0,0,0,0,0,0,0,0,0,0,139,96,95,94,93,92,0,0,0,0,0,0,0,0,0,0,0,0,0,0.26,0
1707,88,0,0,0,87,86,85,84,83,82,0,0,0,0,0,0,0,0,0,0,0,0,0,87,86,85,84,83,82,0,0,0,0,0,0,0,0,0,0,0,0,0,0.00,0
1710,144,0,6,1,136,128,119,108,84,76,0,0,0,0,0,0,0,0,0,0,0,0,0,81,80,79,78,76,75,0,0,0,0,0,0,0,0,0,0,0,0,0,0.72,0
1713,112,0,2,0,109,106,103,99,94,90,0,0,0,0,0,0,0,0,0,0,0,0,0,92,91,83,82,78,77,0,0,0,0,0,0,0,0,0,0,0,0,0,0.28,0
1749,160,12,11,0,153,136,124,115,108,103,0,0,0,0,0,0,0,0,0,0,0,0,0,103,102,101,100,99,98,0,0,0,0,0,0,0,0,0,0,0,0,0,1.08,0
1752,170,12,11,0,163,146,134,125,118,113,0,0,0,0,0,0,0,0,0,0,0,0,0,113,112,111,110,109,108,0,0,0,0,0,0,0,0,0,0,0,0,0,1.03,0
1755,160,12,11,0,153,136,124,115,108,103,0,0,0,0,0,0,0,0,0,0,0,0,0,103,102,101,100,99,98,0,0,0,0,0,0,0,0,0,0,0,0,0,1.08,0
1758,170,12,11,0,163,146,134,125,118,113,0,0,0,0,0,0,0,0,0,0,0,0,0,113,112,111,110,109,108,0,0,0,0,0,0,0,0,0,0,0,0,0,1.03,0
1761,160,6,13,0,153,134,121,113,103,100,0,0,0,0,0,0,0,0,0,0,0,0,0,58,56,55,54,53,52,0,0,0,0,0,0,0,0,0,0,0,0,0,1.16,0
1764,182,6,13,0,175,156,143,135,125,122,0,0,0,0,0,0,0,0,0,0,0,0,0,80,78,77,76,75,74,0,0,0,0,0,0,0,0,0,0,0,0,0,1.05,0
1767,160,0,9,0,152,134,123,112,102,97,0,0,0,0,0,0,0,0,0,0,0,0,0,99,91,89,87,84,83,0,0,0,0,0,0,0,0,0,0,0,0,0,1.28,0
1770,240,0,13,0,226,198,183,168,151,143,0,0,0,0,0,0,0,0,0,0,0,0,0,99,91,89,87,84,83,0,0,0,0,0,0,0,0,0,0,0,0,0,1.33,0
1774,240,0,8,0,231,213,205,196,180,171,0,0,0,0,0,0,0,0,0,0,0,0,0,90,56,55,54,53,50,0,0,0,0,0,0,0,0,0,0,0,0,0,0.81,0
1777,186,0,5,0,179,167,161,155,145,138,0,0,0,0,0,0,0,0,0,0,0,0,0,116,82,81,80,79,76,0,0,0,0,0,0,0,0,0,0,0,0,0,0.63,0
