pkt#,size,#dec,#op,#rung,#2gram,#3gram,#4gram,#5gram,#6gram,#7gram,#8gram,#9gram,#10gram,#11gram,#12gram,#13gram,#14gram,#15gram,#16gram,#17gram,#18gram,#19gram,#20gram,L2gram,L3gram,L4gram,L5gram,L6gram,L7gram,L8gram,L9gram,L10gram,L11gram,L12gram,L13gram,L14gram,L15gram,L16gram,L17gram,L18gram,L19gram,L20gram,entropy,class
710,82,0,0,0,80,79,78,77,75,74,0,0,0,0,0,0,0,0,0,0,0,0,0,80,79,78,77,75,74,0,0,0,0,0,0,0,0,0,0,0,0,0,0.19,0
715,158,0,11,1,147,131,119,111,107,104,0,0,0,0,0,0,0,0,0,0,0,0,0,82,80,79,78,77,76,0,0,0,0,0,0,0,0,0,0,0,0,0,1.26,0
719,160,6,13,1,141,112,99,90,83,78,1,0,0,0,0,0,0,0,0,0,0,0,0,81,79,78,77,76,75,1,0,0,0,0,0,0,0,0,0,0,0,0,1.86,0
724,240,6,20,0,204,148,123,107,91,80,1,0,0,0,0,0,0,0,0,0,0,0,0,83,81,80,79,78,74,1,0,0,0,0,0,0,0,0,0,0,0,0,2.65,0
728,240,6,8,2,214,161,138,121,97,79,2,0,0,0,0,0,0,0,0,0,0,0,0,83,80,79,77,76,74,1,0,0,0,0,0,0,0,0,0,0,0,0,2.51,0
731,240,16,15,0,217,166,141,121,92,76,1,0,0,0,0,0,0,0,0,0,0,0,0,80,79,77,76,75,74,1,0,0,0,0,0,0,0,0,0,0,0,0,2.21,0
734,164,16,14,0,149,123,108,97,82,78,0,0,0,0,0,0,0,0,0,0,0,0,0,84,83,81,80,79,78,0,0,0,0,0,0,0,0,0,0,0,0,0,1.58,0
738,144,6,2,0,133,123,116,114,113,112,1,0,0,0,0,0,0,0,0,0,0,0,0,117,116,115,114,113,112,1,0,0,0,0,0,0,0,0,0,0,0,0,1.21,0
741,160,68,18,3,159,156,154,152,150,148,73,72,71,70,69,68,67,66,65,64,63,62,61,159,78,77,76,75,74,73,72,71,70,69,68,67,66,65,64,63,62,61,2.18,1
744,240,158,30,7,238,235,232,229,225,222,146,144,142,140,138,136,134,132,130,128,126,124,122,159,79,78,77,75,74,73,72,71,70,69,68,67,66,65,64,63,62,61,2.88,1
747,240,152,30,6,239,237,235,233,229,225,148,145,142,140,138,136,134,132,130,128,126,124,122,239,158,157,156,79,74,73,72,71,70,69,68,67,66,65,64,63,62,61,2.98,1
750,240,148,29,5,239,238,235,232,227,223,146,144,142,140,138,136,134,132,130,128,126,124,122,239,238,157,79,75,74,73,72,71,70,69,68,67,66,65,64,63,62,61,2.91,1
753,180,94,17,3,179,177,175,173,170,166,88,85,82,80,78,76,74,72,70,68,66,64,62,179,98,97,96,79,75,73,72,71,70,69,68,67,66,65,64,63,62,61,2.27,1
756,160,12,11,0,153,136,124,115,108,103,0,0,0,0,0,0,0,0,0,0,0,0,0,103,102,101,100,99,98,0,0,0,0,0,0,0,0,0,0,0,0,0,1.08,0
760,170,12,11,0,163,146,134,125,118,113,0,0,0,0,0,0,0,0,0,0,0,0,0,113,112,111,110,109,108,0,0,0,0,0,0,0,0,0,0,0,0,0,1.03,0
765,160,0,7,0,139,119,105,95,86,83,0,0,0,0,0,0,0,0,0,0,0,0,0,88,87,85,84,83,82,0,0,0,0,0,0,0,0,0,0,0,0,0,1.84,0
769,240,0,10,0,216,190,174,161,146,142,0,0,0,0,0,0,0,0,0,0,0,0,0,103,99,98,97,94,93,0,0,0,0,0,0,0,0,0,0,0,0,0,1.61,0
772,240,0,7,0,230,213,206,198,184,179,0,0,0,0,0,0,0,0,0,0,0,0,0,90,89,88,87,85,84,0,0,0,0,0,0,0,0,0,0,0,0,0,0.74,0
775,186,0,5,0,179,167,161,155,145,138,0,0,0,0,0,0,0,0,0,0,0,0,0,116,82,81,80,79,76,0,0,0,0,0,0,0,0,0,0,0,0,0,0.63,0
779,160,12,11,0,153,136,124,115,108,103,0,0,0,0,0,0,0,0,0,0,0,0,0,103,102,101,100,99,98,0,0,0,0,0,0,0,0,0,0,0,0,0,1.08,0
782,170,12,11,0,163,146,134,125,118,113,0,0,0,0,0,0,0,0,0,0,0,0,0,113,112,111,110,109,108,0,0,0,0,0,0,0,0,0,0,0,0,0,1.03,0
785,160,6,12,0,154,137,125,118,110,108,0,0,0,0,0,0,0,0,0,0,0,0,0,114,113,112,111,109,108,0,0,0,0,0,0,0,0,0,0,0,0,0,1.06,0
788,182,6,13,0,175,156,143,135,125,122,0,0,0,0,0,0,0,0,0,0,0,0,0,80,78,77,76,75,74,0,0,0,0,0,0,0,0,0,0,0,0,0,1.05,0
791,160,0,0,0,144,139,136,133,129,125,0,0,0,0,0,0,0,0,0,0,0,0,0,127,126,125,124,123,122,0,0,0,0,0,0,0,0,0,0,0,0,0,1.03,0
794,240,0,1,0,187,173,168,163,155,149,0,0,0,0,0,0,0,0,0,0,0,0,0,80,78,77,76,75,74,0,0,0,0,0,0,0,0,0,0,0,0,0,1.92,0
797,240,0,0,0,175,165,162,158,153,150,0,0,0,0,0,0,0,0,0,0,0,0,0,95,94,93,92,91,90,0,0,0,0,0,0,0,0,0,0,0,0,0,2.10,0
801,240,0,1,0,197,190,187,182,177,174,0,0,0,0,0,0,0,0,0,0,0,0,0,107,106,105,104,103,102,0,0,0,0,0,0,0,0,0,0,0,0,0,1.50,0
805,240,0,2,0,195,185,182,177,173,170,0,0,0,0,0,0,0,0,0,0,0,0,0,111,110,109,108,107,106,0,0,0,0,0,0,0,0,0,0,0,0,0,1.54,0
808,240,0,3,0,168,156,151,144,138,134,0,0,0,0,0,0,0,0,0,0,0,0,0,80,79,77,76,75,74,0,0,0,0,0,0,0,0,0,0,0,0,0,2.20,0
811,240,0,3,0,173,162,159,154,149,146,0,0,0,0,0,0,0,0,0,0,0,0,0,87,86,85,84,83,82,0,0,0,0,0,0,0,0,0,0,0,0,0,2.01,0
814,240,0,3,0,192,184,180,175,171,168,0,0,0,0,0,0,0,0,0,0,0,0,0,99,98,97,96,95,94,0,0,0,0,0,0,0,0,0,0,0,0,0,1.54,0
818,240,0,2,0,203,194,190,185,181,178,0,0,0,0,0,0,0,0,0,0,0,0,0,127,126,125,124,123,122,0,0,0,0,0,0,0,0,0,0,0,0,0,1.27,0
821,240,6,3,0,196,186,182,176,170,165,1,0,0,0,0,0,0,0,0,0,0,0,0,79,78,77,76,75,74,1,0,0,0,0,0,0,0,0,0,0,0,0,1.52,0
824,240,6,1,0,184,176,173,169,165,161,1,0,0,0,0,0,0,0,0,0,0,0,0,91,90,89,88,87,86,1,0,0,0,0,0,0,0,0,0,0,0,0,1.80,0
827,194,0,1,0,167,163,160,156,151,148,0,0,0,0,0,0,0,0,0,0,0,0,0,79,78,77,76,75,74,0,0,0,0,0,0,0,0,0,0,0,0,0,1.11,0
830,92,2,1,0,91,87,83,77,75,74,0,0,0,0,0,0,0,0,0,0,0,0,0,91,78,77,76,75,74,0,0,0,0,0,0,0,0,0,0,0,0,0,0.41,0
833,108,6,2,0,107,106,102,93,80,76,0,0,0,0,0,0,0,0,0,0,0,0,0,107,106,80,79,77,76,0,0,0,0,0,0,0,0,0,0,0,0,0,0.45,0
836,114,0,1,0,112,109,106,103,99,97,0,0,0,0,0,0,0,0,0,0,0,0,0,112,79,78,77,76,75,0,0,0,0,0,0,0,0,0,0,0,0,0,0.27,0
840,82,0,0,0,81,80,79,78,77,76,0,0,0,0,0,0,0,0,0,0,0,0,0,81,80,79,78,77,76,0,0,0,0,0,0,0,0,0,0,0,0,0,0.00,0
844,92,0,0,0,91,90,89,88,86,85,0,0,0,0,0,0,0,0,0,0,0,0,0,91,90,89,88,86,85,0,0,0,0,0,0,0,0,0,0,0,0,0,0.09,0
847,96,0,0,0,95,94,93,90,86,83,0,0,0,0,0,0,0,0,0,0,0,0,0,95,94,93,86,82,81,0,0,0,0,0,0,0,0,0,0,0,0,0,0.17,0
851,160,0,5,1,156,152,146,140,129,124,0,0,0,0,0,0,0,0,0,0,0,0,0,149,148,86,85,81,80,0,0,0,0,0,0,0,0,0,0,0,0,0,0.44,0
854,212,0,7,0,202,192,182,174,160,154,0,0,0,0,0,0,0,0,0,0,0,0,0,105,104,80,79,77,76,0,0,0,0,0,0,0,0,0,0,0,0,0,0.82,0
857,82,0,0,0,81,80,79,78,76,75,0,0,0,0,0,0,0,0,0,0,0,0,0,81,80,79,78,76,75,0,0,0,0,0,0,0,0,0,0,0,0,0,0.10,0
860,104,0,3,0,99,94,90,86,78,77,0,0,0,0,0,0,0,0,0,0,0,0,0,83,82,81,80,78,77,0,0,0,0,0,0,0,0,0,0,0,0,0,0.55,0
863,86,0,1,0,85,84,83,82,80,78,0,0,0,0,0,0,0,0,0,0,0,0,0,85,84,83,82,78,77,0,0,0,0,0,0,0,0,0,0,0,0,0,0.09,0
866,86,0,0,0,85,84,83,82,81,80,0,0,0,0,0,0,0,0,0,0,0,0,0,85,84,83,82,81,80,0,0,0,0,0,0,0,0,0,0,0,0,0,0.00,0
869,82,0,0,0,81,80,79,78,77,76,0,0,0,0,0,0,0,0,0,0,0,0,0,81,80,79,78,77,76,0,0,0,0,0,0,0,0,0,0,0,0,0,0.00,0
872,84,0,0,0,83,82,81,80,79,78,0,0,0,0,0,0,0,0,0,0,0,0,0,83,82,81,80,79,78,0,0,0,0,0,0,0,0,0,0,0,0,0,0.00,0
876,104,0,0,0,103,90,83,76,75,74,0,0,0,0,0,0,0,0,0,0,0,0,0,103,78,77,76,75,74,0,0,0,0,0,0,0,0,0,0,0,0,0,0.52,0
880,112,0,0,0,111,94,85,76,75,74,0,0,0,0,0,0,0,0,0,0,0,0,0,111,78,77,76,75,74,0,0,0,0,0,0,0,0,0,0,0,0,0,0.59,0
883,160,0,3,0,149,133,120,103,90,85,0,0,0,0,0,0,0,0,0,0,0,0,0,97,81,79,78,76,75,0,0,0,0,0,0,0,0,0,0,0,0,0,0.98,0
886,240,0,5,0,219,187,163,130,105,95,0,0,0,0,0,0,0,0,0,0,0,0,0,105,78,77,76,75,74,0,0,0,0,0,0,0,0,0,0,0,0,0,1.18,0
890,216,0,3,0,195,167,148,121,103,95,0,0,0,0,0,0,0,0,0,0,0,0,0,89,84,83,82,81,80,0,0,0,0,0,0,0,0,0,0,0,0,0,1.15,0
894,160,0,0,0,159,152,149,144,139,136,0,0,0,0,0,0,0,0,0,0,0,0,0,159,96,95,94,93,92,0,0,0,0,0,0,0,0,0,0,0,0,0,0.23,0
897,170,0,0,0,169,162,159,154,149,146,0,0,0,0,0,0,0,0,0,0,0,0,0,169,106,105,104,103,102,0,0,0,0,0,0,0,0,0,0,0,0,0,0.22,0
900,140,0,0,0,139,132,129,124,119,116,0,0,0,0,0,0,0,0,0,0,0,0,0,139,96,95,94,93,92,0,0,0,0,0,0,0,0,0,0,0,0,0,0.26,0
903,88,0,1,0,87,86,84,81,78,77,0,0,0,0,0,0,0,0,0,0,0,0,0,87,86,81,80,78,77,0,0,0,0,0,0,0,0,0,0,0,0,0,0.09,0
906,144,0,14,1,128,119,109,100,77,75,0,0,0,0,0,0,0,0,0,0,0,0,0,81,80,79,78,76,75,0,0,0,0,0,0,0,0,0,0,0,0,0,0.99,0
910,112,0,2,0,109,106,103,99,94,90,0,0,0,0,0,0,0,0,0,0,0,0,0,92,91,83,82,78,77,0,0,0,0,0,0,0,0,0,0,0,0,0,0.28,0
994,160,12,11,0,153,136,124,115,108,103,0,0,0,0,0,0,0,0,0,0,0,0,0,103,102,101,100,99,98,0,0,0,0,0,0,0,0,0,0,0,0,0,1.08,0
997,170,12,11,0,163,146,134,125,118,113,0,0,0,0,0,0,0,0,0,0,0,0,0,113,112,111,110,109,108,0,0,0,0,0,0,0,0,0,0,0,0,0,1.03,0
1000,160,12,11,0,153,136,124,115,108,103,0,0,0,0,0,0,0,0,0,0,0,0,0,103,102,101,100,99,98,0,0,0,0,0,0,0,0,0,0,0,0,0,1.08,0
1003,170,12,11,0,163,146,134,125,118,113,0,0,0,0,0,0,0,0,0,0,0,0,0,113,112,111,110,109,108,0,0,0,0,0,0,0,0,0,0,0,0,0,1.03,0
1006,160,6,13,0,153,134,121,113,103,100,0,0,0,0,0,0,0,0,0,0,0,0,0,58,56,55,54,53,52,0,0,0,0,0,0,0,0,0,0,0,0,0,1.16,0
1009,182,6,13,0,175,156,143,135,125,122,0,0,0,0,0,0,0,0,0,0,0,0,0,80,78,77,76,75,74,0,0,0,0,0,0,0,0,0,0,0,0,0,1.05,0
1012,160,0,10,0,136,110,94,81,66,62,0,0,0,0,0,0,0,0,0,0,0,0,0,55,54,52,51,49,48,0,0,0,0,0,0,0,0,0,0,0,0,0,2.22,0
1015,240,0,14,0,210,174,154,137,115,108,0,0,0,0,0,0,0,0,0,0,0,0,0,55,54,52,51,49,48,0,0,0,0,0,0,0,0,0,0,0,0,0,1.99,0
1019,240,0,8,0,230,212,204,195,179,171,0,0,0,0,0,0,0,0,0,0,0,0,0,90,56,55,54,53,50,0,0,0,0,0,0,0,0,0,0,0,0,0,0.81,0
1023,186,0,5,0,179,167,161,155,145,138,0,0,0,0,0,0,0,0,0,0,0,0,0,116,82,81,80,79,76,0,0,0,0,0,0,0,0,0,0,0,0,0,0.63,0
1026,160,0,0,0,107,95,91,87,80,75,0,0,0,0,0,0,0,0,0,0,0,0,0,50,47,46,45,43,42,0,0,0,0,0,0,0,0,0,0,0,0,0,2.61,0
1029,240,0,0,0,160,145,139,132,122,115,0,0,0,0,0,0,0,0,0,0,0,0,0,50,47,46,45,43,42,0,0,0,0,0,0,0,0,0,0,0,0,0,2.61,0
1032,240,0,1,0,159,145,141,135,128,124,0,0,0,0,0,0,0,0,0,0,0,0,0,50,48,47,45,43,42,0,0,0,0,0,0,0,0,0,0,0,0,0,2.55,0
1036,240,0,2,0,169,157,153,146,140,136,0,0,0,0,0,0,0,0,0,0,0,0,0,50,48,47,45,43,42,0,0,0,0,0,0,0,0,0,0,0,0,0,2.25,0
1039,240,0,3,0,152,137,133,125,118,114,0,0,0,0,0,0,0,0,0,0,0,0,0,46,43,42,40,39,38,0,0,0,0,0,0,0,0,0,0,0,0,0,2.63,0
1042,240,0,4,0,145,129,124,115,107,102,0,0,0,0,0,0,0,0,0,0,0,0,0,48,46,45,43,41,40,0,0,0,0,0,0,0,0,0,0,0,0,0,2.72,0
1045,240,0,4,0,149,134,129,122,116,112,0,0,0,0,0,0,0,0,0,0,0,0,0,48,46,45,43,41,40,0,0,0,0,0,0,0,0,0,0,0,0,0,2.60,0
1048,240,0,4,0,180,168,163,156,150,146,0,0,0,0,0,0,0,0,0,0,0,0,0,48,46,45,44,43,42,0,0,0,0,0,0,0,0,0,0,0,0,0,1.88,0
1051,240,6,3,0,173,160,155,148,142,137,1,0,0,0,0,0,0,0,0,0,0,0,0,50,48,47,45,43,42,1,0,0,0,0,0,0,0,0,0,0,0,0,2.15,0
1054,240,6,2,0,172,160,155,147,139,133,1,0,0,0,0,0,0,0,0,0,0,0,0,50,48,47,45,43,42,1,0,0,0,0,0,0,0,0,0,0,0,0,2.13,0
1058,240,6,2,0,182,173,169,164,158,153,1,0,0,0,0,0,0,0,0,0,0,0,0,46,44,43,42,41,40,1,0,0,0,0,0,0,0,0,0,0,0,0,1.88,0
1061,194,0,1,0,167,163,160,156,151,148,0,0,0,0,0,0,0,0,0,0,0,0,0,79,78,77,76,75,74,0,0,0,0,0,0,0,0,0,0,0,0,0,1.11,0
