pkt#,size,#dec,#op,#rung,#2gram,#3gram,#4gram,#5gram,#6gram,#7gram,#8gram,#9gram,#10gram,#11gram,#12gram,#13gram,#14gram,#15gram,#16gram,#17gram,#18gram,#19gram,#20gram,L2gram,L3gram,L4gram,L5gram,L6gram,L7gram,L8gram,L9gram,L10gram,L11gram,L12gram,L13gram,L14gram,L15gram,L16gram,L17gram,L18gram,L19gram,L20gram,entropy,class
150,82,0,0,0,80,79,78,77,75,74,0,0,0,0,0,0,0,0,0,0,0,0,0,80,79,78,77,75,74,0,0,0,0,0,0,0,0,0,0,0,0,0,0.19,0
153,158,0,10,1,146,131,119,112,107,104,0,0,0,0,0,0,0,0,0,0,0,0,0,82,80,79,78,77,76,0,0,0,0,0,0,0,0,0,0,0,0,0,1.24,0
156,160,16,16,1,142,111,97,88,82,78,1,0,0,0,0,0,0,0,0,0,0,0,0,83,80,79,77,76,75,1,0,0,0,0,0,0,0,0,0,0,0,0,1.88,0
159,240,16,24,0,204,147,121,104,89,79,1,0,0,0,0,0,0,0,0,0,0,0,0,83,81,80,79,78,74,1,0,0,0,0,0,0,0,0,0,0,0,0,2.61,0
162,240,6,9,0,213,163,138,119,95,79,2,0,0,0,0,0,0,0,0,0,0,0,0,83,80,79,78,77,74,1,0,0,0,0,0,0,0,0,0,0,0,0,2.48,0
165,240,16,15,0,218,170,142,120,91,77,1,0,0,0,0,0,0,0,0,0,0,0,0,80,79,77,76,75,74,1,0,0,0,0,0,0,0,0,0,0,0,0,2.19,0
168,164,16,14,0,150,125,109,97,82,78,0,0,0,0,0,0,0,0,0,0,0,0,0,84,83,81,80,79,78,0,0,0,0,0,0,0,0,0,0,0,0,0,1.56,0
171,144,0,2,0,133,123,116,114,113,111,0,0,0,0,0,0,0,0,0,0,0,0,0,117,116,115,114,113,110,0,0,0,0,0,0,0,0,0,0,0,0,0,1.14,0
174,136,54,9,3,135,133,131,129,127,125,49,48,47,46,45,44,43,42,41,40,39,38,37,135,79,78,77,76,75,49,48,47,46,45,44,43,42,41,40,39,38,37,1.83,1
177,88,6,1,1,87,85,83,81,79,77,1,0,0,0,0,0,0,0,0,0,0,0,0,87,79,78,77,76,75,1,0,0,0,0,0,0,0,0,0,0,0,0,0.27,0
180,160,12,11,0,153,136,124,115,108,103,0,0,0,0,0,0,0,0,0,0,0,0,0,103,102,101,100,99,98,0,0,0,0,0,0,0,0,0,0,0,0,0,1.08,0
183,170,12,11,0,163,146,134,125,118,113,0,0,0,0,0,0,0,0,0,0,0,0,0,113,112,111,110,109,108,0,0,0,0,0,0,0,0,0,0,0,0,0,1.03,0
186,160,0,6,0,154,142,133,125,121,118,0,0,0,0,0,0,0,0,0,0,0,0,0,124,123,121,119,118,117,0,0,0,0,0,0,0,0,0,0,0,0,0,0.91,0
189,240,0,9,0,232,214,203,192,182,177,0,0,0,0,0,0,0,0,0,0,0,0,0,103,99,98,97,94,93,0,0,0,0,0,0,0,0,0,0,0,0,0,0.92,0
192,240,0,7,0,231,214,207,199,185,179,0,0,0,0,0,0,0,0,0,0,0,0,0,90,89,88,87,85,84,0,0,0,0,0,0,0,0,0,0,0,0,0,0.73,0
195,186,0,5,0,179,167,161,155,145,138,0,0,0,0,0,0,0,0,0,0,0,0,0,116,82,81,80,79,76,0,0,0,0,0,0,0,0,0,0,0,0,0,0.63,0
198,160,12,11,0,153,136,124,115,108,103,0,0,0,0,0,0,0,0,0,0,0,0,0,103,102,101,100,99,98,0,0,0,0,0,0,0,0,0,0,0,0,0,1.08,0
201,170,12,11,0,163,146,134,125,118,113,0,0,0,0,0,0,0,0,0,0,0,0,0,113,112,111,110,109,108,0,0,0,0,0,0,0,0,0,0,0,0,0,1.03,0
204,160,6,12,0,154,137,125,118,110,108,0,0,0,0,0,0,0,0,0,0,0,0,0,114,113,112,111,109,108,0,0,0,0,0,0,0,0,0,0,0,0,0,1.06,0
207,182,6,13,0,175,156,143,135,125,122,0,0,0,0,0,0,0,0,0,0,0,0,0,80,78,77,76,75,74,0,0,0,0,0,0,0,0,0,0,0,0,0,1.05,0
210,92,2,1,0,91,87,83,77,75,74,0,0,0,0,0,0,0,0,0,0,0,0,0,91,78,77,76,75,74,0,0,0,0,0,0,0,0,0,0,0,0,0,0.41,0
213,108,6,2,0,107,106,102,93,80,76,0,0,0,0,0,0,0,0,0,0,0,0,0,107,106,80,79,77,76,0,0,0,0,0,0,0,0,0,0,0,0,0,0.45,0
216,114,0,1,0,112,109,106,103,99,97,0,0,0,0,0,0,0,0,0,0,0,0,0,112,79,78,77,76,75,0,0,0,0,0,0,0,0,0,0,0,0,0,0.27,0
219,82,0,0,0,81,80,79,78,77,76,0,0,0,0,0,0,0,0,0,0,0,0,0,81,80,79,78,77,76,0,0,0,0,0,0,0,0,0,0,0,0,0,0.00,0
222,92,0,0,0,91,90,89,88,87,86,0,0,0,0,0,0,0,0,0,0,0,0,0,91,90,89,88,87,86,0,0,0,0,0,0,0,0,0,0,0,0,0,0.00,0
225,96,0,0,0,95,94,93,92,91,90,0,0,0,0,0,0,0,0,0,0,0,0,0,95,94,93,92,91,90,0,0,0,0,0,0,0,0,0,0,0,0,0,0.00,0
228,160,0,1,1,158,152,149,145,139,136,0,0,0,0,0,0,0,0,0,0,0,0,0,156,132,131,130,129,128,0,0,0,0,0,0,0,0,0,0,0,0,0,0.28,0
231,212,0,4,1,205,196,190,182,170,166,0,0,0,0,0,0,0,0,0,0,0,0,0,117,88,87,85,83,82,0,0,0,0,0,0,0,0,0,0,0,0,0,0.56,0
234,82,0,0,0,81,80,79,78,77,76,0,0,0,0,0,0,0,0,0,0,0,0,0,81,80,79,78,77,76,0,0,0,0,0,0,0,0,0,0,0,0,0,0.00,0
237,86,0,2,0,85,81,80,79,77,76,0,0,0,0,0,0,0,0,0,0,0,0,0,85,81,80,79,77,76,0,0,0,0,0,0,0,0,0,0,0,0,0,0.25,0
240,86,0,0,0,85,84,83,82,81,80,0,0,0,0,0,0,0,0,0,0,0,0,0,85,84,83,82,81,80,0,0,0,0,0,0,0,0,0,0,0,0,0,0.00,0
243,86,0,0,0,85,84,83,82,81,80,0,0,0,0,0,0,0,0,0,0,0,0,0,85,84,83,82,81,80,0,0,0,0,0,0,0,0,0,0,0,0,0,0.00,0
246,82,0,0,0,81,80,79,78,77,76,0,0,0,0,0,0,0,0,0,0,0,0,0,81,80,79,78,77,76,0,0,0,0,0,0,0,0,0,0,0,0,0,0.00,0
249,84,0,0,0,83,82,81,80,79,78,0,0,0,0,0,0,0,0,0,0,0,0,0,83,82,81,80,79,78,0,0,0,0,0,0,0,0,0,0,0,0,0,0.00,0
252,104,0,0,0,103,90,83,76,75,74,0,0,0,0,0,0,0,0,0,0,0,0,0,103,78,77,76,75,74,0,0,0,0,0,0,0,0,0,0,0,0,0,0.52,0
255,112,0,0,0,111,94,85,76,75,74,0,0,0,0,0,0,0,0,0,0,0,0,0,111,78,77,76,75,74,0,0,0,0,0,0,0,0,0,0,0,0,0,0.59,0
258,160,0,0,0,149,136,126,109,95,89,0,0,0,0,0,0,0,0,0,0,0,0,0,97,92,79,78,76,75,0,0,0,0,0,0,0,0,0,0,0,0,0,0.85,0
261,240,0,0,0,219,192,173,140,114,103,0,0,0,0,0,0,0,0,0,0,0,0,0,105,78,77,76,75,74,0,0,0,0,0,0,0,0,0,0,0,0,0,1.04,0
264,216,0,0,0,195,170,154,127,109,101,0,0,0,0,0,0,0,0,0,0,0,0,0,89,84,83,82,81,80,0,0,0,0,0,0,0,0,0,0,0,0,0,1.05,0
267,160,0,0,0,159,152,149,144,139,136,0,0,0,0,0,0,0,0,0,0,0,0,0,159,96,95,94,93,92,0,0,0,0,0,0,0,0,0,0,0,0,0,0.23,0
270,170,0,0,0,169,162,159,154,149,146,0,0,0,0,0,0,0,0,0,0,0,0,0,169,106,105,104,103,102,0,0,0,0,0,0,0,0,0,0,0,0,0,0.22,0
273,140,0,0,0,139,132,129,124,119,116,0,0,0,0,0,0,0,0,0,0,0,0,0,139,96,95,94,93,92,0,0,0,0,0,0,0,0,0,0,0,0,0,0.26,0
276,88,0,0,0,87,86,85,84,83,82,0,0,0,0,0,0,0,0,0,0,0,0,0,87,86,85,84,83,82,0,0,0,0,0,0,0,0,0,0,0,0,0,0.00,0
279,144,0,6,1,136,128,119,108,84,76,0,0,0,0,0,0,0,0,0,0,0,0,0,81,80,79,78,76,75,0,0,0,0,0,0,0,0,0,0,0,0,0,0.72,0
282,112,0,2,0,109,106,103,99,94,90,0,0,0,0,0,0,0,0,0,0,0,0,0,92,91,83,82,78,77,0,0,0,0,0,0,0,0,0,0,0,0,0,0.28,0
320,160,12,11,0,153,136,124,115,108,103,0,0,0,0,0,0,0,0,0,0,0,0,0,103,102,101,100,99,98,0,0,0,0,0,0,0,0,0,0,0,0,0,1.08,0
326,170,12,11,0,163,146,134,125,118,113,0,0,0,0,0,0,0,0,0,0,0,0,0,113,112,111,110,109,108,0,0,0,0,0,0,0,0,0,0,0,0,0,1.03,0
332,160,12,11,0,153,136,124,115,108,103,0,0,0,0,0,0,0,0,0,0,0,0,0,103,102,101,100,99,98,0,0,0,0,0,0,0,0,0,0,0,0,0,1.08,0
338,170,12,11,0,163,146,134,125,118,113,0,0,0,0,0,0,0,0,0,0,0,0,0,113,112,111,110,109,108,0,0,0,0,0,0,0,0,0,0,0,0,0,1.03,0
346,160,6,13,0,153,134,121,113,103,100,0,0,0,0,0,0,0,0,0,0,0,0,0,58,56,55,54,53,52,0,0,0,0,0,0,0,0,0,0,0,0,0,1.16,0
349,182,6,13,0,175,156,143,135,125,122,0,0,0,0,0,0,0,0,0,0,0,0,0,80,78,77,76,75,74,0,0,0,0,0,0,0,0,0,0,0,0,0,1.05,0
352,160,0,9,0,152,134,123,112,102,97,0,0,0,0,0,0,0,0,0,0,0,0,0,99,91,89,87,84,83,0,0,0,0,0,0,0,0,0,0,0,0,0,1.28,0
355,240,0,13,0,226,198,183,168,151,143,0,0,0,0,0,0,0,0,0,0,0,0,0,99,91,89,87,84,83,0,0,0,0,0,0,0,0,0,0,0,0,0,1.33,0
358,240,0,8,0,231,213,205,196,180,171,0,0,0,0,0,0,0,0,0,0,0,0,0,90,56,55,54,53,50,0,0,0,0,0,0,0,0,0,0,0,0,0,0.81,0
361,186,0,5,0,179,167,161,155,145,138,0,0,0,0,0,0,0,0,0,0,0,0,0,116,82,81,80,79,76,0,0,0,0,0,0,0,0,0,0,0,0,0,0.63,0
