pkt#,size,#dec,#op,#rung,#2gram,#3gram,#4gram,#5gram,#6gram,#7gram,#8gram,#9gram,#10gram,#11gram,#12gram,#13gram,#14gram,#15gram,#16gram,#17gram,#18gram,#19gram,#20gram,L2gram,L3gram,L4gram,L5gram,L6gram,L7gram,L8gram,L9gram,L10gram,L11gram,L12gram,L13gram,L14gram,L15gram,L16gram,L17gram,L18gram,L19gram,L20gram,entropy,class
59,708,0,0,0,707,0,0,0,0,0,0,0,0,0,0,0,0,0,0,0,0,0,0,707,0,0,0,0,0,0,0,0,0,0,0,0,0,0,0,0,0,0,0.00,0
62,708,0,0,0,707,0,0,0,0,0,0,0,0,0,0,0,0,0,0,0,0,0,0,707,0,0,0,0,0,0,0,0,0,0,0,0,0,0,0,0,0,0,0.00,0
65,708,0,0,0,707,0,0,0,0,0,0,0,0,0,0,0,0,0,0,0,0,0,0,707,0,0,0,0,0,0,0,0,0,0,0,0,0,0,0,0,0,0,0.00,0
68,708,0,0,0,707,0,0,0,0,0,0,0,0,0,0,0,0,0,0,0,0,0,0,707,0,0,0,0,0,0,0,0,0,0,0,0,0,0,0,0,0,0,0.00,0
71,708,0,0,0,707,0,0,0,0,0,0,0,0,0,0,0,0,0,0,0,0,0,0,707,0,0,0,0,0,0,0,0,0,0,0,0,0,0,0,0,0,0,0.00,0
74,708,0,0,0,707,0,0,0,0,0,0,0,0,0,0,0,0,0,0,0,0,0,0,707,0,0,0,0,0,0,0,0,0,0,0,0,0,0,0,0,0,0,0.00,0
77,708,0,0,0,707,0,0,0,0,0,0,0,0,0,0,0,0,0,0,0,0,0,0,707,0,0,0,0,0,0,0,0,0,0,0,0,0,0,0,0,0,0,0.00,0
80,708,0,0,0,707,0,0,0,0,0,0,0,0,0,0,0,0,0,0,0,0,0,0,707,0,0,0,0,0,0,0,0,0,0,0,0,0,0,0,0,0,0,0.00,0
83,708,0,0,0,707,0,0,0,0,0,0,0,0,0,0,0,0,0,0,0,0,0,0,707,0,0,0,0,0,0,0,0,0,0,0,0,0,0,0,0,0,0,0.00,0
86,708,0,0,0,707,0,0,0,0,0,0,0,0,0,0,0,0,0,0,0,0,0,0,707,0,0,0,0,0,0,0,0,0,0,0,0,0,0,0,0,0,0,0.00,0
89,708,0,0,0,707,0,0,0,0,0,0,0,0,0,0,0,0,0,0,0,0,0,0,707,0,0,0,0,0,0,0,0,0,0,0,0,0,0,0,0,0,0,0.00,0
92,708,0,0,0,707,0,0,0,0,0,0,0,0,0,0,0,0,0,0,0,0,0,0,707,0,0,0,0,0,0,0,0,0,0,0,0,0,0,0,0,0,0,0.00,0
95,708,0,0,0,707,0,0,0,0,0,0,0,0,0,0,0,0,0,0,0,0,0,0,707,0,0,0,0,0,0,0,0,0,0,0,0,0,0,0,0,0,0,0.00,0
98,708,0,0,0,707,0,0,0,0,0,0,0,0,0,0,0,0,0,0,0,0,0,0,707,0,0,0,0,0,0,0,0,0,0,0,0,0,0,0,0,0,0,0.00,0
101,708,0,0,0,707,0,0,0,0,0,0,0,0,0,0,0,0,0,0,0,0,0,0,707,0,0,0,0,0,0,0,0,0,0,0,0,0,0,0,0,0,0,0.00,0
104,708,0,0,0,707,0,0,0,0,0,0,0,0,0,0,0,0,0,0,0,0,0,0,707,0,0,0,0,0,0,0,0,0,0,0,0,0,0,0,0,0,0,0.00,0
107,708,0,0,0,707,0,0,0,0,0,0,0,0,0,0,0,0,0,0,0,0,0,0,707,0,0,0,0,0,0,0,0,0,0,0,0,0,0,0,0,0,0,0.00,0
110,708,0,0,0,707,0,0,0,0,0,0,0,0,0,0,0,0,0,0,0,0,0,0,707,0,0,0,0,0,0,0,0,0,0,0,0,0,0,0,0,0,0,0.00,0
113,708,0,0,0,707,0,0,0,0,0,0,0,0,0,0,0,0,0,0,0,0,0,0,707,0,0,0,0,0,0,0,0,0,0,0,0,0,0,0,0,0,0,0.00,0
116,708,0,0,0,707,0,0,0,0,0,0,0,0,0,0,0,0,0,0,0,0,0,0,707,0,0,0,0,0,0,0,0,0,0,0,0,0,0,0,0,0,0,0.00,0
119,708,0,0,0,707,0,0,0,0,0,0,0,0,0,0,0,0,0,0,0,0,0,0,707,0,0,0,0,0,0,0,0,0,0,0,0,0,0,0,0,0,0,0.00,0
122,708,0,0,0,707,0,0,0,0,0,0,0,0,0,0,0,0,0,0,0,0,0,0,707,0,0,0,0,0,0,0,0,0,0,0,0,0,0,0,0,0,0,0.00,0
125,708,0,0,0,707,0,0,0,0,0,0,0,0,0,0,0,0,0,0,0,0,0,0,707,0,0,0,0,0,0,0,0,0,0,0,0,0,0,0,0,0,0,0.00,0
128,708,0,0,0,707,0,0,0,0,0,0,0,0,0,0,0,0,0,0,0,0,0,0,707,0,0,0,0,0,0,0,0,0,0,0,0,0,0,0,0,0,0,0.00,0
131,708,0,0,0,707,0,0,0,0,0,0,0,0,0,0,0,0,0,0,0,0,0,0,707,0,0,0,0,0,0,0,0,0,0,0,0,0,0,0,0,0,0,0.00,0
134,708,0,0,0,707,0,0,0,0,0,0,0,0,0,0,0,0,0,0,0,0,0,0,707,0,0,0,0,0,0,0,0,0,0,0,0,0,0,0,0,0,0,0.00,0
137,708,0,0,0,707,0,0,0,0,0,0,0,0,0,0,0,0,0,0,0,0,0,0,707,0,0,0,0,0,0,0,0,0,0,0,0,0,0,0,0,0,0,0.00,0
140,708,0,0,0,707,0,0,0,0,0,0,0,0,0,0,0,0,0,0,0,0,0,0,707,0,0,0,0,0,0,0,0,0,0,0,0,0,0,0,0,0,0,0.00,0
143,708,0,0,0,707,0,0,0,0,0,0,0,0,0,0,0,0,0,0,0,0,0,0,707,0,0,0,0,0,0,0,0,0,0,0,0,0,0,0,0,0,0,0.00,0
146,708,0,0,0,707,0,0,0,0,0,0,0,0,0,0,0,0,0,0,0,0,0,0,707,0,0,0,0,0,0,0,0,0,0,0,0,0,0,0,0,0,0,0.00,0
149,708,0,0,0,707,0,0,0,0,0,0,0,0,0,0,0,0,0,0,0,0,0,0,707,0,0,0,0,0,0,0,0,0,0,0,0,0,0,0,0,0,0,0.00,0
152,708,2,3,1,686,12,0,0,0,0,0,0,0,0,0,0,0,0,0,0,0,0,0,407,2,0,0,0,0,0,0,0,0,0,0,0,0,0,0,0,0,0,0.30,0
155,708,2,3,1,596,70,0,0,0,0,0,0,0,0,0,0,0,0,0,0,0,0,0,237,2,0,0,0,0,0,0,0,0,0,0,0,0,0,0,0,0,0,1.07,0
158,708,2,2,1,531,118,0,0,0,0,0,0,0,0,0,0,0,0,0,0,0,0,0,241,1,0,0,0,0,0,0,0,0,0,0,0,0,0,0,0,0,0,1.42,0
161,708,2,2,1,530,117,0,0,0,0,0,0,0,0,0,0,0,0,0,0,0,0,0,237,1,0,0,0,0,0,0,0,0,0,0,0,0,0,0,0,0,0,1.42,0
164,708,2,2,1,531,118,0,0,0,0,0,0,0,0,0,0,0,0,0,0,0,0,0,241,1,0,0,0,0,0,0,0,0,0,0,0,0,0,0,0,0,0,1.42,0
167,708,2,2,1,530,117,0,0,0,0,0,0,0,0,0,0,0,0,0,0,0,0,0,237,1,0,0,0,0,0,0,0,0,0,0,0,0,0,0,0,0,0,1.42,0
170,708,2,2,1,531,118,0,0,0,0,0,0,0,0,0,0,0,0,0,0,0,0,0,241,1,0,0,0,0,0,0,0,0,0,0,0,0,0,0,0,0,0,1.42,0
173,708,2,2,1,530,117,0,0,0,0,0,0,0,0,0,0,0,0,0,0,0,0,0,237,1,0,0,0,0,0,0,0,0,0,0,0,0,0,0,0,0,0,1.42,0
176,708,2,2,1,531,118,0,0,0,0,0,0,0,0,0,0,0,0,0,0,0,0,0,241,1,0,0,0,0,0,0,0,0,0,0,0,0,0,0,0,0,0,1.42,0
179,708,2,3,1,566,88,0,0,0,0,0,0,0,0,0,0,0,0,0,0,0,0,0,347,1,0,0,0,0,0,0,0,0,0,0,0,0,0,0,0,0,0,1.29,0
182,708,2,6,1,614,31,0,0,0,0,0,0,0,0,0,0,0,0,0,0,0,0,0,291,2,0,0,0,0,0,0,0,0,0,0,0,0,0,0,0,0,0,1.06,0
185,558,12,4,1,430,2,0,0,0,0,0,0,0,0,0,0,0,0,0,0,0,0,0,235,2,0,0,0,0,0,0,0,0,0,0,0,0,0,0,0,0,0,1.32,0
188,708,234,3,10,690,173,135,102,81,65,50,36,22,9,6,3,0,0,0,0,0,0,0,289,11,10,9,8,7,6,5,4,3,2,1,0,0,0,0,0,0,0,2.39,1
191,708,472,3,20,652,327,258,201,165,133,103,74,45,18,12,6,0,0,0,0,0,0,0,235,11,10,9,8,7,6,5,4,3,2,1,0,0,0,0,0,0,0,4.04,1
194,527,291,3,18,489,209,178,154,138,122,107,92,77,64,60,56,52,51,50,49,48,47,46,300,63,62,61,60,59,58,57,56,55,54,53,52,51,50,49,48,47,46,3.75,1
197,708,2,11,1,494,0,0,0,0,0,0,0,0,0,0,0,0,0,0,0,0,0,0,235,0,0,0,0,0,0,0,0,0,0,0,0,0,0,0,0,0,0,2.91,0
200,708,2,11,1,259,0,0,0,0,0,0,0,0,0,0,0,0,0,0,0,0,0,0,235,0,0,0,0,0,0,0,0,0,0,0,0,0,0,0,0,0,0,5.61,0
203,708,2,12,1,237,0,0,0,0,0,0,0,0,0,0,0,0,0,0,0,0,0,0,235,0,0,0,0,0,0,0,0,0,0,0,0,0,0,0,0,0,0,5.96,0
206,708,2,12,1,237,0,0,0,0,0,0,0,0,0,0,0,0,0,0,0,0,0,0,235,0,0,0,0,0,0,0,0,0,0,0,0,0,0,0,0,0,0,5.97,0
209,708,2,1,0,236,0,0,0,0,0,0,0,0,0,0,0,0,0,0,0,0,0,0,235,0,0,0,0,0,0,0,0,0,0,0,0,0,0,0,0,0,0,5.89,0
212,708,2,6,2,240,1,0,0,0,0,0,0,0,0,0,0,0,0,0,0,0,0,0,236,1,0,0,0,0,0,0,0,0,0,0,0,0,0,0,0,0,0,5.96,0
215,708,2,19,2,257,0,0,0,0,0,0,0,0,0,0,0,0,0,0,0,0,0,0,235,0,0,0,0,0,0,0,0,0,0,0,0,0,0,0,0,0,0,5.72,0
218,508,4,11,1,277,4,2,0,0,0,0,0,0,0,0,0,0,0,0,0,0,0,0,239,4,1,0,0,0,0,0,0,0,0,0,0,0,0,0,0,0,0,4.06,0
221,620,2,9,1,535,12,1,0,0,0,0,0,0,0,0,0,0,0,0,0,0,0,0,237,2,1,0,0,0,0,0,0,0,0,0,0,0,0,0,0,0,0,1.14,0
224,708,3,5,1,638,1,0,0,0,0,0,0,0,0,0,0,0,0,0,0,0,0,0,237,1,0,0,0,0,0,0,0,0,0,0,0,0,0,0,0,0,0,0.89,0
227,708,3,5,1,639,1,0,0,0,0,0,0,0,0,0,0,0,0,0,0,0,0,0,473,1,0,0,0,0,0,0,0,0,0,0,0,0,0,0,0,0,0,0.89,0
230,708,0,0,0,707,0,0,0,0,0,0,0,0,0,0,0,0,0,0,0,0,0,0,707,0,0,0,0,0,0,0,0,0,0,0,0,0,0,0,0,0,0,0.00,0
233,635,2,2,0,632,1,0,0,0,0,0,0,0,0,0,0,0,0,0,0,0,0,0,396,1,0,0,0,0,0,0,0,0,0,0,0,0,0,0,0,0,0,0.05,0
236,535,2,10,1,463,9,0,0,0,0,0,0,0,0,0,0,0,0,0,0,0,0,0,337,2,0,0,0,0,0,0,0,0,0,0,0,0,0,0,0,0,0,1.14,0
239,299,2,11,1,198,10,0,0,0,0,0,0,0,0,0,0,0,0,0,0,0,0,0,101,2,0,0,0,0,0,0,0,0,0,0,0,0,0,0,0,0,0,2.57,0
380,708,2,11,1,259,0,0,0,0,0,0,0,0,0,0,0,0,0,0,0,0,0,0,235,0,0,0,0,0,0,0,0,0,0,0,0,0,0,0,0,0,0,5.61,0
383,708,2,11,1,26,0,0,0,0,0,0,0,0,0,0,0,0,0,0,0,0,0,0,5,0,0,0,0,0,0,0,0,0,0,0,0,0,0,0,0,0,0,7.59,0
386,708,2,12,1,2,0,0,0,0,0,0,0,0,0,0,0,0,0,0,0,0,0,0,1,0,0,0,0,0,0,0,0,0,0,0,0,0,0,0,0,0,0,7.73,0
389,708,2,12,1,3,0,0,0,0,0,0,0,0,0,0,0,0,0,0,0,0,0,0,1,0,0,0,0,0,0,0,0,0,0,0,0,0,0,0,0,0,0,7.72,0
392,708,2,1,2,4,0,0,0,0,0,0,0,0,0,0,0,0,0,0,0,0,0,0,1,0,0,0,0,0,0,0,0,0,0,0,0,0,0,0,0,0,0,7.71,0
395,708,2,6,2,23,0,0,0,0,0,0,0,0,0,0,0,0,0,0,0,0,0,0,15,0,0,0,0,0,0,0,0,0,0,0,0,0,0,0,0,0,0,7.66,0
398,708,4,19,2,244,4,2,0,0,0,0,0,0,0,0,0,0,0,0,0,0,0,0,203,4,1,0,0,0,0,0,0,0,0,0,0,0,0,0,0,0,0,5.82,0
401,508,4,11,1,277,4,2,0,0,0,0,0,0,0,0,0,0,0,0,0,0,0,0,239,4,1,0,0,0,0,0,0,0,0,0,0,0,0,0,0,0,0,4.06,0
407,413,2,11,1,312,10,0,0,0,0,0,0,0,0,0,0,0,0,0,0,0,0,0,215,2,0,0,0,0,0,0,0,0,0,0,0,0,0,0,0,0,0,1.99,0
