pkt#,size,#dec,#op,#rung,#2gram,#3gram,#4gram,#5gram,#6gram,#7gram,#8gram,#9gram,#10gram,#11gram,#12gram,#13gram,#14gram,#15gram,#16gram,#17gram,#18gram,#19gram,#20gram,L2gram,L3gram,L4gram,L5gram,L6gram,L7gram,L8gram,L9gram,L10gram,L11gram,L12gram,L13gram,L14gram,L15gram,L16gram,L17gram,L18gram,L19gram,L20gram,entropy,class
46,2,0,0,0,0,0,0,0,0,0,0,0,0,0,0,0,0,0,0,0,0,0,0,0,0,0,0,0,0,0,0,0,0,0,0,0,0,0,0,0,0,0,1.00,0
49,78,0,9,1,70,56,45,38,35,33,0,0,0,0,0,0,0,0,0,0,0,0,0,31,30,29,27,25,24,0,0,0,0,0,0,0,0,0,0,0,0,0,1.75,0
52,80,6,11,0,61,34,21,15,9,5,1,0,0,0,0,0,0,0,0,0,0,0,0,13,11,10,8,4,3,1,0,0,0,0,0,0,0,0,0,0,0,0,3.34,0
55,80,6,8,0,64,37,24,14,6,0,0,0,0,0,0,0,0,0,0,0,0,0,0,9,6,5,4,2,0,0,0,0,0,0,0,0,0,0,0,0,0,0,3.38,0
58,80,6,5,0,69,45,34,23,9,0,0,0,0,0,0,0,0,0,0,0,0,0,0,10,6,5,4,2,0,0,0,0,0,0,0,0,0,0,0,0,0,0,2.76,0
61,80,6,4,0,74,58,49,41,25,13,0,0,0,0,0,0,0,0,0,0,0,0,0,45,9,8,7,4,3,0,0,0,0,0,0,0,0,0,0,0,0,0,1.73,0
64,54,16,9,0,43,27,16,8,0,0,0,0,0,0,0,0,0,0,0,0,0,0,0,6,5,3,2,0,0,0,0,0,0,0,0,0,0,0,0,0,0,0,2.34,0
67,64,0,0,0,50,41,35,33,32,30,0,0,0,0,0,0,0,0,0,0,0,0,0,36,35,34,33,32,30,0,0,0,0,0,0,0,0,0,0,0,0,0,2.25,0
70,80,60,13,2,72,62,49,35,21,10,2,0,0,0,0,0,0,0,0,0,0,0,0,24,13,11,6,5,2,1,0,0,0,0,0,0,0,0,0,0,0,0,3.73,1
73,80,76,11,1,74,62,49,33,22,12,6,4,2,1,0,0,0,0,0,0,0,0,0,36,13,11,10,9,7,6,3,2,1,0,0,0,0,0,0,0,0,0,3.74,1
76,80,68,10,1,75,63,50,35,21,9,4,2,0,0,0,0,0,0,0,0,0,0,0,36,13,11,6,5,3,2,1,0,0,0,0,0,0,0,0,0,0,0,3.87,1
80,80,76,10,1,73,60,47,31,15,6,2,0,0,0,0,0,0,0,0,0,0,0,0,28,8,6,5,4,2,1,0,0,0,0,0,0,0,0,0,0,0,0,3.54,1
83,80,66,11,2,69,54,44,28,16,8,3,0,0,0,0,0,0,0,0,0,0,0,0,21,7,6,5,4,2,1,0,0,0,0,0,0,0,0,0,0,0,0,3.68,1
86,80,60,12,0,72,57,46,27,14,7,2,0,0,0,0,0,0,0,0,0,0,0,0,21,7,6,5,4,2,1,0,0,0,0,0,0,0,0,0,0,0,0,3.71,1
89,80,70,14,2,69,57,45,34,22,13,6,4,2,1,0,0,0,0,0,0,0,0,0,15,14,12,10,8,5,4,3,2,1,0,0,0,0,0,0,0,0,0,3.85,1
92,80,74,10,0,76,65,56,44,32,24,15,10,5,1,0,0,0,0,0,0,0,0,0,36,13,12,11,9,7,4,3,2,1,0,0,0,0,0,0,0,0,0,3.84,1
95,38,26,5,1,36,32,27,21,15,13,11,7,5,4,3,2,1,0,0,0,0,0,0,20,14,13,12,11,10,9,7,5,4,3,2,1,0,0,0,0,0,0,3.10,1
98,8,6,1,1,7,6,5,4,3,2,1,0,0,0,0,0,0,0,0,0,0,0,0,7,6,5,4,3,2,1,0,0,0,0,0,0,0,0,0,0,0,0,1.55,0
101,80,12,11,0,73,56,44,35,28,23,0,0,0,0,0,0,0,0,0,0,0,0,0,23,22,21,20,19,18,0,0,0,0,0,0,0,0,0,0,0,0,0,1.87,0
104,10,0,0,0,9,8,7,6,5,4,0,0,0,0,0,0,0,0,0,0,0,0,0,9,8,7,6,5,4,0,0,0,0,0,0,0,0,0,0,0,0,0,0.00,0
107,80,0,5,0,70,54,45,38,34,31,0,0,0,0,0,0,0,0,0,0,0,0,0,37,34,33,32,31,30,0,0,0,0,0,0,0,0,0,0,0,0,0,2.04,0
110,80,0,3,0,77,71,69,65,58,55,0,0,0,0,0,0,0,0,0,0,0,0,0,54,52,51,44,42,41,0,0,0,0,0,0,0,0,0,0,0,0,0,0.65,0
113,80,0,4,0,73,62,57,52,44,40,0,0,0,0,0,0,0,0,0,0,0,0,0,35,33,32,31,29,28,0,0,0,0,0,0,0,0,0,0,0,0,0,1.02,0
116,26,0,1,0,25,23,21,19,17,16,0,0,0,0,0,0,0,0,0,0,0,0,0,25,21,20,19,17,16,0,0,0,0,0,0,0,0,0,0,0,0,0,0.47,0
119,80,12,11,0,73,56,44,35,28,23,0,0,0,0,0,0,0,0,0,0,0,0,0,23,22,21,20,19,18,0,0,0,0,0,0,0,0,0,0,0,0,0,1.87,0
122,10,0,0,0,9,8,7,6,5,4,0,0,0,0,0,0,0,0,0,0,0,0,0,9,8,7,6,5,4,0,0,0,0,0,0,0,0,0,0,0,0,0,0.00,0
125,80,6,12,0,74,57,45,38,30,28,0,0,0,0,0,0,0,0,0,0,0,0,0,34,33,32,31,29,28,0,0,0,0,0,0,0,0,0,0,0,0,0,1.81,0
128,22,0,0,0,20,19,18,17,15,14,0,0,0,0,0,0,0,0,0,0,0,0,0,20,19,18,17,15,14,0,0,0,0,0,0,0,0,0,0,0,0,0,0.53,0
131,12,2,1,0,11,9,6,1,0,0,0,0,0,0,0,0,0,0,0,0,0,0,0,11,5,3,1,0,0,0,0,0,0,0,0,0,0,0,0,0,0,0,1.78,0
134,28,6,2,0,27,26,22,14,3,0,0,0,0,0,0,0,0,0,0,0,0,0,0,27,26,14,6,1,0,0,0,0,0,0,0,0,0,0,0,0,0,0,1.30,0
137,34,0,1,0,32,30,28,26,23,22,0,0,0,0,0,0,0,0,0,0,0,0,0,32,29,28,26,23,22,0,0,0,0,0,0,0,0,0,0,0,0,0,0.70,0
140,2,0,0,0,1,0,0,0,0,0,0,0,0,0,0,0,0,0,0,0,0,0,0,1,0,0,0,0,0,0,0,0,0,0,0,0,0,0,0,0,0,0,0.00,0
143,12,0,0,0,11,10,9,8,7,6,0,0,0,0,0,0,0,0,0,0,0,0,0,11,10,9,8,7,6,0,0,0,0,0,0,0,0,0,0,0,0,0,0.00,0
146,16,0,0,0,15,14,13,12,11,10,0,0,0,0,0,0,0,0,0,0,0,0,0,15,14,13,12,11,10,0,0,0,0,0,0,0,0,0,0,0,0,0,0.00,0
149,80,0,1,1,78,71,67,62,55,52,0,0,0,0,0,0,0,0,0,0,0,0,0,76,50,49,47,45,44,0,0,0,0,0,0,0,0,0,0,0,0,0,0.67,0
152,52,0,3,0,46,42,38,34,29,28,0,0,0,0,0,0,0,0,0,0,0,0,0,40,34,33,31,29,28,0,0,0,0,0,0,0,0,0,0,0,0,0,1.04,0
155,80,0,1,0,79,78,77,76,73,71,0,0,0,0,0,0,0,0,0,0,0,0,0,79,78,77,76,72,71,0,0,0,0,0,0,0,0,0,0,0,0,0,0.10,0
158,80,0,0,0,79,78,77,76,75,74,0,0,0,0,0,0,0,0,0,0,0,0,0,79,78,77,76,75,74,0,0,0,0,0,0,0,0,0,0,0,0,0,0.00,0
161,42,0,0,0,41,40,39,38,37,36,0,0,0,0,0,0,0,0,0,0,0,0,0,41,40,39,38,37,36,0,0,0,0,0,0,0,0,0,0,0,0,0,0.00,0
164,6,0,0,0,5,4,3,2,1,0,0,0,0,0,0,0,0,0,0,0,0,0,0,5,4,3,2,1,0,0,0,0,0,0,0,0,0,0,0,0,0,0,0.00,0
167,6,0,0,0,5,4,3,2,1,0,0,0,0,0,0,0,0,0,0,0,0,0,0,5,4,3,2,1,0,0,0,0,0,0,0,0,0,0,0,0,0,0,0.00,0
170,6,0,0,0,5,4,3,2,1,0,0,0,0,0,0,0,0,0,0,0,0,0,0,5,4,3,2,1,0,0,0,0,0,0,0,0,0,0,0,0,0,0,0.00,0
173,80,0,1,0,79,77,75,73,71,69,0,0,0,0,0,0,0,0,0,0,0,0,0,79,75,74,73,70,69,0,0,0,0,0,0,0,0,0,0,0,0,0,0.19,0
176,18,0,4,0,17,10,3,1,0,0,0,0,0,0,0,0,0,0,0,0,0,0,0,17,4,3,1,0,0,0,0,0,0,0,0,0,0,0,0,0,0,0,2.06,0
179,4,0,0,0,3,2,1,0,0,0,0,0,0,0,0,0,0,0,0,0,0,0,0,3,2,1,0,0,0,0,0,0,0,0,0,0,0,0,0,0,0,0,0.00,0
182,4,0,0,0,3,2,1,0,0,0,0,0,0,0,0,0,0,0,0,0,0,0,0,3,2,1,0,0,0,0,0,0,0,0,0,0,0,0,0,0,0,0,0.00,0
185,24,0,0,0,23,12,6,0,0,0,0,0,0,0,0,0,0,0,0,0,0,0,0,23,2,1,0,0,0,0,0,0,0,0,0,0,0,0,0,0,0,0,1.00,0
188,32,0,0,0,31,16,8,0,0,0,0,0,0,0,0,0,0,0,0,0,0,0,0,31,2,1,0,0,0,0,0,0,0,0,0,0,0,0,0,0,0,0,1.00,0
191,80,0,0,0,69,56,47,31,19,14,0,0,0,0,0,0,0,0,0,0,0,0,0,26,20,11,9,7,6,0,0,0,0,0,0,0,0,0,0,0,0,0,1.37,0
194,80,0,0,0,69,56,47,31,19,14,0,0,0,0,0,0,0,0,0,0,0,0,0,26,20,11,9,7,6,0,0,0,0,0,0,0,0,0,0,0,0,0,1.37,0
197,56,0,0,0,45,34,27,16,10,7,0,0,0,0,0,0,0,0,0,0,0,0,0,26,20,11,9,7,6,0,0,0,0,0,0,0,0,0,0,0,0,0,1.49,0
200,80,0,0,0,79,72,69,64,59,56,0,0,0,0,0,0,0,0,0,0,0,0,0,79,28,27,25,23,22,0,0,0,0,0,0,0,0,0,0,0,0,0,0.38,0
203,10,0,0,0,9,8,7,6,5,4,0,0,0,0,0,0,0,0,0,0,0,0,0,9,8,7,6,5,4,0,0,0,0,0,0,0,0,0,0,0,0,0,0.00,0
206,60,0,0,0,59,52,49,44,39,36,0,0,0,0,0,0,0,0,0,0,0,0,0,59,18,17,15,13,12,0,0,0,0,0,0,0,0,0,0,0,0,0,0.47,0
209,8,0,0,0,7,6,5,4,3,2,0,0,0,0,0,0,0,0,0,0,0,0,0,7,6,5,4,3,2,0,0,0,0,0,0,0,0,0,0,0,0,0,0.00,0
212,64,0,5,0,56,48,40,30,8,1,0,0,0,0,0,0,0,0,0,0,0,0,0,13,12,5,4,2,1,0,0,0,0,0,0,0,0,0,0,0,0,0,1.33,0
215,32,0,2,0,29,26,23,19,15,12,0,0,0,0,0,0,0,0,0,0,0,0,0,16,15,14,12,10,9,0,0,0,0,0,0,0,0,0,0,0,0,0,0.73,0
267,80,12,11,0,73,56,44,35,28,23,0,0,0,0,0,0,0,0,0,0,0,0,0,23,22,21,20,19,18,0,0,0,0,0,0,0,0,0,0,0,0,0,1.87,0
270,10,0,0,0,9,8,7,6,5,4,0,0,0,0,0,0,0,0,0,0,0,0,0,9,8,7,6,5,4,0,0,0,0,0,0,0,0,0,0,0,0,0,0.00,0
273,80,12,11,0,73,56,44,35,28,23,0,0,0,0,0,0,0,0,0,0,0,0,0,23,22,21,20,19,18,0,0,0,0,0,0,0,0,0,0,0,0,0,1.87,0
276,10,0,0,0,9,8,7,6,5,4,0,0,0,0,0,0,0,0,0,0,0,0,0,9,8,7,6,5,4,0,0,0,0,0,0,0,0,0,0,0,0,0,0.00,0
279,80,6,12,0,74,57,45,38,30,28,0,0,0,0,0,0,0,0,0,0,0,0,0,34,33,32,31,29,28,0,0,0,0,0,0,0,0,0,0,0,0,0,1.81,0
282,22,0,0,0,20,19,18,17,15,14,0,0,0,0,0,0,0,0,0,0,0,0,0,20,19,18,17,15,14,0,0,0,0,0,0,0,0,0,0,0,0,0,0.53,0
285,80,0,5,0,70,54,45,38,34,31,0,0,0,0,0,0,0,0,0,0,0,0,0,37,34,33,32,31,30,0,0,0,0,0,0,0,0,0,0,0,0,0,2.04,0
288,80,0,3,0,77,71,69,65,58,55,0,0,0,0,0,0,0,0,0,0,0,0,0,54,52,51,44,42,41,0,0,0,0,0,0,0,0,0,0,0,0,0,0.65,0
291,80,0,4,0,73,62,57,52,44,40,0,0,0,0,0,0,0,0,0,0,0,0,0,35,33,32,31,29,28,0,0,0,0,0,0,0,0,0,0,0,0,0,1.02,0
294,26,0,1,0,25,23,21,19,17,16,0,0,0,0,0,0,0,0,0,0,0,0,0,25,21,20,19,17,16,0,0,0,0,0,0,0,0,0,0,0,0,0,0.47,0
