pkt#,size,#dec,#op,#rung,#2gram,#3gram,#4gram,#5gram,#6gram,#7gram,#8gram,#9gram,#10gram,#11gram,#12gram,#13gram,#14gram,#15gram,#16gram,#17gram,#18gram,#19gram,#20gram,L2gram,L3gram,L4gram,L5gram,L6gram,L7gram,L8gram,L9gram,L10gram,L11gram,L12gram,L13gram,L14gram,L15gram,L16gram,L17gram,L18gram,L19gram,L20gram,entropy,class
1430,2,0,0,0,0,0,0,0,0,0,0,0,0,0,0,0,0,0,0,0,0,0,0,0,0,0,0,0,0,0,0,0,0,0,0,0,0,0,0,0,0,0,1.00,0
1433,78,6,9,1,65,50,40,33,30,28,0,0,0,0,0,0,0,0,0,0,0,0,0,31,30,29,27,25,24,0,0,0,0,0,0,0,0,0,0,0,0,0,2.16,0
1436,80,6,9,0,61,37,21,16,10,5,1,0,0,0,0,0,0,0,0,0,0,0,0,16,12,11,9,4,3,1,0,0,0,0,0,0,0,0,0,0,0,0,3.26,0
1439,80,6,12,0,49,11,0,0,0,0,0,0,0,0,0,0,0,0,0,0,0,0,0,4,2,0,0,0,0,0,0,0,0,0,0,0,0,0,0,0,0,0,3.33,0
1442,80,10,9,0,54,25,16,11,2,0,0,0,0,0,0,0,0,0,0,0,0,0,0,6,5,4,3,1,0,0,0,0,0,0,0,0,0,0,0,0,0,0,3.27,0
1445,80,6,8,0,64,35,23,14,4,0,0,0,0,0,0,0,0,0,0,0,0,0,0,9,7,6,3,1,0,0,0,0,0,0,0,0,0,0,0,0,0,0,3.31,0
1448,80,6,5,0,73,56,46,36,21,10,0,0,0,0,0,0,0,0,0,0,0,0,0,40,9,8,7,4,3,0,0,0,0,0,0,0,0,0,0,0,0,0,1.73,0
1451,80,16,12,0,69,45,34,24,9,3,0,0,0,0,0,0,0,0,0,0,0,0,0,19,8,7,6,4,3,0,0,0,0,0,0,0,0,0,0,0,0,0,2.56,0
1454,24,6,4,0,19,12,7,3,0,0,0,0,0,0,0,0,0,0,0,0,0,0,0,6,5,3,2,0,0,0,0,0,0,0,0,0,0,0,0,0,0,0,1.83,0
1457,64,0,3,0,51,41,35,33,32,30,0,0,0,0,0,0,0,0,0,0,0,0,0,41,36,34,33,32,30,0,0,0,0,0,0,0,0,0,0,0,0,0,2.19,0
1460,80,68,11,2,79,78,77,76,75,74,73,72,71,70,69,68,67,66,65,64,63,62,61,79,78,77,76,75,74,73,72,71,70,69,68,67,66,65,64,63,62,61,4.16,1
1463,80,76,12,0,79,78,77,76,75,74,73,72,71,70,69,68,67,66,65,64,63,62,61,79,78,77,76,75,74,73,72,71,70,69,68,67,66,65,64,63,62,61,4.18,1
1466,80,78,20,0,79,78,77,76,75,74,73,72,71,70,69,68,67,66,65,64,63,62,61,79,78,77,76,75,74,73,72,71,70,69,68,67,66,65,64,63,62,61,3.68,1
1469,80,64,14,1,79,78,77,76,75,74,73,72,71,70,69,68,67,66,65,64,63,62,61,79,78,77,76,75,74,73,72,71,70,69,68,67,66,65,64,63,62,61,4.05,1
1472,80,74,14,1,79,78,77,76,75,74,73,72,71,70,69,68,67,66,65,64,63,62,61,79,78,77,76,75,74,73,72,71,70,69,68,67,66,65,64,63,62,61,3.96,1
1475,80,72,13,0,79,78,77,76,75,74,73,72,71,70,69,68,67,66,65,64,63,62,61,79,78,77,76,75,74,73,72,71,70,69,68,67,66,65,64,63,62,61,3.62,1
1478,80,64,16,0,79,78,77,76,75,74,73,72,71,70,69,68,67,66,65,64,63,62,61,79,78,77,76,75,74,73,72,71,70,69,68,67,66,65,64,63,62,61,3.40,1
1481,80,76,14,0,79,78,77,76,75,74,73,72,71,70,69,68,67,66,65,64,63,62,61,79,78,77,76,75,74,73,72,71,70,69,68,67,66,65,64,63,62,61,3.52,1
1484,80,68,13,0,79,78,77,76,75,74,73,72,71,70,69,68,67,66,65,64,63,62,61,79,78,77,76,75,74,73,72,71,70,69,68,67,66,65,64,63,62,61,3.56,1
1487,80,72,15,0,79,78,77,76,75,74,73,72,71,70,69,68,67,66,65,64,63,62,61,79,78,77,76,75,74,73,72,71,70,69,68,67,66,65,64,63,62,61,3.89,1
1490,80,72,18,2,79,78,77,76,75,74,73,72,71,70,69,68,67,66,65,64,63,62,61,79,78,77,76,75,74,73,72,71,70,69,68,67,66,65,64,63,62,61,3.80,1
1493,80,68,17,0,79,78,77,76,75,74,73,72,71,70,69,68,67,66,65,64,63,62,61,79,78,77,76,75,74,73,72,71,70,69,68,67,66,65,64,63,62,61,3.89,1
1496,80,68,17,3,79,78,77,76,75,74,73,72,71,70,69,68,67,66,65,64,63,62,61,79,78,77,76,75,74,73,72,71,70,69,68,67,66,65,64,63,62,61,3.73,1
1499,80,52,12,2,79,78,77,76,75,74,73,72,71,70,69,68,67,66,65,64,63,62,61,79,78,77,76,75,74,73,72,71,70,69,68,67,66,65,64,63,62,61,3.63,1
1502,80,72,13,1,79,78,77,76,75,74,73,72,71,70,69,68,67,66,65,64,63,62,61,79,78,77,76,75,74,73,72,71,70,69,68,67,66,65,64,63,62,61,3.57,1
1505,80,50,12,2,79,78,77,76,75,74,73,72,71,70,69,68,67,66,65,64,63,62,61,79,78,77,76,75,74,73,72,71,70,69,68,67,66,65,64,63,62,61,3.33,1
1508,80,76,14,1,79,78,77,76,75,74,73,72,71,70,69,68,67,66,65,64,63,62,61,79,78,77,76,75,74,73,72,71,70,69,68,67,66,65,64,63,62,61,3.67,1
1511,80,68,17,0,79,78,77,76,75,74,73,72,71,70,69,68,67,66,65,64,63,62,61,79,78,77,76,75,74,73,72,71,70,69,68,67,66,65,64,63,62,61,3.71,1
1514,80,76,20,0,79,78,77,76,75,74,73,72,71,70,69,68,67,66,65,64,63,62,61,79,78,77,76,75,74,73,72,71,70,69,68,67,66,65,64,63,62,61,3.83,1
1517,80,66,16,0,79,78,77,76,75,74,73,72,71,70,69,68,67,66,65,64,63,62,61,79,78,77,76,75,74,73,72,71,70,69,68,67,66,65,64,63,62,61,3.84,1
1520,6,2,1,0,5,4,3,2,1,0,0,0,0,0,0,0,0,0,0,0,0,0,0,5,4,3,2,1,0,0,0,0,0,0,0,0,0,0,0,0,0,0,1.79,1
1523,8,6,1,1,7,6,5,4,3,2,1,0,0,0,0,0,0,0,0,0,0,0,0,7,6,5,4,3,2,1,0,0,0,0,0,0,0,0,0,0,0,0,1.55,0
1526,8,6,1,1,7,6,5,4,3,2,1,0,0,0,0,0,0,0,0,0,0,0,0,7,6,5,4,3,2,1,0,0,0,0,0,0,0,0,0,0,0,0,1.55,0
1529,8,6,1,1,7,6,5,4,3,2,1,0,0,0,0,0,0,0,0,0,0,0,0,7,6,5,4,3,2,1,0,0,0,0,0,0,0,0,0,0,0,0,1.55,0
1532,80,68,13,0,79,78,77,76,75,74,73,72,71,70,69,68,67,66,65,64,63,62,61,79,78,77,76,75,74,73,72,71,70,69,68,67,66,65,64,63,62,61,3.77,1
1535,80,74,17,1,79,78,77,76,75,74,73,72,71,70,69,68,67,66,65,64,63,62,61,79,78,77,76,75,74,73,72,71,70,69,68,67,66,65,64,63,62,61,3.87,1
1538,80,34,12,0,79,78,77,76,75,74,73,72,71,70,69,68,67,66,65,64,63,62,61,79,78,77,76,75,74,73,72,71,70,69,68,67,66,65,64,63,62,61,3.73,1
1541,30,26,7,0,29,28,27,26,25,24,23,22,21,20,19,18,17,16,15,14,13,12,11,29,28,27,26,25,24,23,22,21,20,19,18,17,16,15,14,13,12,11,2.69,1
1544,80,68,11,0,79,78,77,76,75,74,73,72,71,70,69,68,67,66,65,64,63,62,61,79,78,77,76,75,74,73,72,71,70,69,68,67,66,65,64,63,62,61,3.83,1
1547,80,74,14,1,79,78,77,76,75,74,73,72,71,70,69,68,67,66,65,64,63,62,61,79,78,77,76,75,74,73,72,71,70,69,68,67,66,65,64,63,62,61,3.96,1
1550,80,32,12,0,79,78,77,76,75,74,73,72,71,70,69,68,67,66,65,64,63,62,61,79,78,77,76,75,74,73,72,71,70,69,68,67,66,65,64,63,62,61,3.80,1
1553,30,24,6,0,29,28,27,26,25,24,23,22,21,20,19,18,17,16,15,14,13,12,11,29,28,27,26,25,24,23,22,21,20,19,18,17,16,15,14,13,12,11,2.86,1
1556,8,6,1,1,7,6,5,4,3,2,1,0,0,0,0,0,0,0,0,0,0,0,0,7,6,5,4,3,2,1,0,0,0,0,0,0,0,0,0,0,0,0,1.55,0
1559,8,6,1,1,7,6,5,4,3,2,1,0,0,0,0,0,0,0,0,0,0,0,0,7,6,5,4,3,2,1,0,0,0,0,0,0,0,0,0,0,0,0,1.55,0
1562,8,6,1,1,7,6,5,4,3,2,1,0,0,0,0,0,0,0,0,0,0,0,0,7,6,5,4,3,2,1,0,0,0,0,0,0,0,0,0,0,0,0,1.55,0
1565,8,6,1,1,7,6,5,4,3,2,1,0,0,0,0,0,0,0,0,0,0,0,0,7,6,5,4,3,2,1,0,0,0,0,0,0,0,0,0,0,0,0,1.55,0
1568,8,6,1,1,7,6,5,4,3,2,1,0,0,0,0,0,0,0,0,0,0,0,0,7,6,5,4,3,2,1,0,0,0,0,0,0,0,0,0,0,0,0,1.55,0
1571,8,6,1,1,7,6,5,4,3,2,1,0,0,0,0,0,0,0,0,0,0,0,0,7,6,5,4,3,2,1,0,0,0,0,0,0,0,0,0,0,0,0,1.55,0
1574,8,6,1,1,7,6,5,4,3,2,1,0,0,0,0,0,0,0,0,0,0,0,0,7,6,5,4,3,2,1,0,0,0,0,0,0,0,0,0,0,0,0,1.55,0
1577,8,6,1,1,7,6,5,4,3,2,1,0,0,0,0,0,0,0,0,0,0,0,0,7,6,5,4,3,2,1,0,0,0,0,0,0,0,0,0,0,0,0,1.55,0
1580,80,12,11,0,73,56,44,35,28,23,0,0,0,0,0,0,0,0,0,0,0,0,0,23,22,21,20,19,18,0,0,0,0,0,0,0,0,0,0,0,0,0,1.87,0
1583,10,0,0,0,9,8,7,6,5,4,0,0,0,0,0,0,0,0,0,0,0,0,0,9,8,7,6,5,4,0,0,0,0,0,0,0,0,0,0,0,0,0,0.00,0
1586,80,0,6,0,74,62,53,45,41,38,0,0,0,0,0,0,0,0,0,0,0,0,0,44,43,41,39,38,37,0,0,0,0,0,0,0,0,0,0,0,0,0,1.59,0
1589,80,0,3,0,77,70,67,63,56,53,0,0,0,0,0,0,0,0,0,0,0,0,0,54,46,45,44,41,40,0,0,0,0,0,0,0,0,0,0,0,0,0,0.77,0
1592,80,0,4,0,73,62,57,52,44,40,0,0,0,0,0,0,0,0,0,0,0,0,0,35,33,32,31,29,28,0,0,0,0,0,0,0,0,0,0,0,0,0,1.02,0
1595,26,0,1,0,25,23,21,19,17,16,0,0,0,0,0,0,0,0,0,0,0,0,0,25,21,20,19,17,16,0,0,0,0,0,0,0,0,0,0,0,0,0,0.47,0
1598,80,12,11,0,73,56,44,35,28,23,0,0,0,0,0,0,0,0,0,0,0,0,0,23,22,21,20,19,18,0,0,0,0,0,0,0,0,0,0,0,0,0,1.87,0
1601,10,0,0,0,9,8,7,6,5,4,0,0,0,0,0,0,0,0,0,0,0,0,0,9,8,7,6,5,4,0,0,0,0,0,0,0,0,0,0,0,0,0,0.00,0
1604,80,6,12,0,74,57,45,38,30,28,0,0,0,0,0,0,0,0,0,0,0,0,0,34,33,32,31,29,28,0,0,0,0,0,0,0,0,0,0,0,0,0,1.81,0
1607,22,0,0,0,20,19,18,17,15,14,0,0,0,0,0,0,0,0,0,0,0,0,0,20,19,18,17,15,14,0,0,0,0,0,0,0,0,0,0,0,0,0,0.53,0
1610,12,2,1,0,11,9,6,1,0,0,0,0,0,0,0,0,0,0,0,0,0,0,0,11,5,3,1,0,0,0,0,0,0,0,0,0,0,0,0,0,0,0,1.78,0
1613,28,6,2,0,27,26,22,14,3,0,0,0,0,0,0,0,0,0,0,0,0,0,0,27,26,14,6,1,0,0,0,0,0,0,0,0,0,0,0,0,0,0,1.30,0
1616,34,0,1,0,32,30,28,26,23,22,0,0,0,0,0,0,0,0,0,0,0,0,0,32,29,28,26,23,22,0,0,0,0,0,0,0,0,0,0,0,0,0,0.70,0
1619,2,0,0,0,1,0,0,0,0,0,0,0,0,0,0,0,0,0,0,0,0,0,0,1,0,0,0,0,0,0,0,0,0,0,0,0,0,0,0,0,0,0,0.00,0
1622,12,0,0,0,11,10,9,8,7,6,0,0,0,0,0,0,0,0,0,0,0,0,0,11,10,9,8,7,6,0,0,0,0,0,0,0,0,0,0,0,0,0,0.00,0
1625,16,0,0,0,15,14,13,12,11,10,0,0,0,0,0,0,0,0,0,0,0,0,0,15,14,13,12,11,10,0,0,0,0,0,0,0,0,0,0,0,0,0,0.00,0
1628,80,6,3,0,75,68,63,54,42,34,0,0,0,0,0,0,0,0,0,0,0,0,0,69,52,33,15,13,12,0,0,0,0,0,0,0,0,0,0,0,0,0,0.95,0
1631,52,6,4,0,45,40,35,31,29,28,0,0,0,0,0,0,0,0,0,0,0,0,0,35,34,33,31,29,28,0,0,0,0,0,0,0,0,0,0,0,0,0,1.40,0
1636,64,6,0,0,63,62,61,59,55,51,0,0,0,0,0,0,0,0,0,0,0,0,0,63,62,61,42,41,40,0,0,0,0,0,0,0,0,0,0,0,0,0,0.12,0
1644,80,8,7,0,69,58,51,36,17,11,1,0,0,0,0,0,0,0,0,0,0,0,0,29,28,27,8,6,5,1,0,0,0,0,0,0,0,0,0,0,0,0,1.82,0
1647,80,0,0,0,79,78,77,76,75,74,0,0,0,0,0,0,0,0,0,0,0,0,0,79,78,77,76,75,74,0,0,0,0,0,0,0,0,0,0,0,0,0,0.00,0
1650,80,0,0,0,79,78,77,76,75,74,0,0,0,0,0,0,0,0,0,0,0,0,0,79,78,77,76,75,74,0,0,0,0,0,0,0,0,0,0,0,0,0,0.00,0
1653,80,6,2,0,77,74,71,66,61,59,0,0,0,0,0,0,0,0,0,0,0,0,0,57,56,55,54,52,51,0,0,0,0,0,0,0,0,0,0,0,0,0,0.45,0
1656,80,0,0,0,79,78,77,76,75,74,0,0,0,0,0,0,0,0,0,0,0,0,0,79,78,77,76,75,74,0,0,0,0,0,0,0,0,0,0,0,0,0,0.00,0
1659,32,0,0,0,31,30,29,28,27,26,0,0,0,0,0,0,0,0,0,0,0,0,0,31,30,29,28,27,26,0,0,0,0,0,0,0,0,0,0,0,0,0,0.00,0
1662,80,0,0,0,79,78,77,76,75,74,0,0,0,0,0,0,0,0,0,0,0,0,0,79,78,77,76,75,74,0,0,0,0,0,0,0,0,0,0,0,0,0,0.00,0
1665,16,0,0,0,15,14,13,12,11,10,0,0,0,0,0,0,0,0,0,0,0,0,0,15,14,13,12,11,10,0,0,0,0,0,0,0,0,0,0,0,0,0,0.00,0
1668,80,6,3,1,77,72,65,58,53,50,0,0,0,0,0,0,0,0,0,0,0,0,0,52,44,43,40,39,38,0,0,0,0,0,0,0,0,0,0,0,0,0,0.77,0
1671,80,8,2,0,79,77,74,68,64,60,2,0,0,0,0,0,0,0,0,0,0,0,0,79,49,48,47,45,44,1,0,0,0,0,0,0,0,0,0,0,0,0,0.29,0
1674,50,6,5,0,48,41,38,33,29,27,0,0,0,0,0,0,0,0,0,0,0,0,0,38,29,28,26,24,23,0,0,0,0,0,0,0,0,0,0,0,0,0,0.76,0
1677,4,0,0,0,3,2,1,0,0,0,0,0,0,0,0,0,0,0,0,0,0,0,0,3,2,1,0,0,0,0,0,0,0,0,0,0,0,0,0,0,0,0,0.00,0
1680,66,0,6,0,54,42,36,35,33,32,0,0,0,0,0,0,0,0,0,0,0,0,0,38,37,36,35,33,32,0,0,0,0,0,0,0,0,0,0,0,0,0,1.70,0
1683,24,0,0,0,23,12,6,0,0,0,0,0,0,0,0,0,0,0,0,0,0,0,0,23,2,1,0,0,0,0,0,0,0,0,0,0,0,0,0,0,0,0,1.00,0
1686,32,0,0,0,31,16,8,0,0,0,0,0,0,0,0,0,0,0,0,0,0,0,0,31,2,1,0,0,0,0,0,0,0,0,0,0,0,0,0,0,0,0,1.00,0
1689,80,0,0,0,69,56,47,31,19,14,0,0,0,0,0,0,0,0,0,0,0,0,0,26,20,11,9,7,6,0,0,0,0,0,0,0,0,0,0,0,0,0,1.37,0
1692,80,0,0,0,69,56,47,31,19,14,0,0,0,0,0,0,0,0,0,0,0,0,0,26,20,11,9,7,6,0,0,0,0,0,0,0,0,0,0,0,0,0,1.37,0
1695,56,0,0,0,45,34,27,16,10,7,0,0,0,0,0,0,0,0,0,0,0,0,0,26,20,11,9,7,6,0,0,0,0,0,0,0,0,0,0,0,0,0,1.49,0
1698,80,0,0,0,79,72,69,64,59,56,0,0,0,0,0,0,0,0,0,0,0,0,0,79,28,27,25,23,22,0,0,0,0,0,0,0,0,0,0,0,0,0,0.38,0
1701,10,0,0,0,9,8,7,6,5,4,0,0,0,0,0,0,0,0,0,0,0,0,0,9,8,7,6,5,4,0,0,0,0,0,0,0,0,0,0,0,0,0,0.00,0
1704,60,0,0,0,59,52,49,44,39,36,0,0,0,0,0,0,0,0,0,0,0,0,0,59,18,17,15,13,12,0,0,0,0,0,0,0,0,0,0,0,0,0,0.47,0
1707,8,0,0,0,7,6,5,4,3,2,0,0,0,0,0,0,0,0,0,0,0,0,0,7,6,5,4,3,2,0,0,0,0,0,0,0,0,0,0,0,0,0,0.00,0
1710,64,0,5,0,56,48,40,30,8,1,0,0,0,0,0,0,0,0,0,0,0,0,0,13,12,5,4,2,1,0,0,0,0,0,0,0,0,0,0,0,0,0,1.33,0
1713,32,0,2,0,29,26,23,19,15,12,0,0,0,0,0,0,0,0,0,0,0,0,0,16,15,14,12,10,9,0,0,0,0,0,0,0,0,0,0,0,0,0,0.73,0
1749,80,12,11,0,73,56,44,35,28,23,0,0,0,0,0,0,0,0,0,0,0,0,0,23,22,21,20,19,18,0,0,0,0,0,0,0,0,0,0,0,0,0,1.87,0
1752,10,0,0,0,9,8,7,6,5,4,0,0,0,0,0,0,0,0,0,0,0,0,0,9,8,7,6,5,4,0,0,0,0,0,0,0,0,0,0,0,0,0,0.00,0
1755,80,12,11,0,73,56,44,35,28,23,0,0,0,0,0,0,0,0,0,0,0,0,0,23,22,21,20,19,18,0,0,0,0,0,0,0,0,0,0,0,0,0,1.87,0
1758,10,0,0,0,9,8,7,6,5,4,0,0,0,0,0,0,0,0,0,0,0,0,0,9,8,7,6,5,4,0,0,0,0,0,0,0,0,0,0,0,0,0,0.00,0
1761,80,6,12,0,74,57,45,38,30,28,0,0,0,0,0,0,0,0,0,0,0,0,0,34,33,32,31,29,28,0,0,0,0,0,0,0,0,0,0,0,0,0,1.81,0
1764,22,0,0,0,20,19,18,17,15,14,0,0,0,0,0,0,0,0,0,0,0,0,0,20,19,18,17,15,14,0,0,0,0,0,0,0,0,0,0,0,0,0,0.53,0
1767,80,0,6,0,74,62,53,45,41,38,0,0,0,0,0,0,0,0,0,0,0,0,0,44,43,41,39,38,37,0,0,0,0,0,0,0,0,0,0,0,0,0,1.59,0
1770,80,0,3,0,77,70,67,63,56,53,0,0,0,0,0,0,0,0,0,0,0,0,0,54,46,45,44,41,40,0,0,0,0,0,0,0,0,0,0,0,0,0,0.77,0
1774,80,0,4,0,73,62,57,52,44,40,0,0,0,0,0,0,0,0,0,0,0,0,0,35,33,32,31,29,28,0,0,0,0,0,0,0,0,0,0,0,0,0,1.02,0
1777,26,0,1,0,25,23,21,19,17,16,0,0,0,0,0,0,0,0,0,0,0,0,0,25,21,20,19,17,16,0,0,0,0,0,0,0,0,0,0,0,0,0,0.47,0
