pkt#,size,#dec,#op,#rung,#2gram,#3gram,#4gram,#5gram,#6gram,#7gram,#8gram,#9gram,#10gram,#11gram,#12gram,#13gram,#14gram,#15gram,#16gram,#17gram,#18gram,#19gram,#20gram,L2gram,L3gram,L4gram,L5gram,L6gram,L7gram,L8gram,L9gram,L10gram,L11gram,L12gram,L13gram,L14gram,L15gram,L16gram,L17gram,L18gram,L19gram,L20gram,entropy,class
2391,2,0,0,0,0,0,0,0,0,0,0,0,0,0,0,0,0,0,0,0,0,0,0,0,0,0,0,0,0,0,0,0,0,0,0,0,0,0,0,0,0,0,1.00,0
2396,78,6,10,1,66,51,40,33,30,28,0,0,0,0,0,0,0,0,0,0,0,0,0,31,30,29,27,25,24,0,0,0,0,0,0,0,0,0,0,0,0,0,2.16,0
2402,80,6,8,0,61,37,21,13,9,6,1,0,0,0,0,0,0,0,0,0,0,0,0,16,10,8,6,5,3,1,0,0,0,0,0,0,0,0,0,0,0,0,3.16,0
2407,80,6,15,0,57,17,1,0,0,0,0,0,0,0,0,0,0,0,0,0,0,0,0,6,3,1,0,0,0,0,0,0,0,0,0,0,0,0,0,0,0,0,2.82,0
2410,80,6,11,0,59,29,18,12,3,0,0,0,0,0,0,0,0,0,0,0,0,0,0,9,6,5,4,2,0,0,0,0,0,0,0,0,0,0,0,0,0,0,3.26,0
2413,80,6,10,0,64,36,24,16,7,1,0,0,0,0,0,0,0,0,0,0,0,0,0,9,7,6,5,3,1,0,0,0,0,0,0,0,0,0,0,0,0,0,3.28,0
2416,80,6,13,0,67,43,32,22,7,1,0,0,0,0,0,0,0,0,0,0,0,0,0,12,7,5,4,2,1,0,0,0,0,0,0,0,0,0,0,0,0,0,2.86,0
2419,44,16,7,0,35,22,13,6,0,0,0,0,0,0,0,0,0,0,0,0,0,0,0,6,5,3,2,0,0,0,0,0,0,0,0,0,0,0,0,0,0,0,2.22,0
2422,64,6,4,0,49,41,34,33,32,30,0,0,0,0,0,0,0,0,0,0,0,0,0,36,35,34,33,32,30,0,0,0,0,0,0,0,0,0,0,0,0,0,2.22,0
2425,80,78,12,1,79,78,77,76,75,74,73,72,71,70,69,68,67,66,65,64,63,62,61,79,78,77,76,75,74,73,72,71,70,69,68,67,66,65,64,63,62,61,3.90,1
2428,80,78,15,0,79,78,77,76,75,74,73,72,71,70,69,68,67,66,65,64,63,62,61,79,78,77,76,75,74,73,72,71,70,69,68,67,66,65,64,63,62,61,3.83,1
2431,80,68,17,2,79,78,77,76,75,74,73,72,71,70,69,68,67,66,65,64,63,62,61,79,78,77,76,75,74,73,72,71,70,69,68,67,66,65,64,63,62,61,3.15,1
2434,18,14,5,0,17,16,15,14,13,12,11,10,9,8,7,6,5,4,3,2,1,0,0,17,16,15,14,13,12,11,10,9,8,7,6,5,4,3,2,1,0,0,2.21,1
2437,8,6,1,1,7,6,5,4,3,2,1,0,0,0,0,0,0,0,0,0,0,0,0,7,6,5,4,3,2,1,0,0,0,0,0,0,0,0,0,0,0,0,1.55,0
2440,8,6,1,1,7,6,5,4,3,2,1,0,0,0,0,0,0,0,0,0,0,0,0,7,6,5,4,3,2,1,0,0,0,0,0,0,0,0,0,0,0,0,1.55,0
2443,8,6,1,1,7,6,5,4,3,2,1,0,0,0,0,0,0,0,0,0,0,0,0,7,6,5,4,3,2,1,0,0,0,0,0,0,0,0,0,0,0,0,1.55,0
2446,8,6,1,1,7,6,5,4,3,2,1,0,0,0,0,0,0,0,0,0,0,0,0,7,6,5,4,3,2,1,0,0,0,0,0,0,0,0,0,0,0,0,1.55,0
2449,8,6,1,1,7,6,5,4,3,2,1,0,0,0,0,0,0,0,0,0,0,0,0,7,6,5,4,3,2,1,0,0,0,0,0,0,0,0,0,0,0,0,1.55,0
2452,8,6,1,1,7,6,5,4,3,2,1,0,0,0,0,0,0,0,0,0,0,0,0,7,6,5,4,3,2,1,0,0,0,0,0,0,0,0,0,0,0,0,1.55,0
2455,8,6,1,1,7,6,5,4,3,2,1,0,0,0,0,0,0,0,0,0,0,0,0,7,6,5,4,3,2,1,0,0,0,0,0,0,0,0,0,0,0,0,1.55,0
2458,8,6,1,1,7,6,5,4,3,2,1,0,0,0,0,0,0,0,0,0,0,0,0,7,6,5,4,3,2,1,0,0,0,0,0,0,0,0,0,0,0,0,1.55,0
2461,8,6,1,1,7,6,5,4,3,2,1,0,0,0,0,0,0,0,0,0,0,0,0,7,6,5,4,3,2,1,0,0,0,0,0,0,0,0,0,0,0,0,1.55,0
2464,8,6,1,1,7,6,5,4,3,2,1,0,0,0,0,0,0,0,0,0,0,0,0,7,6,5,4,3,2,1,0,0,0,0,0,0,0,0,0,0,0,0,1.55,0
2467,8,6,1,1,7,6,5,4,3,2,1,0,0,0,0,0,0,0,0,0,0,0,0,7,6,5,4,3,2,1,0,0,0,0,0,0,0,0,0,0,0,0,1.55,0
2470,8,6,1,1,7,6,5,4,3,2,1,0,0,0,0,0,0,0,0,0,0,0,0,7,6,5,4,3,2,1,0,0,0,0,0,0,0,0,0,0,0,0,1.55,0
2473,8,6,1,1,7,6,5,4,3,2,1,0,0,0,0,0,0,0,0,0,0,0,0,7,6,5,4,3,2,1,0,0,0,0,0,0,0,0,0,0,0,0,1.55,0
2476,80,12,11,0,73,56,44,35,28,23,0,0,0,0,0,0,0,0,0,0,0,0,0,23,22,21,20,19,18,0,0,0,0,0,0,0,0,0,0,0,0,0,1.87,0
2479,10,0,0,0,9,8,7,6,5,4,0,0,0,0,0,0,0,0,0,0,0,0,0,9,8,7,6,5,4,0,0,0,0,0,0,0,0,0,0,0,0,0,0.00,0
2482,80,0,6,0,74,62,53,45,41,38,0,0,0,0,0,0,0,0,0,0,0,0,0,44,43,41,39,38,37,0,0,0,0,0,0,0,0,0,0,0,0,0,1.59,0
2485,80,0,3,0,77,70,67,63,56,53,0,0,0,0,0,0,0,0,0,0,0,0,0,54,46,45,44,41,40,0,0,0,0,0,0,0,0,0,0,0,0,0,0.77,0
2488,80,0,4,0,73,62,57,52,44,40,0,0,0,0,0,0,0,0,0,0,0,0,0,35,33,32,31,29,28,0,0,0,0,0,0,0,0,0,0,0,0,0,1.02,0
2491,26,0,1,0,25,23,21,19,17,16,0,0,0,0,0,0,0,0,0,0,0,0,0,25,21,20,19,17,16,0,0,0,0,0,0,0,0,0,0,0,0,0,0.47,0
2494,80,12,11,0,73,56,44,35,28,23,0,0,0,0,0,0,0,0,0,0,0,0,0,23,22,21,20,19,18,0,0,0,0,0,0,0,0,0,0,0,0,0,1.87,0
2497,10,0,0,0,9,8,7,6,5,4,0,0,0,0,0,0,0,0,0,0,0,0,0,9,8,7,6,5,4,0,0,0,0,0,0,0,0,0,0,0,0,0,0.00,0
2500,80,6,12,0,74,57,45,38,30,28,0,0,0,0,0,0,0,0,0,0,0,0,0,34,33,32,31,29,28,0,0,0,0,0,0,0,0,0,0,0,0,0,1.81,0
2503,22,0,0,0,20,19,18,17,15,14,0,0,0,0,0,0,0,0,0,0,0,0,0,20,19,18,17,15,14,0,0,0,0,0,0,0,0,0,0,0,0,0,0.53,0
2506,12,2,1,0,11,9,6,1,0,0,0,0,0,0,0,0,0,0,0,0,0,0,0,11,5,3,1,0,0,0,0,0,0,0,0,0,0,0,0,0,0,0,1.78,0
2509,28,6,2,0,27,26,22,14,3,0,0,0,0,0,0,0,0,0,0,0,0,0,0,27,26,14,6,1,0,0,0,0,0,0,0,0,0,0,0,0,0,0,1.30,0
2512,34,0,1,0,32,30,28,26,23,22,0,0,0,0,0,0,0,0,0,0,0,0,0,32,29,28,26,23,22,0,0,0,0,0,0,0,0,0,0,0,0,0,0.70,0
2515,2,0,0,0,1,0,0,0,0,0,0,0,0,0,0,0,0,0,0,0,0,0,0,1,0,0,0,0,0,0,0,0,0,0,0,0,0,0,0,0,0,0,0.00,0
2518,12,0,0,0,11,10,9,8,7,6,0,0,0,0,0,0,0,0,0,0,0,0,0,11,10,9,8,7,6,0,0,0,0,0,0,0,0,0,0,0,0,0,0.00,0
2521,16,0,0,0,15,14,13,12,11,10,0,0,0,0,0,0,0,0,0,0,0,0,0,15,14,13,12,11,10,0,0,0,0,0,0,0,0,0,0,0,0,0,0.00,0
2524,80,0,8,0,76,66,54,45,30,23,0,0,0,0,0,0,0,0,0,0,0,0,0,70,31,29,16,12,11,0,0,0,0,0,0,0,0,0,0,0,0,0,1.41,0
2527,52,0,3,0,45,41,37,32,29,28,0,0,0,0,0,0,0,0,0,0,0,0,0,35,34,33,31,29,28,0,0,0,0,0,0,0,0,0,0,0,0,0,1.17,0
2530,64,0,3,0,63,59,54,52,50,49,0,0,0,0,0,0,0,0,0,0,0,0,0,63,55,53,52,50,49,0,0,0,0,0,0,0,0,0,0,0,0,0,0.43,0
2533,80,0,2,0,76,73,71,68,66,65,0,0,0,0,0,0,0,0,0,0,0,0,0,71,70,69,68,66,65,0,0,0,0,0,0,0,0,0,0,0,0,0,0.46,0
2536,80,0,0,0,79,78,77,76,75,74,0,0,0,0,0,0,0,0,0,0,0,0,0,79,78,77,76,75,74,0,0,0,0,0,0,0,0,0,0,0,0,0,0.00,0
2539,80,0,0,0,79,78,77,76,75,74,0,0,0,0,0,0,0,0,0,0,0,0,0,79,78,77,76,75,74,0,0,0,0,0,0,0,0,0,0,0,0,0,0.00,0
2542,80,0,0,0,79,78,77,76,75,74,0,0,0,0,0,0,0,0,0,0,0,0,0,79,78,77,76,75,74,0,0,0,0,0,0,0,0,0,0,0,0,0,0.00,0
2545,80,0,0,0,79,78,77,76,75,74,0,0,0,0,0,0,0,0,0,0,0,0,0,79,78,77,76,75,74,0,0,0,0,0,0,0,0,0,0,0,0,0,0.00,0
2548,32,0,0,0,31,30,29,28,27,26,0,0,0,0,0,0,0,0,0,0,0,0,0,31,30,29,28,27,26,0,0,0,0,0,0,0,0,0,0,0,0,0,0.00,0
2551,80,0,2,0,78,75,74,73,70,69,0,0,0,0,0,0,0,0,0,0,0,0,0,77,75,74,73,70,69,0,0,0,0,0,0,0,0,0,0,0,0,0,0.27,0
2554,16,0,0,0,15,14,13,12,11,10,0,0,0,0,0,0,0,0,0,0,0,0,0,15,14,13,12,11,10,0,0,0,0,0,0,0,0,0,0,0,0,0,0.00,0
2557,80,0,0,0,79,78,77,76,75,74,0,0,0,0,0,0,0,0,0,0,0,0,0,79,78,77,76,75,74,0,0,0,0,0,0,0,0,0,0,0,0,0,0.00,0
2560,80,0,0,0,79,78,77,76,75,74,0,0,0,0,0,0,0,0,0,0,0,0,0,79,78,77,76,75,74,0,0,0,0,0,0,0,0,0,0,0,0,0,0.00,0
2563,50,0,0,0,49,48,47,46,45,44,0,0,0,0,0,0,0,0,0,0,0,0,0,49,48,47,46,45,44,0,0,0,0,0,0,0,0,0,0,0,0,0,0.00,0
2566,4,0,0,0,3,2,1,0,0,0,0,0,0,0,0,0,0,0,0,0,0,0,0,3,2,1,0,0,0,0,0,0,0,0,0,0,0,0,0,0,0,0,0.00,0
2569,24,0,0,0,23,12,6,0,0,0,0,0,0,0,0,0,0,0,0,0,0,0,0,23,2,1,0,0,0,0,0,0,0,0,0,0,0,0,0,0,0,0,1.00,0
2572,32,0,0,0,31,16,8,0,0,0,0,0,0,0,0,0,0,0,0,0,0,0,0,31,2,1,0,0,0,0,0,0,0,0,0,0,0,0,0,0,0,0,1.00,0
2575,80,0,0,0,69,56,47,31,19,14,0,0,0,0,0,0,0,0,0,0,0,0,0,26,20,11,9,7,6,0,0,0,0,0,0,0,0,0,0,0,0,0,1.37,0
2578,80,0,0,0,69,56,47,31,19,14,0,0,0,0,0,0,0,0,0,0,0,0,0,26,20,11,9,7,6,0,0,0,0,0,0,0,0,0,0,0,0,0,1.37,0
2581,56,0,0,0,45,34,27,16,10,7,0,0,0,0,0,0,0,0,0,0,0,0,0,26,20,11,9,7,6,0,0,0,0,0,0,0,0,0,0,0,0,0,1.49,0
2584,80,0,0,0,79,72,69,64,59,56,0,0,0,0,0,0,0,0,0,0,0,0,0,79,28,27,25,23,22,0,0,0,0,0,0,0,0,0,0,0,0,0,0.38,0
2587,10,0,0,0,9,8,7,6,5,4,0,0,0,0,0,0,0,0,0,0,0,0,0,9,8,7,6,5,4,0,0,0,0,0,0,0,0,0,0,0,0,0,0.00,0
2590,60,0,0,0,59,52,49,44,39,36,0,0,0,0,0,0,0,0,0,0,0,0,0,59,18,17,15,13,12,0,0,0,0,0,0,0,0,0,0,0,0,0,0.47,0
2593,8,0,0,0,7,6,5,4,3,2,0,0,0,0,0,0,0,0,0,0,0,0,0,7,6,5,4,3,2,0,0,0,0,0,0,0,0,0,0,0,0,0,0.00,0
2596,64,0,5,0,56,48,40,30,8,1,0,0,0,0,0,0,0,0,0,0,0,0,0,13,12,5,4,2,1,0,0,0,0,0,0,0,0,0,0,0,0,0,1.33,0
2599,32,0,2,0,29,26,23,19,15,12,0,0,0,0,0,0,0,0,0,0,0,0,0,16,15,14,12,10,9,0,0,0,0,0,0,0,0,0,0,0,0,0,0.73,0
2635,80,12,11,0,73,56,44,35,28,23,0,0,0,0,0,0,0,0,0,0,0,0,0,23,22,21,20,19,18,0,0,0,0,0,0,0,0,0,0,0,0,0,1.87,0
2638,10,0,0,0,9,8,7,6,5,4,0,0,0,0,0,0,0,0,0,0,0,0,0,9,8,7,6,5,4,0,0,0,0,0,0,0,0,0,0,0,0,0,0.00,0
2641,80,12,11,0,73,56,44,35,28,23,0,0,0,0,0,0,0,0,0,0,0,0,0,23,22,21,20,19,18,0,0,0,0,0,0,0,0,0,0,0,0,0,1.87,0
2644,10,0,0,0,9,8,7,6,5,4,0,0,0,0,0,0,0,0,0,0,0,0,0,9,8,7,6,5,4,0,0,0,0,0,0,0,0,0,0,0,0,0,0.00,0
2647,80,6,12,0,74,57,45,38,30,28,0,0,0,0,0,0,0,0,0,0,0,0,0,34,33,32,31,29,28,0,0,0,0,0,0,0,0,0,0,0,0,0,1.81,0
2650,22,0,0,0,20,19,18,17,15,14,0,0,0,0,0,0,0,0,0,0,0,0,0,20,19,18,17,15,14,0,0,0,0,0,0,0,0,0,0,0,0,0,0.53,0
2653,80,0,6,0,74,62,53,45,41,38,0,0,0,0,0,0,0,0,0,0,0,0,0,44,43,41,39,38,37,0,0,0,0,0,0,0,0,0,0,0,0,0,1.59,0
2656,80,0,3,0,77,70,67,63,56,53,0,0,0,0,0,0,0,0,0,0,0,0,0,54,46,45,44,41,40,0,0,0,0,0,0,0,0,0,0,0,0,0,0.77,0
2659,80,0,4,0,73,62,57,52,44,40,0,0,0,0,0,0,0,0,0,0,0,0,0,35,33,32,31,29,28,0,0,0,0,0,0,0,0,0,0,0,0,0,1.02,0
2662,26,0,1,0,25,23,21,19,17,16,0,0,0,0,0,0,0,0,0,0,0,0,0,25,21,20,19,17,16,0,0,0,0,0,0,0,0,0,0,0,0,0,0.47,0
